b1,b2,b3,b4,b5,b6,b7,room
-86.00,-86.00,-85.00,-92.00,-77.00,-79.00,-86.00,2.00
-96.00,-86.00,-96.00,-93.00,-76.00,-76.00,-96.00,2.00
-86.00,-86.00,-86.00,-86.00,-77.00,-77.00,-86.00,2.00
-91.00,-96.00,-96.00,-92.00,-88.00,-79.00,-91.00,2.00
-96.00,-92.00,-96.00,-96.00,-81.00,-82.00,-96.00,2.00
-96.00,-96.00,-93.00,-93.00,-73.00,-75.00,-93.00,2.00
-95.00,-96.00,-90.00,-95.00,-86.00,-70.00,-70.00,2.00
-92.00,-91.00,-92.00,-96.00,-79.00,-73.00,-96.00,2.00
-86.00,-93.00,-93.00,-91.00,-83.00,-81.00,-93.00,2.00
-95.00,-89.00,-93.00,-92.00,-73.00,-79.00,-73.00,2.00
-96.00,-96.00,-96.00,-95.00,-82.00,-77.00,-95.00,2.00
-96.00,-90.00,-93.00,-93.00,-88.00,-71.00,-71.00,2.00
-86.00,-89.00,-93.00,-96.00,-82.00,-73.00,-93.00,2.00
-96.00,-88.00,-86.00,-94.00,-84.00,-80.00,-94.00,2.00
-96.00,-86.00,-93.00,-86.00,-86.00,-88.00,-86.00,2.00
-96.00,-95.00,-96.00,-91.00,-81.00,-83.00,-91.00,2.00
-86.00,-86.00,-90.00,-88.00,-86.00,-80.00,-86.00,2.00
-86.00,-86.00,-79.00,-86.00,-96.00,-94.00,-79.00,2.00
-90.00,-92.00,-67.00,-93.00,-89.00,-93.00,-67.00,1.00
-94.00,-96.00,-66.00,-82.00,-94.00,-94.00,-66.00,1.00
-86.00,-94.00,-67.00,-86.00,-89.00,-96.00,-89.00,1.00
-86.00,-96.00,-56.00,-70.00,-89.00,-88.00,-89.00,1.00
-93.00,-96.00,-62.00,-73.00,-89.00,-87.00,-96.00,1.00
-85.00,-86.00,-60.00,-72.00,-83.00,-96.00,-72.00,1.00
-83.00,-88.00,-62.00,-75.00,-91.00,-86.00,-75.00,1.00
-84.00,-88.00,-62.00,-76.00,-83.00,-86.00,-83.00,1.00
-85.00,-87.00,-62.00,-73.00,-86.00,-83.00,-73.00,1.00
-84.00,-90.00,-62.00,-73.00,-91.00,-87.00,-73.00,1.00
-86.00,-90.00,-62.00,-75.00,-87.00,-83.00,-62.00,1.00
-86.00,-96.00,-67.00,-74.00,-86.00,-93.00,-67.00,1.00
-96.00,-86.00,-75.00,-86.00,-86.00,-86.00,-75.00,1.00
-91.00,-93.00,-77.00,-88.00,-92.00,-96.00,-96.00,0.00
-92.00,-87.00,-90.00,-95.00,-90.00,-93.00,-95.00,0.00
-76.00,-72.00,-86.00,-90.00,-92.00,-96.00,-72.00,0.00
-64.00,-68.00,-93.00,-85.00,-94.00,-83.00,-93.00,0.00
-63.00,-64.00,-96.00,-93.00,-87.00,-84.00,-87.00,0.00
-90.00,-71.00,-96.00,-96.00,-91.00,-86.00,-91.00,0.00
-81.00,-77.00,-96.00,-95.00,-92.00,-86.00,-86.00,0.00
-67.00,-69.00,-95.00,-86.00,-90.00,-86.00,-86.00,0.00
-70.00,-65.00,-86.00,-92.00,-83.00,-80.00,-65.00,0.00
-62.00,-64.00,-86.00,-88.00,-84.00,-86.00,-86.00,0.00
-73.00,-75.00,-86.00,-90.00,-87.00,-83.00,-87.00,0.00
-65.00,-61.00,-86.00,-86.00,-81.00,-86.00,-65.00,0.00
-68.00,-66.00,-92.00,-90.00,-78.00,-82.00,-90.00,0.00
-70.00,-66.00,-94.00,-86.00,-81.00,-86.00,-70.00,0.00
-64.00,-66.00,-96.00,-89.00,-89.00,-86.00,-64.00,0.00
-65.00,-67.00,-86.00,-84.00,-85.00,-89.00,-67.00,0.00
-69.00,-59.00,-96.00,-91.00,-79.00,-93.00,-96.00,0.00
-83.00,-62.00,-86.00,-96.00,-90.00,-83.00,-62.00,0.00
-73.00,-56.00,-95.00,-90.00,-84.00,-83.00,-56.00,0.00
-68.00,-63.00,-85.00,-86.00,-94.00,-91.00,-94.00,0.00
-70.00,-63.00,-90.00,-91.00,-89.00,-91.00,-91.00,0.00
-65.00,-67.00,-88.00,-85.00,-86.00,-84.00,-86.00,0.00
-60.00,-70.00,-84.00,-87.00,-86.00,-94.00,-70.00,0.00
-61.00,-67.00,-84.00,-90.00,-87.00,-89.00,-87.00,0.00
-67.00,-83.00,-93.00,-94.00,-90.00,-92.00,-92.00,0.00
-73.00,-96.00,-91.00,-95.00,-92.00,-86.00,-86.00,0.00
-90.00,-83.00,-96.00,-89.00,-87.00,-90.00,-90.00,1.00
-86.00,-86.00,-84.00,-83.00,-85.00,-89.00,-84.00,1.00
-90.00,-95.00,-65.00,-77.00,-86.00,-95.00,1.00
-93.00,-96.00,-84.00,-69.00,-96.00,-88.00,-93.00,1.00
-90.00,-86.00,-86.00,-68.00,-96.00,-86.00,-86.00,1.00
-84.00,-86.00,-86.00,-63.00,-86.00,-86.00,-86.00,1.00
-87.00,-93.00,-76.00,-71.00,-93.00,-86.00,-87.00,1.00
-88.00,-96.00,-82.00,-73.00,-88.00,-87.00,-88.00,1.00
-89.00,-88.00,-86.00,-79.00,-86.00,-91.00,-89.00,1.00
-91.00,-86.00,-85.00,-83.00,-95.00,-86.00,-95.00,1.00
-85.00,-90.00,-81.00,-82.00,-93.00,-92.00,-82.00,1.00
-83.00,-86.00,-92.00,-68.00,-94.00,-92.00,-92.00,1.00
-90.00,-92.00,-71.00,-76.00,-82.00,-86.00,-82.00,1.00
-86.00,-89.00,-83.00,-88.00,-86.00,-83.00,-88.00,2.00
-93.00,-87.00,-93.00,-90.00,-86.00,-81.00,-86.00,2.00
-95.00,-87.00,-86.00,-92.00,-83.00,-83.00,-83.00,2.00
-96.00,-85.00,-96.00,-96.00,-79.00,-64.00,-85.00,2.00
-95.00,-95.00,-86.00,-71.00,-70.00,-95.00,2.00
-86.00,-91.00,-96.00,-71.00,-65.00,-86.00,2.00
-91.00,-87.00,-96.00,-96.00,-73.00,-67.00,-67.00,2.00
-94.00,-93.00,-96.00,-83.00,-70.00,-83.00,2.00
-95.00,-83.00,-96.00,-83.00,-70.00,-83.00,2.00
-89.00,-92.00,-96.00,-96.00,-83.00,-65.00,-96.00,2.00
-95.00,-92.00,-95.00,-96.00,-89.00,-65.00,-95.00,2.00
-94.00,-92.00,-96.00,-92.00,-70.00,-96.00,2.00
-86.00,-93.00,-95.00,-82.00,-65.00,-65.00,2.00
-96.00,-92.00,-96.00,-73.00,-65.00,-96.00,2.00
-90.00,-82.00,-96.00,-96.00,-73.00,-67.00,-90.00,2.00
-95.00,-93.00,-96.00,-89.00,-67.00,-93.00,2.00
-86.00,-93.00,-96.00,-96.00,-84.00,-66.00,-66.00,2.00
-86.00,-81.00,-96.00,-96.00,-73.00,-70.00,-96.00,2.00
-94.00,-86.00,-96.00,-96.00,-71.00,-63.00,-96.00,2.00
-90.00,-82.00,-95.00,-91.00,-65.00,-82.00,2.00
-96.00,-92.00,-96.00,-91.00,-65.00,-96.00,2.00
-96.00,-90.00,-96.00,-89.00,-67.00,-96.00,2.00
-90.00,-83.00,-96.00,-73.00,-65.00,-73.00,2.00
-86.00,-81.00,-96.00,-96.00,-82.00,-67.00,-67.00,2.00
-89.00,-82.00,-96.00,-96.00,-84.00,-65.00,-96.00,2.00
-91.00,-80.00,-96.00,-96.00,-92.00,-66.00,-92.00,2.00
-96.00,-86.00,-96.00,-91.00,-69.00,-91.00,2.00
-95.00,-92.00,-96.00,-73.00,-67.00,-95.00,2.00
-94.00,-83.00,-96.00,-73.00,-65.00,-94.00,2.00
-89.00,-82.00,-96.00,-96.00,-73.00,-64.00,-82.00,2.00
-89.00,-86.00,-94.00,-96.00,-73.00,-65.00,-86.00,2.00
-96.00,-86.00,-96.00,-82.00,-63.00,-96.00,2.00
-96.00,-86.00,-95.00,-66.00,-76.00,-66.00,2.00
-96.00,-96.00,-86.00,-85.00,-82.00,-88.00,-96.00,0.00
-83.00,-95.00,-94.00,-86.00,-86.00,-86.00,-95.00,1.00
-92.00,-86.00,-73.00,-84.00,-86.00,-86.00,-86.00,1.00
-86.00,-90.00,-65.00,-77.00,-89.00,-86.00,-89.00,1.00
-77.00,-82.00,-67.00,-71.00,-91.00,-87.00,-87.00,1.00
-81.00,-81.00,-67.00,-74.00,-88.00,-95.00,-81.00,1.00
-79.00,-85.00,-67.00,-77.00,-85.00,-86.00,-85.00,1.00
-77.00,-87.00,-66.00,-75.00,-85.00,-88.00,-87.00,1.00
-77.00,-86.00,-67.00,-76.00,-85.00,-95.00,-76.00,1.00
-83.00,-88.00,-67.00,-76.00,-85.00,-90.00,-85.00,1.00
-77.00,-81.00,-67.00,-75.00,-86.00,-94.00,-75.00,1.00
-83.00,-88.00,-65.00,-72.00,-84.00,-86.00,-65.00,1.00
-78.00,-81.00,-67.00,-76.00,-84.00,-86.00,-76.00,1.00
-82.00,-82.00,-65.00,-77.00,-85.00,-90.00,-82.00,1.00
-77.00,-81.00,-67.00,-77.00,-85.00,-92.00,-92.00,1.00
-79.00,-86.00,-67.00,-71.00,-84.00,-90.00,-71.00,1.00
-82.00,-84.00,-65.00,-72.00,-85.00,-86.00,-65.00,1.00
-84.00,-82.00,-67.00,-77.00,-85.00,-94.00,-94.00,1.00
-84.00,-83.00,-65.00,-76.00,-85.00,-89.00,-83.00,1.00
-76.00,-85.00,-67.00,-76.00,-85.00,-91.00,-76.00,1.00
-79.00,-83.00,-68.00,-73.00,-84.00,-92.00,-73.00,1.00
-90.00,-96.00,-67.00,-82.00,-94.00,-94.00,-67.00,1.00
-88.00,-92.00,-80.00,-65.00,-96.00,-96.00,-88.00,1.00
-86.00,-96.00,-78.00,-63.00,-91.00,-96.00,-96.00,1.00
-80.00,-96.00,-85.00,-68.00,-93.00,-93.00,-93.00,1.00
-89.00,-87.00,-70.00,-74.00,-91.00,-89.00,-70.00,1.00
-83.00,-94.00,-69.00,-77.00,-86.00,-89.00,-86.00,0.00
-84.00,-86.00,-85.00,-92.00,-86.00,-86.00,-86.00,0.00
-73.00,-77.00,-86.00,-84.00,-90.00,-83.00,-77.00,0.00
-77.00,-71.00,-96.00,-92.00,-94.00,-86.00,-86.00,0.00
-64.00,-70.00,-94.00,-88.00,-88.00,-88.00,-64.00,0.00
-59.00,-67.00,-94.00,-85.00,-91.00,-85.00,-85.00,0.00
-60.00,-67.00,-93.00,-88.00,-81.00,-83.00,-93.00,0.00
-60.00,-71.00,-86.00,-87.00,-81.00,-83.00,-60.00,0.00
-58.00,-70.00,-85.00,-86.00,-90.00,-82.00,-85.00,0.00
-58.00,-70.00,-86.00,-88.00,-81.00,-82.00,-86.00,0.00
-60.00,-69.00,-93.00,-87.00,-94.00,-85.00,-93.00,0.00
-59.00,-70.00,-86.00,-85.00,-89.00,-85.00,-85.00,0.00
-58.00,-68.00,-92.00,-86.00,-85.00,-83.00,-92.00,0.00
-65.00,-80.00,-92.00,-89.00,-85.00,-81.00,-92.00,0.00
-84.00,-68.00,-96.00,-93.00,-96.00,-96.00,0.00
-86.00,-69.00,-96.00,-96.00,-89.00,-90.00,-96.00,0.00
-89.00,-66.00,-96.00,-96.00,-86.00,-89.00,0.00
-81.00,-69.00,-96.00,-86.00,-90.00,-86.00,-86.00,0.00
-88.00,-73.00,-86.00,-86.00,-86.00,-89.00,-88.00,0.00
-76.00,-76.00,-96.00,-91.00,-90.00,-91.00,-90.00,0.00
-83.00,-71.00,-96.00,-93.00,-85.00,-95.00,-85.00,0.00
-87.00,-75.00,-96.00,-87.00,-89.00,-89.00,0.00
-83.00,-69.00,-95.00,-86.00,-86.00,-96.00,-86.00,0.00
-86.00,-75.00,-86.00,-96.00,-92.00,-86.00,-96.00,0.00
-69.00,-81.00,-93.00,-96.00,-94.00,-93.00,-69.00,0.00
-75.00,-84.00,-86.00,-94.00,-93.00,-86.00,-86.00,0.00
-75.00,-78.00,-96.00,-96.00,-92.00,-91.00,-96.00,0.00
-67.00,-77.00,-91.00,-86.00,-82.00,-87.00,-86.00,0.00
-79.00,-70.00,-95.00,-96.00,-89.00,-93.00,-79.00,0.00
-73.00,-74.00,-95.00,-95.00,-96.00,-93.00,-93.00,0.00
-75.00,-74.00,-96.00,-93.00,-86.00,-86.00,-86.00,0.00
-74.00,-68.00,-96.00,-88.00,-94.00,-91.00,-88.00,0.00
-69.00,-79.00,-96.00,-91.00,-96.00,-93.00,-96.00,0.00
-78.00,-86.00,-86.00,-86.00,-86.00,-88.00,-88.00,2.00
-83.00,-91.00,-93.00,-81.00,-90.00,-91.00,-91.00,2.00
-96.00,-88.00,-89.00,-88.00,-84.00,-92.00,-96.00,2.00
-95.00,-89.00,-96.00,-93.00,-77.00,-66.00,-93.00,2.00
-95.00,-90.00,-86.00,-88.00,-83.00,-83.00,-88.00,2.00
-94.00,-84.00,-89.00,-86.00,-75.00,-87.00,-87.00,2.00
-87.00,-84.00,-86.00,-89.00,-73.00,-89.00,-73.00,2.00
-86.00,-91.00,-85.00,-83.00,-76.00,-73.00,-86.00,2.00
-86.00,-85.00,-84.00,-87.00,-73.00,-84.00,-87.00,2.00
-86.00,-85.00,-92.00,-86.00,-71.00,-84.00,-84.00,2.00
-86.00,-89.00,-93.00,-88.00,-73.00,-83.00,-86.00,2.00
-96.00,-84.00,-93.00,-86.00,-77.00,-79.00,-77.00,2.00
-92.00,-87.00,-85.00,-86.00,-77.00,-76.00,-76.00,2.00
-86.00,-88.00,-85.00,-82.00,-75.00,-85.00,-75.00,2.00
-90.00,-83.00,-84.00,-85.00,-76.00,-85.00,-83.00,2.00
-94.00,-86.00,-91.00,-85.00,-71.00,-73.00,-91.00,2.00
-92.00,-87.00,-86.00,-86.00,-71.00,-71.00,-86.00,2.00
-90.00,-82.00,-86.00,-83.00,-80.00,-72.00,-80.00,2.00
-89.00,-86.00,-96.00,-86.00,-75.00,-73.00,-73.00,2.00
-93.00,-83.00,-89.00,-89.00,-81.00,-69.00,-89.00,2.00
-96.00,-79.00,-86.00,-86.00,-64.00,-66.00,-66.00,2.00
-96.00,-92.00,-86.00,-90.00,-65.00,-60.00,-60.00,2.00
-95.00,-92.00,-96.00,-96.00,-76.00,-68.00,-76.00,2.00
-84.00,-86.00,-86.00,-96.00,-69.00,-61.00,-84.00,2.00
-94.00,-92.00,-86.00,-89.00,-67.00,-67.00,-94.00,2.00
-94.00,-87.00,-86.00,-86.00,-67.00,-64.00,-67.00,2.00
-89.00,-92.00,-93.00,-96.00,-72.00,-64.00,-96.00,2.00
-86.00,-88.00,-92.00,-93.00,-66.00,-71.00,-86.00,2.00
-96.00,-86.00,-86.00,-96.00,-70.00,-75.00,-96.00,2.00
-86.00,-86.00,-91.00,-96.00,-70.00,-72.00,-86.00,2.00
-86.00,-96.00,-93.00,-93.00,-71.00,-61.00,-71.00,2.00
-86.00,-86.00,-94.00,-91.00,-70.00,-69.00,-91.00,2.00
-96.00,-87.00,-92.00,-86.00,-71.00,-81.00,-96.00,2.00
-96.00,-92.00,-92.00,-94.00,-85.00,-69.00,-92.00,2.00
-96.00,-86.00,-96.00,-95.00,-67.00,-75.00,-95.00,2.00
-96.00,-88.00,-86.00,-96.00,-67.00,-73.00,-88.00,2.00
-95.00,-96.00,-96.00,-96.00,-76.00,-78.00,-76.00,2.00
-89.00,-86.00,-95.00,-96.00,-79.00,-68.00,-68.00,2.00
-86.00,-96.00,-96.00,-95.00,-73.00,-73.00,-95.00,2.00
-86.00,-89.00,-86.00,-96.00,-76.00,-67.00,-89.00,2.00
-93.00,-90.00,-94.00,-96.00,-72.00,-62.00,-72.00,2.00
-92.00,-86.00,-96.00,-86.00,-78.00,-72.00,-78.00,2.00
-94.00,-93.00,-86.00,-96.00,-80.00,-69.00,-93.00,2.00
-89.00,-94.00,-96.00,-96.00,-77.00,-84.00,-96.00,2.00
-89.00,-86.00,-82.00,-86.00,-84.00,-84.00,-89.00,1.00
-88.00,-90.00,-75.00,-80.00,-92.00,-86.00,-92.00,1.00
-94.00,-89.00,-85.00,-70.00,-87.00,-92.00,-89.00,1.00
-96.00,-96.00,-81.00,-54.00,-89.00,-86.00,-96.00,1.00
-90.00,-90.00,-81.00,-56.00,-88.00,-86.00,-88.00,1.00
-91.00,-87.00,-86.00,-60.00,-85.00,-90.00,-60.00,1.00
-84.00,-85.00,-78.00,-54.00,-85.00,-92.00,-85.00,1.00
-86.00,-83.00,-84.00,-54.00,-84.00,-86.00,-86.00,1.00
-88.00,-89.00,-79.00,-60.00,-85.00,-92.00,-85.00,1.00
-88.00,-90.00,-78.00,-56.00,-84.00,-92.00,-84.00,1.00
-88.00,-89.00,-79.00,-57.00,-84.00,-93.00,-84.00,1.00
-89.00,-89.00,-79.00,-53.00,-82.00,-92.00,-79.00,1.00
-90.00,-88.00,-79.00,-54.00,-84.00,-92.00,-88.00,1.00
-89.00,-84.00,-78.00,-55.00,-84.00,-86.00,-78.00,1.00
-90.00,-90.00,-77.00,-54.00,-84.00,-93.00,-77.00,1.00
-86.00,-88.00,-78.00,-60.00,-84.00,-86.00,-78.00,1.00
-90.00,-89.00,-79.00,-58.00,-85.00,-92.00,-58.00,1.00
-89.00,-89.00,-84.00,-60.00,-86.00,-92.00,-60.00,1.00
-88.00,-86.00,-78.00,-55.00,-86.00,-92.00,-86.00,1.00
-88.00,-87.00,-78.00,-60.00,-85.00,-92.00,-92.00,1.00
-88.00,-86.00,-78.00,-54.00,-85.00,-92.00,-85.00,1.00
-88.00,-90.00,-84.00,-55.00,-92.00,-92.00,-84.00,1.00
-88.00,-89.00,-79.00,-55.00,-84.00,-92.00,-84.00,1.00
-88.00,-86.00,-83.00,-57.00,-84.00,-92.00,-83.00,1.00
-89.00,-89.00,-77.00,-57.00,-84.00,-91.00,-91.00,1.00
-88.00,-89.00,-84.00,-57.00,-83.00,-92.00,-88.00,1.00
-89.00,-89.00,-78.00,-54.00,-84.00,-92.00,-84.00,1.00
-88.00,-89.00,-79.00,-60.00,-84.00,-91.00,-84.00,1.00
-87.00,-86.00,-79.00,-60.00,-84.00,-86.00,-84.00,1.00
-88.00,-86.00,-78.00,-54.00,-84.00,-92.00,-54.00,1.00
-89.00,-89.00,-84.00,-54.00,-86.00,-91.00,-89.00,1.00
-86.00,-89.00,-84.00,-54.00,-85.00,-86.00,-84.00,1.00
-88.00,-89.00,-84.00,-57.00,-83.00,-86.00,-89.00,1.00
-91.00,-85.00,-85.00,-58.00,-83.00,-86.00,-85.00,1.00
-93.00,-93.00,-79.00,-54.00,-91.00,-93.00,-54.00,1.00
-90.00,-96.00,-82.00,-60.00,-92.00,-96.00,-92.00,1.00
-84.00,-90.00,-74.00,-95.00,-91.00,-92.00,-74.00,1.00
-86.00,-95.00,-64.00,-86.00,-89.00,-86.00,-95.00,1.00
-83.00,-96.00,-75.00,-77.00,-92.00,-86.00,-92.00,1.00
-95.00,-96.00,-73.00,-78.00,-96.00,-94.00,-78.00,1.00
-86.00,-86.00,-71.00,-77.00,-86.00,-86.00,-86.00,0.00
-86.00,-83.00,-82.00,-86.00,-83.00,-86.00,-86.00,0.00
-82.00,-85.00,-96.00,-92.00,-91.00,-94.00,-96.00,0.00
-66.00,-70.00,-93.00,-96.00,-89.00,-86.00,-96.00,0.00
-59.00,-74.00,-93.00,-89.00,-90.00,-93.00,-74.00,0.00
-65.00,-66.00,-96.00,-94.00,-88.00,-86.00,-66.00,0.00
-70.00,-69.00,-96.00,-91.00,-96.00,-93.00,-93.00,0.00
-68.00,-71.00,-92.00,-95.00,-86.00,-95.00,-95.00,0.00
-83.00,-77.00,-89.00,-94.00,-89.00,-87.00,-89.00,0.00
-76.00,-86.00,-88.00,-91.00,-90.00,-96.00,-88.00,0.00
-82.00,-85.00,-96.00,-95.00,-95.00,-89.00,-95.00,0.00
-94.00,-68.00,-95.00,-91.00,-91.00,-86.00,-91.00,0.00
-83.00,-66.00,-86.00,-86.00,-86.00,-88.00,-66.00,0.00
-83.00,-62.00,-95.00,-93.00,-92.00,-91.00,-95.00,0.00
-76.00,-62.00,-86.00,-89.00,-91.00,-85.00,-89.00,0.00
-74.00,-61.00,-91.00,-92.00,-87.00,-84.00,-74.00,0.00
-83.00,-60.00,-93.00,-91.00,-87.00,-82.00,-82.00,0.00
-84.00,-60.00,-86.00,-86.00,-84.00,-83.00,-84.00,0.00
-74.00,-61.00,-91.00,-95.00,-92.00,-92.00,-95.00,0.00
-83.00,-61.00,-86.00,-86.00,-96.00,-84.00,-84.00,0.00
-74.00,-59.00,-93.00,-92.00,-87.00,-80.00,-87.00,0.00
-73.00,-59.00,-90.00,-96.00,-87.00,-85.00,-96.00,0.00
-72.00,-60.00,-94.00,-96.00,-87.00,-90.00,-94.00,0.00
-82.00,-59.00,-92.00,-91.00,-89.00,-85.00,-91.00,0.00
-90.00,-79.00,-96.00,-92.00,-96.00,-94.00,-94.00,0.00
-89.00,-85.00,-96.00,-95.00,-92.00,-95.00,-92.00,0.00
-78.00,-76.00,-96.00,-86.00,-90.00,-91.00,-91.00,0.00
-84.00,-60.00,-95.00,-93.00,-93.00,-86.00,-93.00,0.00
-81.00,-62.00,-90.00,-93.00,-88.00,-81.00,0.00
-78.00,-79.00,-96.00,-90.00,-87.00,-96.00,-90.00,0.00
-69.00,-77.00,-91.00,-96.00,-86.00,-96.00,-96.00,0.00
-81.00,-87.00,-84.00,-88.00,-96.00,-95.00,-96.00,1.00
-85.00,-91.00,-77.00,-90.00,-90.00,-90.00,-85.00,1.00
-85.00,-86.00,-62.00,-75.00,-87.00,-93.00,-87.00,1.00
-91.00,-86.00,-77.00,-81.00,-86.00,-92.00,-91.00,1.00
-88.00,-86.00,-73.00,-65.00,-96.00,-86.00,-65.00,1.00
-86.00,-86.00,-67.00,-62.00,-94.00,-96.00,-62.00,1.00
-85.00,-96.00,-71.00,-67.00,-86.00,-89.00,-85.00,1.00
-93.00,-94.00,-72.00,-87.00,-94.00,-96.00,-94.00,1.00
-85.00,-86.00,-70.00,-76.00,-86.00,-86.00,-86.00,1.00
-86.00,-88.00,-86.00,-65.00,-96.00,-86.00,-88.00,1.00
-96.00,-93.00,-85.00,-69.00,-96.00,-90.00,-96.00,1.00
-91.00,-90.00,-71.00,-70.00,-86.00,-86.00,-86.00,1.00
-88.00,-96.00,-86.00,-87.00,-85.00,-88.00,-86.00,1.00
-93.00,-91.00,-76.00,-73.00,-84.00,-87.00,-93.00,1.00
-93.00,-86.00,-81.00,-65.00,-93.00,-93.00,-93.00,1.00
-81.00,-94.00,-67.00,-67.00,-88.00,-86.00,-88.00,1.00
-85.00,-93.00,-76.00,-59.00,-93.00,-95.00,-85.00,1.00
-86.00,-96.00,-65.00,-73.00,-96.00,-85.00,-96.00,1.00
-82.00,-96.00,-71.00,-63.00,-92.00,-95.00,-63.00,1.00
-86.00,-94.00,-64.00,-67.00,-96.00,-94.00,-86.00,1.00
-94.00,-96.00,-73.00,-58.00,-91.00,-93.00,-96.00,1.00
-86.00,-93.00,-68.00,-69.00,-94.00,-91.00,-93.00,1.00
-81.00,-86.00,-82.00,-63.00,-86.00,-93.00,-93.00,1.00
-93.00,-87.00,-83.00,-64.00,-96.00,-90.00,-64.00,1.00
-89.00,-91.00,-67.00,-66.00,-92.00,-96.00,-96.00,1.00
-92.00,-86.00,-72.00,-67.00,-94.00,-86.00,-72.00,1.00
-94.00,-95.00,-67.00,-84.00,-96.00,-88.00,-96.00,1.00
-86.00,-93.00,-61.00,-86.00,-82.00,-85.00,-86.00,1.00
-95.00,-93.00,-69.00,-74.00,-83.00,-81.00,-74.00,1.00
-86.00,-86.00,-65.00,-74.00,-78.00,-80.00,-78.00,1.00
-89.00,-89.00,-63.00,-74.00,-79.00,-83.00,-83.00,1.00
-86.00,-88.00,-63.00,-74.00,-78.00,-83.00,-83.00,1.00
-93.00,-96.00,-68.00,-74.00,-78.00,-96.00,-74.00,1.00
-80.00,-87.00,-66.00,-74.00,-79.00,-81.00,-79.00,1.00
-89.00,-96.00,-66.00,-74.00,-78.00,-86.00,-78.00,1.00
-84.00,-87.00,-66.00,-71.00,-85.00,-85.00,-87.00,1.00
-81.00,-92.00,-66.00,-74.00,-82.00,-85.00,-66.00,1.00
-89.00,-94.00,-66.00,-74.00,-85.00,-83.00,-89.00,1.00
-89.00,-89.00,-66.00,-75.00,-86.00,-83.00,-89.00,1.00
-81.00,-91.00,-61.00,-73.00,-77.00,-88.00,-88.00,1.00
-88.00,-95.00,-63.00,-74.00,-91.00,-86.00,-63.00,1.00
-79.00,-92.00,-71.00,-80.00,-85.00,-89.00,-89.00,1.00
-91.00,-86.00,-87.00,-81.00,-86.00,-83.00,-87.00,2.00
-91.00,-81.00,-91.00,-94.00,-89.00,-90.00,-89.00,2.00
-86.00,-94.00,-86.00,-86.00,-79.00,-69.00,-69.00,2.00
-86.00,-89.00,-96.00,-96.00,-81.00,-56.00,-86.00,2.00
-90.00,-89.00,-90.00,-93.00,-73.00,-56.00,-90.00,2.00
-96.00,-89.00,-96.00,-95.00,-77.00,-67.00,-67.00,2.00
-85.00,-94.00,-91.00,-92.00,-70.00,-71.00,-94.00,2.00
-91.00,-86.00,-89.00,-94.00,-72.00,-69.00,-91.00,2.00
-89.00,-94.00,-96.00,-91.00,-74.00,-70.00,-91.00,2.00
-89.00,-83.00,-93.00,-86.00,-70.00,-68.00,-83.00,2.00
-93.00,-85.00,-91.00,-96.00,-74.00,-70.00,-74.00,2.00
-90.00,-94.00,-86.00,-96.00,-74.00,-70.00,-86.00,2.00
-93.00,-83.00,-92.00,-96.00,-75.00,-70.00,-92.00,2.00
-89.00,-81.00,-94.00,-86.00,-75.00,-68.00,-89.00,2.00
-92.00,-82.00,-93.00,-93.00,-71.00,-70.00,-71.00,2.00
-86.00,-85.00,-86.00,-92.00,-70.00,-70.00,-85.00,2.00
-88.00,-84.00,-86.00,-96.00,-70.00,-70.00,-84.00,2.00
-92.00,-86.00,-90.00,-96.00,-73.00,-68.00,-96.00,2.00
-93.00,-85.00,-89.00,-93.00,-81.00,-63.00,-93.00,2.00
-85.00,-85.00,-88.00,-81.00,-81.00,-84.00,-85.00,1.00
-86.00,-93.00,-85.00,-78.00,-85.00,-87.00,-93.00,1.00
-94.00,-96.00,-71.00,-71.00,-86.00,-86.00,-71.00,1.00
-90.00,-96.00,-79.00,-62.00,-96.00,-87.00,-87.00,1.00
-84.00,-92.00,-71.00,-67.00,-86.00,-90.00,-67.00,1.00
-85.00,-91.00,-67.00,-85.00,-86.00,-86.00,-85.00,1.00
-84.00,-89.00,-70.00,-76.00,-92.00,-91.00,-89.00,1.00
-82.00,-91.00,-79.00,-59.00,-86.00,-95.00,-59.00,1.00
-85.00,-94.00,-74.00,-57.00,-86.00,-96.00,-94.00,1.00
-94.00,-90.00,-96.00,-67.00,-86.00,-95.00,-90.00,1.00
-83.00,-89.00,-70.00,-66.00,-83.00,-95.00,-89.00,1.00
-81.00,-95.00,-70.00,-65.00,-84.00,-95.00,-95.00,1.00
-79.00,-86.00,-69.00,-78.00,-87.00,-86.00,-69.00,1.00
-87.00,-96.00,-73.00,-65.00,-95.00,-86.00,-95.00,0.00
-95.00,-91.00,-81.00,-88.00,-95.00,-87.00,-95.00,0.00
-83.00,-71.00,-86.00,-96.00,-93.00,-89.00,-71.00,0.00
-61.00,-63.00,-96.00,-86.00,-89.00,-86.00,-86.00,0.00
-69.00,-67.00,-96.00,-86.00,-85.00,-83.00,-83.00,0.00
-83.00,-65.00,-86.00,-95.00,-86.00,-65.00,0.00
-75.00,-69.00,-96.00,-86.00,-94.00,-91.00,-96.00,0.00
-68.00,-71.00,-86.00,-86.00,-86.00,-84.00,-86.00,0.00
-63.00,-73.00,-90.00,-91.00,-84.00,-96.00,-73.00,0.00
-71.00,-63.00,-94.00,-86.00,-86.00,-94.00,-94.00,0.00
-65.00,-69.00,-93.00,-96.00,-89.00,-90.00,-90.00,0.00
-67.00,-62.00,-86.00,-86.00,-80.00,-83.00,-62.00,0.00
-75.00,-71.00,-95.00,-86.00,-82.00,-96.00,-75.00,0.00
-66.00,-67.00,-92.00,-95.00,-77.00,-83.00,-67.00,0.00
-67.00,-81.00,-92.00,-93.00,-81.00,-91.00,-67.00,0.00
-60.00,-69.00,-86.00,-84.00,-85.00,-91.00,-60.00,0.00
-58.00,-66.00,-96.00,-86.00,-85.00,-84.00,-58.00,0.00
-66.00,-63.00,-96.00,-96.00,-81.00,-83.00,-96.00,0.00
-67.00,-67.00,-96.00,-84.00,-81.00,-85.00,-96.00,0.00
-68.00,-64.00,-96.00,-89.00,-82.00,-84.00,-84.00,0.00
-76.00,-66.00,-95.00,-96.00,-84.00,-81.00,-66.00,0.00
-67.00,-63.00,-96.00,-91.00,-90.00,-87.00,-63.00,0.00
-79.00,-68.00,-89.00,-85.00,-86.00,-92.00,-79.00,0.00
-73.00,-70.00,-86.00,-91.00,-86.00,-86.00,-86.00,0.00
-61.00,-66.00,-86.00,-84.00,-89.00,-91.00,-84.00,0.00
-66.00,-68.00,-86.00,-86.00,-89.00,-90.00,-90.00,0.00
-61.00,-65.00,-84.00,-95.00,-89.00,-88.00,-88.00,0.00
-62.00,-67.00,-85.00,-86.00,-84.00,-86.00,-86.00,0.00
-62.00,-67.00,-85.00,-90.00,-88.00,-87.00,-88.00,0.00
-61.00,-67.00,-85.00,-86.00,-85.00,-87.00,-87.00,0.00
-61.00,-67.00,-91.00,-94.00,-89.00,-88.00,-94.00,0.00
-62.00,-67.00,-93.00,-91.00,-86.00,-87.00,-86.00,0.00
-61.00,-66.00,-86.00,-90.00,-93.00,-83.00,-83.00,0.00
-75.00,-73.00,-94.00,-92.00,-88.00,-96.00,-92.00,0.00
-87.00,-76.00,-89.00,-94.00,-90.00,-96.00,-87.00,0.00
-72.00,-66.00,-96.00,-86.00,-93.00,-87.00,-93.00,0.00
-65.00,-68.00,-93.00,-85.00,-86.00,-89.00,-86.00,0.00
-63.00,-66.00,-90.00,-86.00,-87.00,-92.00,-90.00,0.00
-65.00,-71.00,-88.00,-92.00,-87.00,-92.00,-88.00,0.00
-67.00,-70.00,-88.00,-90.00,-87.00,-93.00,-67.00,0.00
-65.00,-71.00,-93.00,-86.00,-86.00,-90.00,-65.00,0.00
-61.00,-72.00,-91.00,-85.00,-86.00,-86.00,-91.00,0.00
-60.00,-72.00,-86.00,-82.00,-94.00,-96.00,-60.00,0.00
-82.00,-80.00,-82.00,-89.00,-89.00,-86.00,-82.00,0.00
-74.00,-79.00,-93.00,-90.00,-89.00,-87.00,-90.00,0.00
-80.00,-75.00,-89.00,-89.00,-92.00,-83.00,-92.00,0.00
-81.00,-65.00,-90.00,-87.00,-80.00,-87.00,-80.00,0.00
-94.00,-72.00,-86.00,-83.00,-89.00,-86.00,-94.00,0.00
-88.00,-81.00,-95.00,-94.00,-88.00,-85.00,-85.00,0.00
-77.00,-75.00,-90.00,-86.00,-89.00,-88.00,-86.00,0.00
-74.00,-68.00,-93.00,-88.00,-86.00,-94.00,-93.00,0.00
-80.00,-70.00,-86.00,-86.00,-86.00,-86.00,-86.00,0.00
-79.00,-63.00,-89.00,-90.00,-94.00,-87.00,-89.00,0.00
-76.00,-62.00,-86.00,-90.00,-94.00,-86.00,-94.00,0.00
-66.00,-63.00,-96.00,-92.00,-93.00,-91.00,-96.00,0.00
-76.00,-64.00,-86.00,-94.00,-83.00,-88.00,-83.00,0.00
-81.00,-68.00,-94.00,-89.00,-83.00,-90.00,-83.00,0.00
-75.00,-66.00,-91.00,-82.00,-86.00,-84.00,-82.00,0.00
-76.00,-86.00,-87.00,-90.00,-89.00,-91.00,-91.00,0.00
-81.00,-73.00,-86.00,-86.00,-91.00,-88.00,-86.00,0.00
-77.00,-78.00,-84.00,-93.00,-95.00,-85.00,-85.00,0.00
-82.00,-74.00,-90.00,-91.00,-86.00,-84.00,-84.00,0.00
-88.00,-81.00,-88.00,-82.00,-91.00,-86.00,-91.00,1.00
-81.00,-87.00,-86.00,-84.00,-82.00,-86.00,-86.00,1.00
-84.00,-93.00,-67.00,-70.00,-88.00,-87.00,-88.00,1.00
-82.00,-85.00,-74.00,-85.00,-85.00,-86.00,-74.00,1.00
-84.00,-96.00,-77.00,-77.00,-86.00,-87.00,-96.00,1.00
-85.00,-96.00,-63.00,-62.00,-86.00,-88.00,-85.00,1.00
-88.00,-86.00,-83.00,-85.00,-92.00,-86.00,-88.00,1.00
-86.00,-95.00,-64.00,-75.00,-88.00,-86.00,-64.00,1.00
-80.00,-86.00,-66.00,-75.00,-86.00,-87.00,-86.00,1.00
-93.00,-88.00,-66.00,-74.00,-82.00,-88.00,-93.00,1.00
-84.00,-88.00,-71.00,-75.00,-88.00,-85.00,-88.00,1.00
-83.00,-93.00,-69.00,-76.00,-84.00,-85.00,-76.00,1.00
-86.00,-86.00,-68.00,-83.00,-84.00,-86.00,-86.00,1.00
-82.00,-86.00,-69.00,-78.00,-87.00,-93.00,-87.00,1.00
-84.00,-88.00,-68.00,-81.00,-88.00,-85.00,-88.00,1.00
-87.00,-87.00,-75.00,-70.00,-87.00,-86.00,-86.00,1.00
-86.00,-86.00,-76.00,-62.00,-81.00,-91.00,-76.00,1.00
-86.00,-86.00,-81.00,-61.00,-83.00,-86.00,-81.00,1.00
-88.00,-96.00,-76.00,-62.00,-92.00,-84.00,-76.00,1.00
-81.00,-92.00,-71.00,-67.00,-86.00,-86.00,-86.00,1.00
-88.00,-94.00,-73.00,-78.00,-89.00,-91.00,-73.00,1.00
-81.00,-93.00,-70.00,-84.00,-86.00,-85.00,-84.00,1.00
-81.00,-95.00,-69.00,-84.00,-87.00,-83.00,-95.00,0.00
-84.00,-74.00,-96.00,-82.00,-81.00,-80.00,-82.00,0.00
-71.00,-86.00,-86.00,-96.00,-81.00,-90.00,-86.00,0.00
-60.00,-76.00,-86.00,-86.00,-95.00,-93.00,-93.00,0.00
-62.00,-66.00,-85.00,-96.00,-96.00,-86.00,-66.00,0.00
-62.00,-70.00,-90.00,-96.00,-90.00,-87.00,-96.00,0.00
-61.00,-71.00,-89.00,-86.00,-94.00,-88.00,-61.00,0.00
-62.00,-70.00,-90.00,-92.00,-91.00,-96.00,-96.00,0.00
-58.00,-70.00,-89.00,-86.00,-91.00,-86.00,-91.00,0.00
-60.00,-70.00,-88.00,-92.00,-91.00,-88.00,-92.00,0.00
-62.00,-70.00,-91.00,-92.00,-86.00,-86.00,-92.00,0.00
-60.00,-68.00,-86.00,-92.00,-91.00,-86.00,-68.00,0.00
-60.00,-70.00,-88.00,-96.00,-94.00,-88.00,-96.00,0.00
-58.00,-70.00,-86.00,-86.00,-86.00,-87.00,-58.00,0.00
-61.00,-68.00,-88.00,-96.00,-92.00,-87.00,-61.00,0.00
-61.00,-70.00,-89.00,-96.00,-94.00,-88.00,-70.00,0.00
-60.00,-70.00,-91.00,-96.00,-93.00,-88.00,-96.00,0.00
-62.00,-70.00,-88.00,-92.00,-91.00,-86.00,-88.00,0.00
-60.00,-70.00,-89.00,-90.00,-86.00,-90.00,-60.00,0.00
-59.00,-71.00,-95.00,-95.00,-88.00,-94.00,-95.00,0.00
-84.00,-79.00,-81.00,-85.00,-86.00,-83.00,-84.00,0.00
-92.00,-96.00,-70.00,-81.00,-86.00,-87.00,-70.00,1.00
-96.00,-93.00,-84.00,-67.00,-89.00,-86.00,-86.00,1.00
-91.00,-95.00,-75.00,-70.00,-89.00,-86.00,-86.00,1.00
-86.00,-92.00,-64.00,-69.00,-86.00,-86.00,-69.00,1.00
-76.00,-96.00,-67.00,-85.00,-83.00,-96.00,-96.00,1.00
-86.00,-96.00,-74.00,-79.00,-86.00,-85.00,-74.00,1.00
-89.00,-89.00,-69.00,-83.00,-92.00,-88.00,-89.00,1.00
-89.00,-95.00,-81.00,-70.00,-92.00,-96.00,-89.00,1.00
-86.00,-86.00,-74.00,-75.00,-86.00,-86.00,-86.00,1.00
-89.00,-88.00,-74.00,-76.00,-91.00,-83.00,-74.00,1.00
-95.00,-96.00,-71.00,-74.00,-90.00,-86.00,-74.00,1.00
-87.00,-92.00,-85.00,-66.00,-88.00,-90.00,-87.00,1.00
-86.00,-88.00,-82.00,-72.00,-89.00,-88.00,-82.00,1.00
-91.00,-96.00,-93.00,-70.00,-86.00,-85.00,-93.00,1.00
-96.00,-92.00,-87.00,-67.00,-82.00,-91.00,-82.00,1.00
-80.00,-86.00,-77.00,-77.00,-83.00,-85.00,-85.00,1.00
-84.00,-93.00,-69.00,-75.00,-86.00,-88.00,-69.00,1.00
-87.00,-96.00,-71.00,-86.00,-96.00,-88.00,-96.00,1.00
-93.00,-86.00,-72.00,-71.00,-85.00,-87.00,-86.00,1.00
-89.00,-96.00,-71.00,-92.00,-93.00,-90.00,-96.00,1.00
-86.00,-93.00,-79.00,-81.00,-92.00,-95.00,-93.00,1.00
-88.00,-86.00,-90.00,-80.00,-95.00,-86.00,-86.00,1.00
-96.00,-96.00,-96.00,-83.00,-94.00,-96.00,1.00
-96.00,-96.00,-90.00,-84.00,-96.00,-93.00,-96.00,1.00
-96.00,-96.00,-90.00,-81.00,-96.00,-96.00,-81.00,1.00
-95.00,-96.00,-93.00,-83.00,-94.00,-96.00,-94.00,1.00
-92.00,-93.00,-86.00,-85.00,-86.00,-93.00,-93.00,1.00
-92.00,-92.00,-81.00,-81.00,-86.00,-86.00,-86.00,1.00
-93.00,-87.00,-81.00,-90.00,-92.00,-84.00,-92.00,2.00
-85.00,-86.00,-86.00,-86.00,-86.00,-84.00,-86.00,2.00
-96.00,-96.00,-91.00,-92.00,-80.00,-66.00,-66.00,2.00
-94.00,-90.00,-89.00,-92.00,-73.00,-67.00,-67.00,2.00
-90.00,-90.00,-88.00,-95.00,-71.00,-71.00,-71.00,2.00
-86.00,-89.00,-90.00,-86.00,-71.00,-74.00,-71.00,2.00
-91.00,-89.00,-86.00,-86.00,-73.00,-71.00,-91.00,2.00
-94.00,-96.00,-90.00,-94.00,-69.00,-71.00,-96.00,2.00
-90.00,-89.00,-87.00,-86.00,-72.00,-71.00,-72.00,2.00
-94.00,-90.00,-96.00,-94.00,-73.00,-74.00,-74.00,2.00
-90.00,-86.00,-86.00,-94.00,-69.00,-68.00,-94.00,2.00
-90.00,-89.00,-87.00,-94.00,-72.00,-68.00,-72.00,2.00
-94.00,-89.00,-85.00,-86.00,-71.00,-68.00,-86.00,2.00
-92.00,-86.00,-89.00,-94.00,-69.00,-74.00,-94.00,2.00
-92.00,-91.00,-87.00,-93.00,-69.00,-74.00,-93.00,2.00
-91.00,-93.00,-90.00,-94.00,-71.00,-74.00,-91.00,2.00
-93.00,-86.00,-89.00,-94.00,-68.00,-74.00,-86.00,2.00
-86.00,-93.00,-85.00,-86.00,-72.00,-71.00,-93.00,2.00
-93.00,-91.00,-90.00,-95.00,-73.00,-68.00,-90.00,2.00
-93.00,-86.00,-89.00,-96.00,-67.00,-71.00,-96.00,2.00
-96.00,-96.00,-90.00,-92.00,-71.00,-67.00,-92.00,2.00
-85.00,-84.00,-86.00,-86.00,-78.00,-71.00,-86.00,2.00
-84.00,-93.00,-87.00,-94.00,-84.00,-89.00,-87.00,1.00
-79.00,-91.00,-78.00,-87.00,-88.00,-96.00,-88.00,1.00
-83.00,-90.00,-72.00,-78.00,-86.00,-88.00,-90.00,1.00
-86.00,-95.00,-83.00,-81.00,-93.00,-92.00,-92.00,1.00
-88.00,-86.00,-74.00,-76.00,-86.00,-96.00,-96.00,1.00
-88.00,-90.00,-86.00,-81.00,-96.00,-86.00,-96.00,1.00
-92.00,-96.00,-90.00,-83.00,-88.00,-87.00,-83.00,1.00
-77.00,-88.00,-82.00,-78.00,-86.00,-84.00,-88.00,1.00
-77.00,-86.00,-75.00,-83.00,-86.00,-86.00,-75.00,1.00
-89.00,-89.00,-71.00,-94.00,-90.00,-87.00,-89.00,1.00
-88.00,-89.00,-83.00,-85.00,-87.00,-85.00,-87.00,1.00
-89.00,-92.00,-75.00,-87.00,-92.00,-92.00,-89.00,1.00
-86.00,-90.00,-79.00,-74.00,-86.00,-92.00,-79.00,1.00
-92.00,-91.00,-79.00,-73.00,-92.00,-94.00,-92.00,1.00
-96.00,-86.00,-82.00,-78.00,-88.00,-86.00,-86.00,1.00
-86.00,-86.00,-82.00,-69.00,-91.00,-94.00,-86.00,1.00
-90.00,-93.00,-79.00,-84.00,-94.00,-89.00,-94.00,0.00
-86.00,-83.00,-90.00,-89.00,-86.00,-86.00,-86.00,0.00
-79.00,-88.00,-93.00,-93.00,-96.00,-96.00,-88.00,0.00
-73.00,-65.00,-93.00,-96.00,-86.00,-86.00,-96.00,0.00
-83.00,-96.00,-91.00,-91.00,-87.00,-92.00,-91.00,0.00
-81.00,-79.00,-95.00,-86.00,-96.00,-93.00,-81.00,0.00
-76.00,-87.00,-96.00,-89.00,-96.00,-91.00,-87.00,0.00
-69.00,-86.00,-86.00,-94.00,-86.00,-86.00,0.00
-75.00,-86.00,-96.00,-86.00,-86.00,-96.00,-86.00,0.00
-71.00,-87.00,-96.00,-96.00,-96.00,-96.00,-71.00,0.00
-74.00,-84.00,-96.00,-96.00,-95.00,-86.00,-86.00,0.00
-75.00,-85.00,-96.00,-96.00,-96.00,-92.00,-96.00,0.00
-72.00,-73.00,-96.00,-95.00,-84.00,-86.00,-72.00,0.00
-69.00,-77.00,-96.00,-86.00,-84.00,-87.00,-77.00,0.00
-79.00,-57.00,-89.00,-91.00,-85.00,-85.00,-89.00,0.00
-76.00,-59.00,-94.00,-96.00,-82.00,-93.00,-94.00,0.00
-76.00,-59.00,-94.00,-96.00,-81.00,-86.00,-76.00,0.00
-77.00,-58.00,-95.00,-96.00,-86.00,-84.00,-86.00,0.00
-78.00,-58.00,-96.00,-94.00,-91.00,-85.00,-58.00,0.00
-76.00,-58.00,-93.00,-96.00,-93.00,-84.00,-93.00,0.00
-76.00,-58.00,-92.00,-83.00,-85.00,-76.00,0.00
-74.00,-58.00,-96.00,-94.00,-86.00,-85.00,-85.00,0.00
-76.00,-59.00,-91.00,-95.00,-90.00,-86.00,-95.00,0.00
-76.00,-58.00,-96.00,-96.00,-91.00,-85.00,-76.00,0.00
-76.00,-58.00,-96.00,-95.00,-86.00,-84.00,-58.00,0.00
-76.00,-59.00,-92.00,-86.00,-81.00,-83.00,-81.00,0.00
-79.00,-59.00,-96.00,-96.00,-83.00,-85.00,-96.00,0.00
-78.00,-58.00,-86.00,-93.00,-91.00,-82.00,-86.00,0.00
-76.00,-59.00,-86.00,-93.00,-86.00,-88.00,-59.00,0.00
-84.00,-58.00,-96.00,-91.00,-89.00,-86.00,-89.00,0.00
-72.00,-77.00,-96.00,-95.00,-88.00,-94.00,-94.00,0.00
-78.00,-73.00,-96.00,-90.00,-86.00,-96.00,-73.00,0.00
-84.00,-84.00,-94.00,-86.00,-90.00,-86.00,-94.00,0.00
-79.00,-81.00,-96.00,-86.00,-94.00,-96.00,-86.00,0.00
-76.00,-81.00,-92.00,-86.00,-88.00,-86.00,-76.00,0.00
-73.00,-84.00,-86.00,-94.00,-93.00,-88.00,-86.00,0.00
-79.00,-71.00,-96.00,-96.00,-96.00,0.00
-80.00,-74.00,-96.00,-93.00,-95.00,-86.00,-96.00,0.00
-75.00,-89.00,-96.00,-89.00,-94.00,-94.00,-89.00,0.00
-68.00,-75.00,-93.00,-93.00,-94.00,-94.00,0.00
-67.00,-85.00,-96.00,-86.00,-96.00,-96.00,-85.00,0.00
-74.00,-86.00,-96.00,-86.00,-96.00,-74.00,0.00
-76.00,-85.00,-92.00,-90.00,-96.00,-96.00,-96.00,0.00
-74.00,-81.00,-96.00,-86.00,-95.00,-96.00,-81.00,0.00
-68.00,-85.00,-93.00,-93.00,-96.00,-94.00,-85.00,0.00
-71.00,-91.00,-93.00,-96.00,-96.00,-96.00,-71.00,0.00
-69.00,-84.00,-86.00,-89.00,-96.00,-96.00,-96.00,0.00
-69.00,-88.00,-96.00,-91.00,-95.00,-95.00,0.00
-71.00,-85.00,-94.00,-94.00,-96.00,-86.00,-94.00,0.00
-68.00,-87.00,-86.00,-86.00,-93.00,-86.00,0.00
-72.00,-85.00,-95.00,-94.00,-96.00,-93.00,-85.00,0.00
-75.00,-83.00,-96.00,-92.00,-96.00,-86.00,-75.00,0.00
-71.00,-81.00,-96.00,-90.00,-91.00,-95.00,-95.00,0.00
-69.00,-77.00,-96.00,-92.00,-91.00,-96.00,-96.00,0.00
-68.00,-71.00,-96.00,-88.00,-91.00,-96.00,-68.00,1.00
-85.00,-81.00,-95.00,-85.00,-93.00,-95.00,-85.00,1.00
-86.00,-80.00,-76.00,-92.00,-93.00,-92.00,-86.00,1.00
-88.00,-96.00,-73.00,-72.00,-86.00,-91.00,-91.00,1.00
-84.00,-95.00,-76.00,-66.00,-96.00,-93.00,-95.00,1.00
-81.00,-89.00,-78.00,-81.00,-94.00,-91.00,-89.00,1.00
-79.00,-86.00,-76.00,-79.00,-92.00,-93.00,-79.00,1.00
-81.00,-86.00,-75.00,-80.00,-86.00,-95.00,-86.00,1.00
-81.00,-89.00,-76.00,-82.00,-96.00,-93.00,-76.00,1.00
-78.00,-86.00,-71.00,-80.00,-86.00,-92.00,-92.00,1.00
-81.00,-89.00,-73.00,-81.00,-90.00,-86.00,-89.00,1.00
-81.00,-88.00,-73.00,-83.00,-86.00,-86.00,-86.00,1.00
-79.00,-88.00,-75.00,-89.00,-91.00,-96.00,-79.00,1.00
-83.00,-86.00,-79.00,-70.00,-91.00,-86.00,-79.00,1.00
-86.00,-96.00,-67.00,-68.00,-86.00,-89.00,-89.00,1.00
-86.00,-94.00,-74.00,-74.00,-91.00,-93.00,-93.00,1.00
-87.00,-86.00,-68.00,-81.00,-94.00,-95.00,-86.00,1.00
-86.00,-86.00,-66.00,-65.00,-86.00,-85.00,-65.00,1.00
-96.00,-95.00,-64.00,-69.00,-95.00,-84.00,-64.00,1.00
-93.00,-86.00,-67.00,-73.00,-86.00,-90.00,-67.00,1.00
-86.00,-93.00,-67.00,-66.00,-96.00,-87.00,-93.00,1.00
-96.00,-96.00,-68.00,-67.00,-92.00,-87.00,-68.00,1.00
-92.00,-95.00,-67.00,-72.00,-86.00,-87.00,-95.00,1.00
-89.00,-86.00,-66.00,-67.00,-96.00,-93.00,-89.00,1.00
-86.00,-91.00,-69.00,-60.00,-86.00,-92.00,-60.00,1.00
-95.00,-96.00,-78.00,-55.00,-86.00,-92.00,-78.00,1.00
-96.00,-96.00,-77.00,-56.00,-91.00,-86.00,-86.00,1.00
-96.00,-96.00,-77.00,-56.00,-91.00,-93.00,-93.00,1.00
-96.00,-96.00,-79.00,-56.00,-86.00,-93.00,-86.00,1.00
-86.00,-96.00,-78.00,-58.00,-86.00,-94.00,-86.00,1.00
-85.00,-95.00,-71.00,-72.00,-96.00,-91.00,-96.00,1.00
-86.00,-92.00,-68.00,-71.00,-86.00,-87.00,-87.00,1.00
-86.00,-86.00,-95.00,-81.00,-85.00,-85.00,-86.00,2.00
-94.00,-91.00,-92.00,-86.00,-82.00,-80.00,-86.00,2.00
-86.00,-82.00,-94.00,-91.00,-74.00,-85.00,-86.00,2.00
-94.00,-92.00,-96.00,-96.00,-73.00,-63.00,-96.00,2.00
-91.00,-86.00,-86.00,-86.00,-63.00,-55.00,-55.00,2.00
-94.00,-88.00,-96.00,-88.00,-68.00,-57.00,-88.00,2.00
-86.00,-86.00,-90.00,-92.00,-67.00,-54.00,-86.00,2.00
-96.00,-88.00,-96.00,-90.00,-63.00,-59.00,-63.00,2.00
-95.00,-86.00,-96.00,-85.00,-70.00,-55.00,-55.00,2.00
-94.00,-86.00,-96.00,-96.00,-71.00,-65.00,-86.00,2.00
-96.00,-96.00,-90.00,-89.00,-66.00,-67.00,-96.00,2.00
-95.00,-95.00,-96.00,-93.00,-74.00,-65.00,-74.00,2.00
-91.00,-87.00,-88.00,-91.00,-68.00,-54.00,-91.00,2.00
-86.00,-84.00,-86.00,-86.00,-65.00,-54.00,-84.00,2.00
-87.00,-88.00,-95.00,-86.00,-69.00,-54.00,-54.00,2.00
-93.00,-86.00,-90.00,-86.00,-68.00,-54.00,-86.00,2.00
-86.00,-86.00,-86.00,-85.00,-68.00,-54.00,-85.00,2.00
-93.00,-90.00,-91.00,-86.00,-68.00,-52.00,-90.00,2.00
-90.00,-92.00,-86.00,-87.00,-68.00,-54.00,-86.00,2.00
-89.00,-87.00,-85.00,-85.00,-67.00,-53.00,-67.00,2.00
-94.00,-86.00,-91.00,-86.00,-68.00,-54.00,-86.00,2.00
-86.00,-86.00,-86.00,-85.00,-68.00,-51.00,-51.00,2.00
-86.00,-89.00,-91.00,-85.00,-68.00,-51.00,-85.00,2.00
-89.00,-87.00,-90.00,-86.00,-68.00,-54.00,-89.00,2.00
-86.00,-83.00,-92.00,-86.00,-68.00,-54.00,-68.00,2.00
-86.00,-93.00,-91.00,-85.00,-68.00,-54.00,-85.00,2.00
-84.00,-92.00,-91.00,-84.00,-69.00,-51.00,-84.00,2.00
-85.00,-93.00,-91.00,-86.00,-68.00,-54.00,-54.00,2.00
-92.00,-92.00,-86.00,-86.00,-69.00,-53.00,-69.00,2.00
-92.00,-91.00,-84.00,-85.00,-66.00,-53.00,-53.00,2.00
-89.00,-91.00,-91.00,-86.00,-69.00,-53.00,-91.00,2.00
-86.00,-87.00,-93.00,-85.00,-68.00,-54.00,-85.00,2.00
-91.00,-93.00,-87.00,-86.00,-67.00,-53.00,-93.00,2.00
-87.00,-86.00,-86.00,-85.00,-68.00,-54.00,-86.00,2.00
-87.00,-86.00,-91.00,-85.00,-69.00,-51.00,-91.00,2.00
-88.00,-86.00,-91.00,-86.00,-68.00,-54.00,-86.00,2.00
-96.00,-92.00,-87.00,-96.00,-69.00,-52.00,-96.00,2.00
-86.00,-85.00,-84.00,-86.00,-68.00,-52.00,-84.00,2.00
-87.00,-86.00,-91.00,-86.00,-67.00,-53.00,-87.00,2.00
-87.00,-92.00,-92.00,-87.00,-67.00,-53.00,-53.00,2.00
-90.00,-93.00,-91.00,-86.00,-68.00,-52.00,-90.00,2.00
-88.00,-85.00,-87.00,-86.00,-68.00,-54.00,-85.00,2.00
-88.00,-82.00,-90.00,-84.00,-67.00,-52.00,-84.00,2.00
-93.00,-85.00,-86.00,-86.00,-67.00,-54.00,-85.00,2.00
-93.00,-91.00,-91.00,-86.00,-69.00,-54.00,-54.00,2.00
-88.00,-86.00,-92.00,-86.00,-66.00,-52.00,-86.00,2.00
-96.00,-86.00,-91.00,-96.00,-71.00,-55.00,-96.00,2.00
-96.00,-96.00,-96.00,-94.00,-81.00,-64.00,-96.00,2.00
-85.00,-84.00,-91.00,-88.00,-87.00,-71.00,-84.00,2.00
-83.00,-78.00,-83.00,-96.00,-73.00,-61.00,-78.00,2.00
-86.00,-81.00,-88.00,-91.00,-73.00,-60.00,-81.00,2.00
-84.00,-79.00,-91.00,-94.00,-70.00,-62.00,-62.00,2.00
-84.00,-79.00,-94.00,-95.00,-68.00,-62.00,-68.00,2.00
-92.00,-85.00,-88.00,-83.00,-72.00,-56.00,-83.00,2.00
-94.00,-90.00,-90.00,-96.00,-67.00,-58.00,-58.00,2.00
-96.00,-76.00,-90.00,-93.00,-71.00,-61.00,-90.00,2.00
-96.00,-88.00,-86.00,-90.00,-79.00,-76.00,-79.00,2.00
-91.00,-85.00,-91.00,-94.00,-85.00,-78.00,-91.00,1.00
-88.00,-83.00,-95.00,-89.00,-87.00,-91.00,-88.00,1.00
-83.00,-86.00,-72.00,-81.00,-94.00,-86.00,-94.00,1.00
-87.00,-86.00,-67.00,-74.00,-86.00,-86.00,-87.00,1.00
-83.00,-96.00,-63.00,-82.00,-95.00,-93.00,-82.00,1.00
-85.00,-90.00,-62.00,-69.00,-96.00,-94.00,-69.00,1.00
-81.00,-96.00,-61.00,-70.00,-93.00,-95.00,-95.00,1.00
-76.00,-88.00,-58.00,-71.00,-85.00,-88.00,-85.00,1.00
-88.00,-92.00,-57.00,-81.00,-96.00,-88.00,-81.00,1.00
-94.00,-96.00,-72.00,-74.00,-96.00,-95.00,-94.00,1.00
-86.00,-94.00,-79.00,-71.00,-86.00,-95.00,-86.00,1.00
-88.00,-96.00,-79.00,-70.00,-96.00,-93.00,-79.00,1.00
-86.00,-94.00,-81.00,-74.00,-96.00,-96.00,-96.00,1.00
-91.00,-86.00,-80.00,-57.00,-96.00,-94.00,-94.00,1.00
-86.00,-96.00,-64.00,-74.00,-86.00,-96.00,-86.00,1.00
-88.00,-95.00,-69.00,-65.00,-90.00,-85.00,-85.00,1.00
-81.00,-88.00,-58.00,-72.00,-92.00,-92.00,-81.00,1.00
-84.00,-86.00,-56.00,-66.00,-91.00,-89.00,-91.00,1.00
-80.00,-87.00,-55.00,-65.00,-89.00,-89.00,-89.00,1.00
-88.00,-91.00,-56.00,-68.00,-93.00,-89.00,-56.00,1.00
-81.00,-87.00,-60.00,-64.00,-91.00,-89.00,-64.00,1.00
-83.00,-88.00,-56.00,-66.00,-96.00,-87.00,-96.00,1.00
-83.00,-88.00,-52.00,-66.00,-89.00,-90.00,-88.00,1.00
-84.00,-86.00,-58.00,-66.00,-96.00,-84.00,-84.00,1.00
-81.00,-89.00,-60.00,-66.00,-94.00,-91.00,-91.00,1.00
-83.00,-91.00,-50.00,-66.00,-90.00,-87.00,-87.00,1.00
-82.00,-92.00,-51.00,-66.00,-93.00,-86.00,-66.00,1.00
-82.00,-91.00,-52.00,-65.00,-92.00,-87.00,-92.00,1.00
-81.00,-87.00,-51.00,-66.00,-94.00,-89.00,-81.00,1.00
-84.00,-88.00,-52.00,-66.00,-93.00,-87.00,-93.00,1.00
-96.00,-96.00,-73.00,-68.00,-90.00,-89.00,-68.00,1.00
-84.00,-96.00,-71.00,-61.00,-87.00,-90.00,-61.00,1.00
-85.00,-90.00,-92.00,-67.00,-84.00,-88.00,-67.00,1.00
-82.00,-89.00,-87.00,-63.00,-83.00,-86.00,-63.00,1.00
-79.00,-92.00,-78.00,-62.00,-91.00,-90.00,-78.00,1.00
-79.00,-94.00,-84.00,-64.00,-85.00,-94.00,-84.00,1.00
-78.00,-96.00,-82.00,-61.00,-92.00,-91.00,-78.00,1.00
-88.00,-94.00,-78.00,-62.00,-89.00,-88.00,-78.00,1.00
-81.00,-90.00,-86.00,-60.00,-91.00,-89.00,-91.00,1.00
-83.00,-94.00,-86.00,-60.00,-82.00,-90.00,-82.00,1.00
-80.00,-89.00,-77.00,-62.00,-89.00,-87.00,-77.00,1.00
-82.00,-92.00,-76.00,-59.00,-90.00,-90.00,-59.00,1.00
-85.00,-91.00,-77.00,-59.00,-82.00,-89.00,-85.00,1.00
-80.00,-94.00,-91.00,-60.00,-83.00,-86.00,-60.00,1.00
-83.00,-94.00,-77.00,-59.00,-83.00,-92.00,-92.00,1.00
-77.00,-86.00,-76.00,-58.00,-83.00,-88.00,-76.00,1.00
-80.00,-91.00,-90.00,-62.00,-83.00,-92.00,-80.00,1.00
-80.00,-91.00,-91.00,-61.00,-86.00,-91.00,-61.00,1.00
-78.00,-96.00,-76.00,-62.00,-86.00,-86.00,-96.00,1.00
-78.00,-92.00,-83.00,-62.00,-81.00,-86.00,-83.00,1.00
-84.00,-90.00,-90.00,-62.00,-83.00,-92.00,-90.00,1.00
-87.00,-90.00,-77.00,-62.00,-90.00,-86.00,-90.00,1.00
-84.00,-90.00,-82.00,-59.00,-88.00,-86.00,-84.00,1.00
-82.00,-93.00,-77.00,-62.00,-86.00,-88.00,-62.00,1.00
-80.00,-93.00,-83.00,-62.00,-91.00,-91.00,-91.00,1.00
-84.00,-86.00,-86.00,-59.00,-81.00,-86.00,-84.00,1.00
-79.00,-91.00,-91.00,-60.00,-89.00,-92.00,-91.00,1.00
-83.00,-92.00,-78.00,-59.00,-92.00,-87.00,-78.00,1.00
-79.00,-86.00,-76.00,-62.00,-89.00,-92.00,-62.00,1.00
-82.00,-92.00,-77.00,-60.00,-83.00,-91.00,-91.00,1.00
-83.00,-92.00,-77.00,-61.00,-89.00,-92.00,-89.00,1.00
-80.00,-92.00,-77.00,-62.00,-83.00,-90.00,-83.00,1.00
-87.00,-91.00,-77.00,-61.00,-92.00,-88.00,-88.00,1.00
-80.00,-91.00,-91.00,-61.00,-83.00,-92.00,-83.00,1.00
-79.00,-93.00,-86.00,-59.00,-86.00,-86.00,-93.00,1.00
-78.00,-96.00,-77.00,-61.00,-83.00,-91.00,-96.00,1.00
-86.00,-89.00,-84.00,-60.00,-87.00,-87.00,-84.00,1.00
-88.00,-92.00,-78.00,-59.00,-92.00,-86.00,-86.00,1.00
-96.00,-94.00,-81.00,-61.00,-96.00,-95.00,-96.00,1.00
-90.00,-86.00,-85.00,-61.00,-96.00,-93.00,-85.00,1.00
-86.00,-96.00,-76.00,-61.00,-96.00,-94.00,-96.00,1.00
-94.00,-96.00,-78.00,-61.00,-94.00,-96.00,-96.00,1.00
-86.00,-86.00,-86.00,-61.00,-96.00,-86.00,1.00
-95.00,-86.00,-84.00,-64.00,-91.00,-96.00,-84.00,1.00
-83.00,-86.00,-81.00,-62.00,-91.00,-88.00,-81.00,1.00
-96.00,-96.00,-91.00,-61.00,-95.00,-91.00,-96.00,1.00
-89.00,-96.00,-85.00,-71.00,-90.00,-94.00,-89.00,1.00
-85.00,-90.00,-72.00,-67.00,-93.00,-94.00,-90.00,1.00
-86.00,-96.00,-75.00,-81.00,-86.00,-93.00,-81.00,1.00
-85.00,-93.00,-71.00,-74.00,-86.00,-87.00,-87.00,1.00
-86.00,-86.00,-71.00,-76.00,-90.00,-86.00,-86.00,0.00
-82.00,-89.00,-86.00,-93.00,-88.00,-88.00,-88.00,0.00
-67.00,-82.00,-86.00,-86.00,-86.00,-96.00,-96.00,0.00
-71.00,-73.00,-96.00,-94.00,-92.00,-96.00,-96.00,0.00
-74.00,-69.00,-95.00,-86.00,-96.00,-88.00,-69.00,0.00
-73.00,-67.00,-96.00,-90.00,-96.00,-96.00,-96.00,0.00
-86.00,-80.00,-96.00,-86.00,-91.00,-96.00,-86.00,0.00
-85.00,-78.00,-93.00,-92.00,-92.00,-86.00,-92.00,0.00
-76.00,-73.00,-96.00,-93.00,-94.00,-86.00,-73.00,0.00
-75.00,-74.00,-96.00,-83.00,-93.00,-93.00,-75.00,0.00
-74.00,-77.00,-96.00,-86.00,-90.00,-96.00,-77.00,0.00
-83.00,-89.00,-95.00,-85.00,-88.00,-87.00,-83.00,0.00
-92.00,-95.00,-92.00,-89.00,-87.00,-86.00,-95.00,0.00
-84.00,-77.00,-86.00,-84.00,-82.00,-93.00,-84.00,0.00
-62.00,-65.00,-92.00,-86.00,-92.00,-84.00,-92.00,0.00
-63.00,-69.00,-87.00,-83.00,-86.00,-82.00,-83.00,0.00
-64.00,-73.00,-88.00,-82.00,-87.00,-85.00,-64.00,0.00
-63.00,-70.00,-85.00,-82.00,-88.00,-86.00,-82.00,0.00
-64.00,-72.00,-86.00,-83.00,-87.00,-87.00,-87.00,0.00
-68.00,-73.00,-86.00,-82.00,-88.00,-87.00,-82.00,0.00
-63.00,-71.00,-88.00,-82.00,-90.00,-85.00,-88.00,0.00
-72.00,-74.00,-96.00,-89.00,-91.00,-86.00,-74.00,0.00
-71.00,-76.00,-96.00,-96.00,-96.00,-93.00,-96.00,0.00
-85.00,-90.00,-96.00,-87.00,-90.00,-96.00,-90.00,0.00
-76.00,-71.00,-96.00,-86.00,-86.00,-95.00,-95.00,0.00
-83.00,-62.00,-94.00,-92.00,-92.00,-90.00,-83.00,0.00
-95.00,-76.00,-96.00,-94.00,-96.00,-94.00,-96.00,0.00
-82.00,-73.00,-86.00,-94.00,-86.00,-86.00,-82.00,0.00
-79.00,-79.00,-89.00,-96.00,-87.00,-92.00,-92.00,0.00
-84.00,-75.00,-87.00,-85.00,-94.00,-91.00,-85.00,0.00
-71.00,-79.00,-86.00,-90.00,-86.00,-93.00,-71.00,0.00
-73.00,-81.00,-86.00,-88.00,-86.00,-89.00,-81.00,0.00
-77.00,-76.00,-86.00,-91.00,-88.00,-88.00,-77.00,0.00
-67.00,-75.00,-93.00,-86.00,-88.00,-96.00,-96.00,0.00
-74.00,-72.00,-87.00,-88.00,-96.00,-86.00,-87.00,0.00
-71.00,-79.00,-82.00,-89.00,-93.00,-92.00,-93.00,0.00
-70.00,-77.00,-84.00,-86.00,-85.00,-89.00,-86.00,0.00
-69.00,-78.00,-86.00,-86.00,-86.00,-91.00,-86.00,0.00
-81.00,-94.00,-85.00,-90.00,-96.00,-95.00,-85.00,0.00
-84.00,-89.00,-91.00,-93.00,-96.00,-92.00,-92.00,0.00
-89.00,-85.00,-90.00,-92.00,-94.00,-88.00,-90.00,0.00
-88.00,-82.00,-94.00,-86.00,-94.00,-86.00,-82.00,0.00
-86.00,-78.00,-86.00,-86.00,-88.00,-88.00,-78.00,0.00
-89.00,-82.00,-93.00,-88.00,-96.00,-89.00,-93.00,0.00
-81.00,-82.00,-86.00,-90.00,-96.00,-96.00,-81.00,0.00
-90.00,-83.00,-96.00,-88.00,-86.00,-90.00,-96.00,0.00
-81.00,-81.00,-87.00,-86.00,-85.00,-86.00,-81.00,0.00
-90.00,-81.00,-96.00,-89.00,-90.00,-94.00,-89.00,0.00
-81.00,-84.00,-86.00,-90.00,-86.00,-85.00,-81.00,0.00
-78.00,-84.00,-86.00,-92.00,-89.00,-86.00,-84.00,0.00
-80.00,-83.00,-87.00,-96.00,-88.00,-92.00,-92.00,0.00
-81.00,-84.00,-84.00,-91.00,-86.00,-90.00,-91.00,0.00
-75.00,-84.00,-84.00,-96.00,-88.00,-86.00,-88.00,0.00
-76.00,-91.00,-86.00,-88.00,-86.00,-86.00,-86.00,1.00
-88.00,-86.00,-75.00,-79.00,-89.00,-90.00,-79.00,1.00
-96.00,-92.00,-81.00,-71.00,-86.00,-86.00,-86.00,1.00
-81.00,-93.00,-77.00,-86.00,-89.00,-94.00,-89.00,1.00
-86.00,-96.00,-77.00,-72.00,-83.00,-89.00,-86.00,1.00
-96.00,-86.00,-82.00,-86.00,-86.00,-86.00,-96.00,1.00
-95.00,-95.00,-72.00,-90.00,-93.00,-94.00,-95.00,1.00
-86.00,-93.00,-72.00,-82.00,-86.00,-85.00,-93.00,1.00
-86.00,-96.00,-67.00,-80.00,-85.00,-91.00,-91.00,1.00
-90.00,-96.00,-91.00,-73.00,-89.00,-95.00,-89.00,1.00
-82.00,-86.00,-74.00,-77.00,-93.00,-91.00,-91.00,1.00
-87.00,-86.00,-84.00,-78.00,-96.00,-96.00,-86.00,1.00
-86.00,-92.00,-73.00,-66.00,-91.00,-85.00,-86.00,1.00
-82.00,-95.00,-77.00,-66.00,-87.00,-92.00,-92.00,1.00
-91.00,-95.00,-70.00,-66.00,-86.00,-91.00,-66.00,1.00
-82.00,-95.00,-67.00,-66.00,-85.00,-86.00,-82.00,1.00
-81.00,-96.00,-68.00,-67.00,-91.00,-92.00,-67.00,1.00
-90.00,-94.00,-70.00,-67.00,-96.00,-94.00,-90.00,1.00
-86.00,-95.00,-70.00,-62.00,-86.00,-92.00,-70.00,1.00
-89.00,-95.00,-69.00,-60.00,-91.00,-91.00,-91.00,1.00
-84.00,-94.00,-69.00,-62.00,-96.00,-93.00,-69.00,1.00
-81.00,-86.00,-68.00,-79.00,-88.00,-87.00,-68.00,1.00
-90.00,-96.00,-65.00,-74.00,-93.00,-93.00,-90.00,1.00
-91.00,-93.00,-68.00,-67.00,-89.00,-94.00,-68.00,1.00
-82.00,-88.00,-60.00,-69.00,-87.00,-91.00,-88.00,1.00
-80.00,-88.00,-59.00,-57.00,-93.00,-86.00,-93.00,1.00
-86.00,-88.00,-60.00,-64.00,-88.00,-83.00,-88.00,1.00
-86.00,-86.00,-60.00,-58.00,-95.00,-87.00,-58.00,1.00
-86.00,-87.00,-59.00,-64.00,-89.00,-88.00,-86.00,1.00
-86.00,-86.00,-59.00,-64.00,-86.00,-83.00,-64.00,1.00
-94.00,-85.00,-59.00,-57.00,-86.00,-81.00,-57.00,1.00
-86.00,-90.00,-60.00,-64.00,-93.00,-87.00,-93.00,1.00
-86.00,-84.00,-59.00,-60.00,-89.00,-86.00,-59.00,1.00
-96.00,-86.00,-60.00,-60.00,-89.00,-88.00,-60.00,1.00
-85.00,-86.00,-58.00,-58.00,-96.00,-87.00,-58.00,1.00
-88.00,-85.00,-58.00,-61.00,-86.00,-88.00,-85.00,1.00
-84.00,-96.00,-59.00,-64.00,-89.00,-87.00,-64.00,1.00
-83.00,-88.00,-58.00,-62.00,-86.00,-85.00,-88.00,1.00
-84.00,-89.00,-59.00,-58.00,-93.00,-87.00,-93.00,1.00
-87.00,-86.00,-58.00,-57.00,-89.00,-81.00,-81.00,1.00
-82.00,-95.00,-58.00,-62.00,-88.00,-86.00,-95.00,1.00
-93.00,-88.00,-60.00,-65.00,-86.00,-86.00,-86.00,1.00
-92.00,-94.00,-60.00,-58.00,-94.00,-86.00,-94.00,1.00
-91.00,-96.00,-72.00,-73.00,-96.00,-93.00,-96.00,1.00
-96.00,-86.00,-81.00,-70.00,-86.00,-96.00,-86.00,1.00
-89.00,-85.00,-73.00,-67.00,-91.00,-93.00,-93.00,1.00
-89.00,-86.00,-74.00,-63.00,-96.00,-96.00,-74.00,1.00
-85.00,-91.00,-75.00,-64.00,-86.00,-96.00,-64.00,1.00
-91.00,-96.00,-74.00,-67.00,-91.00,-96.00,-91.00,1.00
-81.00,-90.00,-71.00,-64.00,-90.00,-96.00,-64.00,1.00
-88.00,-90.00,-72.00,-79.00,-95.00,-94.00,-90.00,1.00
-86.00,-92.00,-76.00,-84.00,-92.00,-96.00,-92.00,1.00
-95.00,-86.00,-82.00,-80.00,-86.00,-86.00,-86.00,1.00
-86.00,-93.00,-93.00,-89.00,-81.00,-78.00,-86.00,2.00
-86.00,-85.00,-86.00,-93.00,-75.00,-78.00,-78.00,2.00
-86.00,-87.00,-91.00,-90.00,-81.00,-74.00,-81.00,2.00
-95.00,-86.00,-95.00,-93.00,-77.00,-71.00,-95.00,2.00
-86.00,-85.00,-86.00,-95.00,-93.00,-74.00,-93.00,2.00
-96.00,-89.00,-96.00,-92.00,-80.00,-69.00,-69.00,2.00
-86.00,-91.00,-96.00,-93.00,-77.00,-70.00,-86.00,2.00
-95.00,-96.00,-96.00,-95.00,-71.00,-59.00,-71.00,2.00
-91.00,-89.00,-90.00,-86.00,-60.00,-65.00,-89.00,2.00
-86.00,-87.00,-86.00,-86.00,-58.00,-66.00,-86.00,2.00
-94.00,-89.00,-86.00,-91.00,-60.00,-63.00,-89.00,2.00
-92.00,-88.00,-95.00,-92.00,-60.00,-67.00,-60.00,2.00
-86.00,-86.00,-96.00,-96.00,-59.00,-65.00,-86.00,2.00
-86.00,-84.00,-86.00,-91.00,-60.00,-66.00,-86.00,2.00
-91.00,-86.00,-86.00,-90.00,-58.00,-66.00,-66.00,2.00
-86.00,-88.00,-96.00,-91.00,-59.00,-67.00,-96.00,2.00
-95.00,-86.00,-95.00,-91.00,-57.00,-67.00,-95.00,2.00
-95.00,-87.00,-95.00,-86.00,-61.00,-67.00,-95.00,2.00
-86.00,-83.00,-95.00,-94.00,-60.00,-66.00,-60.00,2.00
-96.00,-89.00,-93.00,-86.00,-57.00,-67.00,-93.00,2.00
-93.00,-84.00,-96.00,-94.00,-60.00,-66.00,-93.00,2.00
-96.00,-83.00,-94.00,-86.00,-59.00,-66.00,-86.00,2.00
-93.00,-83.00,-94.00,-94.00,-58.00,-65.00,-94.00,2.00
-96.00,-89.00,-95.00,-91.00,-58.00,-66.00,-95.00,2.00
-96.00,-83.00,-96.00,-95.00,-59.00,-66.00,-83.00,2.00
-96.00,-84.00,-96.00,-96.00,-59.00,-67.00,-96.00,2.00
-92.00,-84.00,-95.00,-96.00,-59.00,-67.00,-84.00,2.00
-96.00,-84.00,-96.00,-91.00,-59.00,-67.00,-59.00,2.00
-92.00,-84.00,-86.00,-96.00,-58.00,-67.00,-67.00,2.00
-96.00,-86.00,-93.00,-91.00,-59.00,-67.00,-96.00,2.00
-93.00,-83.00,-94.00,-94.00,-60.00,-68.00,-93.00,2.00
-96.00,-84.00,-95.00,-91.00,-58.00,-64.00,-96.00,2.00
-96.00,-89.00,-96.00,-94.00,-59.00,-68.00,-96.00,2.00
-93.00,-84.00,-86.00,-96.00,-57.00,-66.00,-57.00,2.00
-96.00,-84.00,-95.00,-95.00,-60.00,-67.00,-60.00,2.00
-96.00,-85.00,-93.00,-96.00,-60.00,-66.00,-60.00,2.00
-92.00,-86.00,-86.00,-94.00,-59.00,-66.00,-59.00,2.00
-96.00,-86.00,-94.00,-96.00,-59.00,-67.00,-67.00,2.00
-96.00,-85.00,-95.00,-90.00,-58.00,-67.00,-95.00,2.00
-95.00,-85.00,-94.00,-94.00,-60.00,-66.00,-94.00,2.00
-96.00,-87.00,-96.00,-86.00,-58.00,-67.00,-67.00,2.00
-94.00,-87.00,-96.00,-95.00,-57.00,-67.00,-96.00,2.00
-95.00,-87.00,-93.00,-94.00,-58.00,-67.00,-93.00,2.00
-96.00,-87.00,-93.00,-94.00,-59.00,-67.00,-94.00,2.00
-95.00,-84.00,-94.00,-91.00,-59.00,-63.00,-91.00,2.00
-86.00,-83.00,-93.00,-86.00,-58.00,-63.00,-63.00,2.00
-86.00,-86.00,-93.00,-86.00,-58.00,-67.00,-93.00,2.00
-96.00,-87.00,-94.00,-94.00,-60.00,-67.00,-60.00,2.00
-96.00,-88.00,-93.00,-96.00,-57.00,-66.00,-96.00,2.00
-96.00,-89.00,-93.00,-95.00,-59.00,-68.00,-59.00,2.00
-96.00,-88.00,-86.00,-86.00,-59.00,-67.00,-86.00,2.00
-93.00,-88.00,-94.00,-94.00,-59.00,-67.00,-88.00,2.00
-92.00,-84.00,-96.00,-91.00,-59.00,-67.00,-84.00,2.00
-92.00,-85.00,-96.00,-86.00,-57.00,-66.00,-66.00,2.00
-86.00,-86.00,-94.00,-91.00,-60.00,-67.00,-91.00,2.00
-96.00,-87.00,-86.00,-90.00,-58.00,-66.00,-86.00,2.00
-90.00,-86.00,-95.00,-96.00,-59.00,-67.00,-59.00,2.00
-86.00,-86.00,-95.00,-86.00,-60.00,-66.00,-95.00,2.00
-94.00,-86.00,-92.00,-89.00,-58.00,-67.00,-86.00,2.00
-95.00,-86.00,-96.00,-92.00,-59.00,-67.00,-95.00,2.00
-86.00,-86.00,-93.00,-86.00,-68.00,-65.00,-86.00,2.00
-95.00,-84.00,-86.00,-86.00,-76.00,-66.00,-95.00,2.00
-92.00,-87.00,-96.00,-89.00,-87.00,-86.00,-89.00,2.00
-89.00,-85.00,-82.00,-92.00,-86.00,-85.00,-86.00,2.00
-82.00,-82.00,-77.00,-81.00,-91.00,-92.00,-92.00,1.00
-87.00,-86.00,-73.00,-79.00,-88.00,-86.00,-86.00,1.00
-95.00,-68.00,-88.00,-96.00,-68.00,1.00
-96.00,-68.00,-84.00,-86.00,-96.00,1.00
-91.00,-96.00,-62.00,-82.00,-88.00,-96.00,-91.00,1.00
-86.00,-86.00,-79.00,-59.00,-86.00,-96.00,-59.00,1.00
-85.00,-92.00,-90.00,-56.00,-95.00,-96.00,-56.00,1.00
-86.00,-93.00,-89.00,-53.00,-92.00,-88.00,-92.00,1.00
-81.00,-94.00,-96.00,-55.00,-96.00,-90.00,-55.00,1.00
-88.00,-94.00,-86.00,-60.00,-96.00,-96.00,-86.00,1.00
-81.00,-87.00,-84.00,-60.00,-86.00,-86.00,-87.00,1.00
-83.00,-89.00,-93.00,-57.00,-94.00,-86.00,-83.00,1.00
-85.00,-91.00,-87.00,-62.00,-93.00,-85.00,-91.00,1.00
-84.00,-86.00,-82.00,-59.00,-86.00,-93.00,-86.00,1.00
-84.00,-88.00,-81.00,-64.00,-96.00,-95.00,-95.00,1.00
-86.00,-93.00,-85.00,-60.00,-96.00,-91.00,-86.00,1.00
-84.00,-88.00,-83.00,-57.00,-96.00,-92.00,-88.00,1.00
-83.00,-86.00,-84.00,-56.00,-86.00,-86.00,-84.00,1.00
-86.00,-92.00,-77.00,-55.00,-94.00,-55.00,1.00
-86.00,-93.00,-76.00,-58.00,-96.00,-86.00,-86.00,1.00
-85.00,-91.00,-77.00,-55.00,-94.00,-88.00,-94.00,1.00
-95.00,-88.00,-77.00,-57.00,-93.00,-92.00,-57.00,1.00
-82.00,-90.00,-77.00,-58.00,-92.00,-91.00,-92.00,1.00
-84.00,-89.00,-77.00,-55.00,-94.00,-93.00,-84.00,1.00
-86.00,-96.00,-77.00,-58.00,-93.00,-91.00,-93.00,1.00
-83.00,-89.00,-75.00,-58.00,-93.00,-91.00,-83.00,1.00
-83.00,-92.00,-81.00,-55.00,-93.00,-86.00,-83.00,1.00
-83.00,-96.00,-77.00,-58.00,-93.00,-90.00,-77.00,1.00
-82.00,-89.00,-81.00,-57.00,-94.00,-86.00,-86.00,1.00
-83.00,-90.00,-81.00,-58.00,-95.00,-96.00,-90.00,1.00
-96.00,-89.00,-77.00,-58.00,-94.00,-90.00,-90.00,1.00
-87.00,-89.00,-74.00,-55.00,-93.00,-93.00,-93.00,1.00
-85.00,-89.00,-81.00,-58.00,-96.00,-96.00,-96.00,1.00
-85.00,-89.00,-77.00,-58.00,-96.00,-90.00,-58.00,1.00
-82.00,-86.00,-82.00,-58.00,-86.00,-94.00,-82.00,1.00
-83.00,-86.00,-76.00,-58.00,-95.00,-90.00,-86.00,1.00
-83.00,-86.00,-76.00,-57.00,-93.00,-93.00,-76.00,1.00
-83.00,-89.00,-76.00,-58.00,-86.00,-96.00,-83.00,1.00
-83.00,-89.00,-77.00,-58.00,-94.00,-92.00,-58.00,1.00
-96.00,-89.00,-77.00,-58.00,-94.00,-90.00,-89.00,1.00
-82.00,-86.00,-77.00,-57.00,-93.00,-92.00,-77.00,1.00
-86.00,-90.00,-77.00,-58.00,-95.00,-92.00,-90.00,1.00
-83.00,-89.00,-80.00,-57.00,-93.00,-93.00,-83.00,1.00
-96.00,-88.00,-74.00,-55.00,-92.00,-86.00,-55.00,1.00
-82.00,-88.00,-81.00,-55.00,-94.00,-91.00,-88.00,1.00
-96.00,-89.00,-81.00,-56.00,-94.00,-93.00,-56.00,1.00
-87.00,-87.00,-81.00,-58.00,-92.00,-91.00,-58.00,1.00
-84.00,-90.00,-77.00,-58.00,-93.00,-86.00,-58.00,1.00
-89.00,-87.00,-78.00,-58.00,-93.00,-92.00,-89.00,1.00
-96.00,-96.00,-79.00,-58.00,-96.00,-86.00,-96.00,1.00
-89.00,-94.00,-95.00,-76.00,-93.00,-90.00,-89.00,1.00
-91.00,-91.00,-75.00,-72.00,-90.00,-93.00,-75.00,1.00
-94.00,-93.00,-79.00,-79.00,-93.00,-79.00,1.00
-88.00,-92.00,-76.00,-79.00,-96.00,-79.00,1.00
-91.00,-96.00,-77.00,-66.00,-90.00,-96.00,-96.00,1.00
-93.00,-86.00,-74.00,-73.00,-91.00,-86.00,-74.00,1.00
-86.00,-94.00,-95.00,-87.00,-84.00,-81.00,-87.00,0.00
-82.00,-82.00,-87.00,-90.00,-89.00,-93.00,-82.00,0.00
-74.00,-78.00,-96.00,-92.00,-96.00,-92.00,-74.00,0.00
-93.00,-81.00,-96.00,-93.00,-86.00,-96.00,-96.00,0.00
-72.00,-79.00,-91.00,-87.00,-83.00,-92.00,-91.00,0.00
-90.00,-83.00,-96.00,-86.00,-93.00,-86.00,-90.00,0.00
-76.00,-81.00,-95.00,-89.00,-91.00,-92.00,-81.00,0.00
-69.00,-73.00,-95.00,-86.00,-83.00,-84.00,-86.00,0.00
-75.00,-77.00,-94.00,-88.00,-84.00,-91.00,-77.00,0.00
-78.00,-81.00,-86.00,-84.00,-90.00,-92.00,-92.00,0.00
-77.00,-77.00,-95.00,-91.00,-83.00,-88.00,-95.00,0.00
-70.00,-83.00,-96.00,-86.00,-96.00,-96.00,-96.00,0.00
-77.00,-82.00,-96.00,-91.00,-93.00,-89.00,-93.00,1.00
-86.00,-86.00,-84.00,-88.00,-81.00,-84.00,-84.00,1.00
-86.00,-96.00,-81.00,-72.00,-84.00,-82.00,-82.00,1.00
-96.00,-94.00,-73.00,-79.00,-94.00,-88.00,-96.00,1.00
-86.00,-86.00,-68.00,-71.00,-93.00,-86.00,-93.00,1.00
-93.00,-96.00,-71.00,-85.00,-91.00,-84.00,-96.00,1.00
-91.00,-96.00,-73.00,-84.00,-86.00,-86.00,-91.00,1.00
-95.00,-86.00,-79.00,-74.00,-86.00,-83.00,-74.00,1.00
-87.00,-96.00,-72.00,-74.00,-84.00,-90.00,-84.00,1.00
-96.00,-96.00,-73.00,-69.00,-96.00,-96.00,1.00
-86.00,-96.00,-86.00,-81.00,-94.00,-96.00,-94.00,1.00
-90.00,-86.00,-68.00,-83.00,-93.00,-91.00,-90.00,1.00
-90.00,-77.00,-77.00,-92.00,-96.00,-92.00,1.00
-87.00,-93.00,-70.00,-78.00,-86.00,-96.00,-93.00,1.00
-86.00,-86.00,-70.00,-77.00,-95.00,-86.00,-86.00,1.00
-87.00,-93.00,-77.00,-89.00,-94.00,-91.00,-94.00,1.00
-85.00,-96.00,-67.00,-74.00,-89.00,-96.00,-74.00,1.00
-82.00,-94.00,-73.00,-80.00,-86.00,-87.00,-80.00,1.00
-86.00,-93.00,-77.00,-84.00,-90.00,-87.00,-84.00,1.00
-82.00,-96.00,-76.00,-77.00,-94.00,-87.00,-77.00,1.00
-81.00,-96.00,-76.00,-83.00,-90.00,-87.00,-87.00,1.00
-88.00,-94.00,-71.00,-83.00,-92.00,-87.00,-94.00,1.00
-84.00,-94.00,-75.00,-79.00,-86.00,-96.00,-94.00,1.00
-89.00,-96.00,-77.00,-72.00,-90.00,-94.00,-72.00,1.00
-96.00,-96.00,-81.00,-76.00,-86.00,-86.00,-96.00,2.00
-91.00,-91.00,-93.00,-95.00,-93.00,-94.00,-93.00,2.00
-91.00,-86.00,-89.00,-84.00,-77.00,-76.00,-77.00,2.00
-91.00,-93.00,-86.00,-92.00,-81.00,-68.00,-92.00,2.00
-93.00,-90.00,-86.00,-96.00,-72.00,-59.00,-96.00,2.00
-96.00,-90.00,-96.00,-96.00,-69.00,-62.00,-96.00,2.00
-86.00,-96.00,-96.00,-86.00,-68.00,-64.00,-96.00,2.00
-88.00,-88.00,-90.00,-96.00,-57.00,-62.00,-96.00,2.00
-86.00,-89.00,-95.00,-96.00,-57.00,-62.00,-57.00,2.00
-90.00,-85.00,-93.00,-94.00,-56.00,-63.00,-56.00,2.00
-90.00,-87.00,-86.00,-56.00,-63.00,-87.00,2.00
-96.00,-83.00,-86.00,-56.00,-63.00,-83.00,2.00
-95.00,-88.00,-86.00,-59.00,-63.00,-59.00,2.00
-86.00,-95.00,-93.00,-57.00,-64.00,-93.00,2.00
-96.00,-94.00,-96.00,-57.00,-64.00,-64.00,2.00
-96.00,-95.00,-93.00,-96.00,-57.00,-63.00,-63.00,2.00
-94.00,-89.00,-94.00,-56.00,-66.00,-66.00,2.00
-90.00,-86.00,-96.00,-56.00,-63.00,-56.00,2.00
-91.00,-89.00,-94.00,-96.00,-57.00,-64.00,-94.00,2.00
-95.00,-86.00,-93.00,-96.00,-58.00,-63.00,-63.00,2.00
-87.00,-84.00,-86.00,-96.00,-57.00,-62.00,-57.00,2.00
-92.00,-86.00,-92.00,-57.00,-64.00,-86.00,2.00
-92.00,-88.00,-94.00,-96.00,-57.00,-63.00,-63.00,2.00
-86.00,-83.00,-86.00,-96.00,-56.00,-64.00,-96.00,2.00
-93.00,-86.00,-86.00,-57.00,-63.00,-63.00,2.00
-90.00,-88.00,-92.00,-95.00,-57.00,-63.00,-88.00,2.00
-96.00,-89.00,-96.00,-96.00,-56.00,-64.00,-96.00,2.00
-87.00,-82.00,-96.00,-93.00,-81.00,-68.00,-96.00,2.00
-88.00,-87.00,-86.00,-86.00,-87.00,-82.00,-88.00,2.00
-94.00,-96.00,-93.00,-87.00,-77.00,-69.00,-93.00,2.00
-96.00,-85.00,-88.00,-91.00,-88.00,-80.00,-80.00,1.00
-91.00,-91.00,-85.00,-93.00,-84.00,-84.00,-84.00,1.00
-96.00,-94.00,-87.00,-79.00,-86.00,-93.00,-79.00,1.00
-80.00,-86.00,-69.00,-82.00,-87.00,-89.00,-69.00,1.00
-86.00,-92.00,-68.00,-76.00,-89.00,-95.00,-89.00,1.00
-95.00,-96.00,-69.00,-66.00,-91.00,-96.00,-91.00,1.00
-86.00,-92.00,-69.00,-78.00,-87.00,-87.00,-69.00,1.00
-84.00,-96.00,-74.00,-75.00,-85.00,-92.00,-85.00,1.00
-93.00,-91.00,-74.00,-78.00,-86.00,-93.00,-74.00,1.00
-84.00,-89.00,-81.00,-80.00,-92.00,-81.00,-89.00,1.00
-88.00,-96.00,-72.00,-88.00,-96.00,-96.00,-96.00,1.00
-96.00,-96.00,-83.00,-86.00,-95.00,-89.00,-96.00,1.00
-82.00,-90.00,-88.00,-81.00,-86.00,-87.00,-88.00,1.00
-83.00,-86.00,-82.00,-80.00,-88.00,-92.00,-86.00,1.00
-90.00,-89.00,-76.00,-80.00,-87.00,-92.00,-87.00,1.00
-84.00,-95.00,-73.00,-71.00,-85.00,-84.00,-73.00,1.00
-96.00,-90.00,-76.00,-72.00,-95.00,-91.00,-90.00,1.00
-83.00,-92.00,-81.00,-72.00,-91.00,-86.00,-91.00,1.00
-90.00,-94.00,-85.00,-67.00,-88.00,-94.00,-67.00,1.00
-93.00,-89.00,-71.00,-70.00,-89.00,-96.00,-71.00,1.00
-82.00,-90.00,-67.00,-80.00,-86.00,-91.00,-80.00,1.00
-82.00,-90.00,-69.00,-79.00,-95.00,-91.00,-95.00,1.00
-86.00,-90.00,-67.00,-81.00,-83.00,-90.00,-83.00,1.00
-91.00,-88.00,-68.00,-70.00,-91.00,-84.00,-91.00,1.00
-92.00,-96.00,-68.00,-78.00,-85.00,-86.00,-68.00,1.00
-85.00,-86.00,-78.00,-74.00,-86.00,-87.00,-85.00,1.00
-91.00,-86.00,-72.00,-53.00,-86.00,-82.00,-82.00,1.00
-86.00,-95.00,-71.00,-56.00,-81.00,-82.00,-86.00,1.00
-96.00,-90.00,-74.00,-59.00,-80.00,-87.00,-90.00,1.00
-84.00,-93.00,-78.00,-55.00,-85.00,-84.00,-84.00,1.00
-92.00,-96.00,-78.00,-54.00,-96.00,-85.00,-78.00,1.00
-85.00,-86.00,-79.00,-59.00,-95.00,-82.00,-82.00,1.00
-86.00,-96.00,-73.00,-58.00,-86.00,-86.00,-96.00,1.00
-89.00,-92.00,-71.00,-56.00,-81.00,-81.00,-81.00,1.00
-86.00,-95.00,-71.00,-56.00,-81.00,-82.00,-86.00,1.00
-86.00,-86.00,-71.00,-59.00,-86.00,-85.00,-86.00,1.00
-86.00,-86.00,-71.00,-54.00,-80.00,-82.00,-71.00,1.00
-88.00,-93.00,-71.00,-55.00,-87.00,-86.00,-71.00,1.00
-88.00,-93.00,-71.00,-55.00,-81.00,-85.00,-85.00,1.00
-87.00,-96.00,-71.00,-59.00,-94.00,-86.00,-87.00,1.00
-86.00,-96.00,-71.00,-58.00,-81.00,-86.00,-71.00,1.00
-87.00,-94.00,-71.00,-55.00,-88.00,-82.00,-94.00,1.00
-93.00,-92.00,-76.00,-58.00,-81.00,-81.00,-93.00,1.00
-95.00,-94.00,-73.00,-59.00,-83.00,-84.00,-83.00,1.00
-96.00,-96.00,-82.00,-75.00,-96.00,-96.00,-96.00,1.00
-88.00,-86.00,-71.00,-82.00,-96.00,-96.00,-71.00,1.00
-89.00,-93.00,-72.00,-81.00,-96.00,-96.00,-89.00,1.00
-86.00,-96.00,-69.00,-86.00,-96.00,-96.00,-86.00,1.00
-90.00,-95.00,-68.00,-88.00,-84.00,-96.00,-84.00,1.00
-88.00,-86.00,-61.00,-75.00,-93.00,-96.00,-93.00,1.00
-85.00,-96.00,-84.00,-81.00,-89.00,-84.00,-81.00,0.00
-81.00,-81.00,-92.00,-90.00,-81.00,-79.00,-92.00,0.00
-84.00,-90.00,-89.00,-96.00,-96.00,-92.00,-90.00,0.00
-74.00,-72.00,-96.00,-96.00,-96.00,-72.00,0.00
-75.00,-76.00,-91.00,-92.00,-93.00,-76.00,0.00
-81.00,-87.00,-95.00,-89.00,-89.00,-93.00,-87.00,0.00
-83.00,-84.00,-96.00,-86.00,-86.00,-86.00,-86.00,0.00
-82.00,-73.00,-96.00,-95.00,-96.00,-96.00,-96.00,0.00
-76.00,-83.00,-96.00,-85.00,-85.00,-96.00,-76.00,0.00
-91.00,-66.00,-96.00,-92.00,-93.00,-86.00,-96.00,0.00
-81.00,-59.00,-93.00,-91.00,-89.00,-82.00,-82.00,0.00
-81.00,-54.00,-86.00,-86.00,-86.00,-84.00,-54.00,0.00
-89.00,-55.00,-86.00,-86.00,-96.00,-86.00,-86.00,0.00
-83.00,-55.00,-94.00,-88.00,-94.00,-86.00,-83.00,0.00
-74.00,-55.00,-93.00,-89.00,-95.00,-89.00,-89.00,0.00
-76.00,-55.00,-94.00,-91.00,-91.00,-84.00,-91.00,0.00
-74.00,-55.00,-92.00,-86.00,-85.00,-83.00,-85.00,0.00
-74.00,-57.00,-96.00,-90.00,-86.00,-88.00,-74.00,0.00
-77.00,-56.00,-96.00,-91.00,-86.00,-89.00,-96.00,0.00
-74.00,-57.00,-96.00,-86.00,-84.00,-88.00,-74.00,0.00
-75.00,-55.00,-86.00,-96.00,-86.00,-87.00,-86.00,0.00
-75.00,-55.00,-93.00,-86.00,-92.00,-85.00,-55.00,0.00
-76.00,-56.00,-94.00,-91.00,-87.00,-86.00,-87.00,0.00
-73.00,-55.00,-93.00,-89.00,-86.00,-94.00,-55.00,0.00
-82.00,-55.00,-86.00,-86.00,-86.00,-96.00,-55.00,0.00
-77.00,-54.00,-94.00,-88.00,-86.00,-95.00,-88.00,0.00
-79.00,-56.00,-86.00,-92.00,-87.00,-87.00,-92.00,0.00
-76.00,-55.00,-86.00,-89.00,-86.00,-96.00,-86.00,0.00
-74.00,-57.00,-94.00,-90.00,-93.00,-85.00,-90.00,0.00
-75.00,-54.00,-92.00,-91.00,-85.00,-87.00,-92.00,0.00
-78.00,-55.00,-96.00,-86.00,-85.00,-87.00,-87.00,0.00
-78.00,-57.00,-95.00,-86.00,-86.00,-87.00,-87.00,0.00
-74.00,-56.00,-86.00,-91.00,-84.00,-84.00,-91.00,0.00
-75.00,-55.00,-94.00,-92.00,-86.00,-85.00,-92.00,0.00
-78.00,-56.00,-96.00,-95.00,-93.00,-86.00,-93.00,0.00
-75.00,-56.00,-96.00,-92.00,-84.00,-86.00,-92.00,0.00
-75.00,-55.00,-94.00,-91.00,-84.00,-87.00,-84.00,0.00
-77.00,-55.00,-96.00,-91.00,-83.00,-86.00,-77.00,0.00
-77.00,-57.00,-94.00,-92.00,-92.00,-86.00,-92.00,0.00
-74.00,-56.00,-95.00,-86.00,-85.00,-86.00,-86.00,0.00
-77.00,-56.00,-96.00,-93.00,-85.00,-96.00,-85.00,0.00
-77.00,-56.00,-96.00,-94.00,-85.00,-84.00,-56.00,0.00
-75.00,-55.00,-96.00,-91.00,-86.00,-86.00,-86.00,0.00
-76.00,-54.00,-96.00,-94.00,-93.00,-84.00,-84.00,0.00
-75.00,-57.00,-94.00,-90.00,-86.00,-87.00,-75.00,0.00
-75.00,-56.00,-96.00,-90.00,-85.00,-84.00,-84.00,0.00
-75.00,-56.00,-86.00,-91.00,-86.00,-85.00,-86.00,0.00
-75.00,-56.00,-96.00,-95.00,-93.00,-84.00,-56.00,0.00
-77.00,-55.00,-96.00,-86.00,-84.00,-85.00,-55.00,0.00
-76.00,-56.00,-86.00,-90.00,-86.00,-85.00,-56.00,0.00
-75.00,-55.00,-96.00,-91.00,-87.00,-87.00,-96.00,0.00
-75.00,-57.00,-93.00,-91.00,-84.00,-86.00,-84.00,0.00
-77.00,-57.00,-93.00,-89.00,-95.00,-87.00,-93.00,0.00
-73.00,-55.00,-86.00,-91.00,-86.00,-86.00,-91.00,0.00
-73.00,-56.00,-86.00,-94.00,-94.00,-96.00,-94.00,0.00
-73.00,-56.00,-91.00,-96.00,-96.00,-91.00,0.00
-84.00,-68.00,-96.00,-95.00,-96.00,-86.00,-96.00,0.00
-62.00,-71.00,-96.00,-84.00,-96.00,-95.00,-96.00,0.00
-60.00,-72.00,-88.00,-86.00,-89.00,-85.00,-88.00,0.00
-68.00,-73.00,-89.00,-92.00,-91.00,-86.00,-92.00,0.00
-64.00,-73.00,-90.00,-96.00,-91.00,-94.00,-91.00,0.00
-61.00,-70.00,-86.00,-86.00,-91.00,-86.00,-86.00,0.00
-61.00,-66.00,-96.00,-93.00,-95.00,-89.00,-89.00,0.00
-58.00,-67.00,-95.00,-86.00,-86.00,-86.00,-86.00,0.00
-60.00,-68.00,-96.00,-88.00,-89.00,-88.00,-96.00,0.00
-58.00,-68.00,-95.00,-87.00,-90.00,-89.00,-89.00,0.00
-59.00,-68.00,-90.00,-85.00,-96.00,-88.00,-96.00,0.00
-58.00,-68.00,-86.00,-94.00,-94.00,-94.00,-68.00,0.00
-58.00,-68.00,-86.00,-93.00,-86.00,-86.00,-86.00,0.00
-58.00,-68.00,-88.00,-91.00,-93.00,-86.00,-58.00,0.00
-56.00,-76.00,-89.00,-93.00,-92.00,-92.00,-93.00,0.00
-60.00,-69.00,-89.00,-86.00,-91.00,-91.00,-89.00,0.00
-60.00,-68.00,-93.00,-87.00,-94.00,-95.00,-68.00,0.00
-59.00,-73.00,-86.00,-91.00,-92.00,-91.00,-91.00,0.00
-59.00,-68.00,-94.00,-85.00,-92.00,-91.00,-68.00,0.00
-56.00,-68.00,-93.00,-87.00,-91.00,-90.00,-87.00,0.00
-56.00,-75.00,-88.00,-87.00,-93.00,-91.00,-87.00,0.00
-59.00,-69.00,-86.00,-86.00,-92.00,-93.00,-92.00,0.00
-60.00,-69.00,-86.00,-86.00,-86.00,-86.00,-69.00,0.00
-58.00,-68.00,-89.00,-94.00,-86.00,-86.00,-89.00,0.00
-60.00,-76.00,-86.00,-85.00,-86.00,-90.00,-85.00,0.00
-59.00,-76.00,-88.00,-91.00,-91.00,-91.00,-59.00,0.00
-60.00,-68.00,-86.00,-86.00,-86.00,-86.00,-86.00,0.00
-60.00,-69.00,-86.00,-85.00,-86.00,-90.00,-69.00,0.00
-60.00,-69.00,-89.00,-86.00,-92.00,-92.00,-89.00,0.00
-58.00,-68.00,-86.00,-86.00,-96.00,-86.00,-86.00,0.00
-59.00,-69.00,-89.00,-86.00,-92.00,-95.00,-92.00,0.00
-60.00,-69.00,-93.00,-94.00,-86.00,-90.00,-69.00,0.00
-59.00,-69.00,-94.00,-94.00,-94.00,-86.00,-59.00,0.00
-58.00,-67.00,-86.00,-86.00,-96.00,-96.00,-96.00,0.00
-58.00,-75.00,-95.00,-87.00,-95.00,-92.00,-87.00,0.00
-58.00,-68.00,-92.00,-86.00,-89.00,-86.00,-68.00,0.00
-60.00,-68.00,-94.00,-90.00,-92.00,-91.00,-60.00,0.00
-60.00,-68.00,-96.00,-87.00,-95.00,-94.00,-95.00,0.00
-59.00,-74.00,-96.00,-89.00,-95.00,-88.00,-74.00,0.00
-62.00,-73.00,-96.00,-95.00,-94.00,-86.00,-94.00,0.00
-74.00,-78.00,-96.00,-95.00,-96.00,-95.00,-95.00,0.00
-73.00,-67.00,-96.00,-86.00,-96.00,-92.00,-67.00,0.00
-76.00,-72.00,-96.00,-92.00,-93.00,-96.00,-76.00,0.00
-74.00,-74.00,-96.00,-86.00,-90.00,-92.00,-74.00,0.00
-78.00,-75.00,-96.00,-93.00,-92.00,-95.00,-96.00,0.00
-73.00,-71.00,-96.00,-92.00,-95.00,-96.00,-95.00,0.00
-74.00,-67.00,-96.00,-92.00,-86.00,-96.00,-96.00,0.00
-71.00,-73.00,-96.00,-90.00,-90.00,-96.00,-90.00,0.00
-74.00,-73.00,-96.00,-94.00,-92.00,-86.00,-86.00,0.00
-79.00,-82.00,-96.00,-86.00,-93.00,-79.00,0.00
-83.00,-66.00,-96.00,-86.00,-95.00,-96.00,-96.00,0.00
-96.00,-67.00,-96.00,-82.00,-96.00,-96.00,-96.00,0.00
-89.00,-64.00,-96.00,-84.00,-96.00,-96.00,-96.00,0.00
-89.00,-70.00,-96.00,-81.00,-95.00,-95.00,-95.00,0.00
-85.00,-66.00,-95.00,-82.00,-96.00,-86.00,-85.00,0.00
-83.00,-77.00,-94.00,-86.00,-95.00,-96.00,-86.00,0.00
-82.00,-75.00,-96.00,-90.00,-95.00,-89.00,-89.00,0.00
-83.00,-67.00,-95.00,-96.00,-87.00,-88.00,-83.00,0.00
-81.00,-81.00,-96.00,-84.00,-96.00,-86.00,-81.00,0.00
-71.00,-70.00,-94.00,-87.00,-96.00,-90.00,-94.00,0.00
-73.00,-72.00,-86.00,-84.00,-84.00,-86.00,-84.00,0.00
-80.00,-81.00,-94.00,-83.00,-91.00,-91.00,-91.00,0.00
-71.00,-81.00,-91.00,-86.00,-96.00,-86.00,-91.00,0.00
-76.00,-77.00,-94.00,-89.00,-86.00,-86.00,-89.00,0.00
-76.00,-81.00,-95.00,-89.00,-94.00,-95.00,-81.00,0.00
-76.00,-81.00,-94.00,-85.00,-93.00,-94.00,-76.00,0.00
-75.00,-80.00,-93.00,-84.00,-88.00,-91.00,-84.00,0.00
-76.00,-76.00,-86.00,-85.00,-87.00,-95.00,-76.00,0.00
-72.00,-86.00,-95.00,-92.00,-86.00,-94.00,-72.00,0.00
-71.00,-76.00,-95.00,-85.00,-86.00,-95.00,0.00
-76.00,-81.00,-95.00,-90.00,-87.00,-93.00,-95.00,0.00
-71.00,-66.00,-92.00,-88.00,-90.00,-86.00,-71.00,0.00
-68.00,-70.00,-86.00,-86.00,-83.00,-92.00,-83.00,0.00
-68.00,-66.00,-93.00,-83.00,-95.00,-90.00,-83.00,0.00
-68.00,-69.00,-96.00,-79.00,-88.00,-91.00,-69.00,0.00
-71.00,-74.00,-90.00,-87.00,-92.00,-88.00,-74.00,0.00
-85.00,-92.00,-96.00,-85.00,-94.00,-94.00,-85.00,0.00
-75.00,-86.00,-95.00,-86.00,-86.00,-96.00,-95.00,1.00
-86.00,-79.00,-85.00,-89.00,-85.00,-86.00,-86.00,1.00
-94.00,-87.00,-84.00,-84.00,-83.00,-82.00,-94.00,1.00
-96.00,-86.00,-69.00,-81.00,-86.00,-86.00,-86.00,1.00
-86.00,-91.00,-81.00,-77.00,-86.00,-94.00,-86.00,1.00
-96.00,-94.00,-75.00,-75.00,-90.00,-86.00,-86.00,1.00
-96.00,-91.00,-70.00,-74.00,-85.00,-86.00,-70.00,1.00
-94.00,-89.00,-74.00,-81.00,-85.00,-88.00,-74.00,1.00
-94.00,-96.00,-74.00,-80.00,-87.00,-89.00,-87.00,1.00
-96.00,-94.00,-72.00,-77.00,-86.00,-83.00,-86.00,1.00
-94.00,-86.00,-72.00,-69.00,-90.00,-93.00,-90.00,1.00
-96.00,-96.00,-71.00,-81.00,-90.00,-94.00,-96.00,1.00
-96.00,-96.00,-78.00,-82.00,-96.00,-96.00,-96.00,1.00
-96.00,-96.00,-76.00,-77.00,-96.00,1.00
-96.00,-96.00,-72.00,-79.00,-72.00,1.00
-96.00,-96.00,-68.00,-85.00,-96.00,1.00
-90.00,-96.00,-69.00,-68.00,-86.00,-89.00,-68.00,1.00
-78.00,-96.00,-61.00,-71.00,-94.00,-86.00,-78.00,1.00
-90.00,-96.00,-62.00,-79.00,-86.00,-93.00,-90.00,1.00
-94.00,-93.00,-70.00,-66.00,-86.00,-96.00,-86.00,1.00
-86.00,-95.00,-79.00,-60.00,-91.00,-88.00,-86.00,1.00
-84.00,-95.00,-84.00,-54.00,-93.00,-96.00,-96.00,1.00
-91.00,-93.00,-80.00,-54.00,-91.00,-91.00,-54.00,1.00
-82.00,-93.00,-75.00,-55.00,-85.00,-86.00,-75.00,1.00
-83.00,-95.00,-78.00,-57.00,-87.00,-96.00,-78.00,1.00
-91.00,-95.00,-77.00,-58.00,-90.00,-86.00,-86.00,1.00
-84.00,-93.00,-88.00,-51.00,-90.00,-90.00,-90.00,1.00
-89.00,-86.00,-88.00,-56.00,-86.00,-88.00,-88.00,1.00
-86.00,-86.00,-78.00,-55.00,-85.00,-86.00,-86.00,1.00
-90.00,-93.00,-85.00,-54.00,-94.00,-93.00,-93.00,1.00
-86.00,-96.00,-78.00,-57.00,-93.00,-88.00,-57.00,1.00
-92.00,-95.00,-89.00,-69.00,-93.00,-92.00,1.00
-93.00,-96.00,-85.00,-59.00,-96.00,-96.00,-59.00,1.00
-94.00,-96.00,-96.00,-58.00,-96.00,-94.00,-96.00,1.00
-89.00,-93.00,-96.00,-56.00,-96.00,-92.00,-96.00,1.00
-89.00,-93.00,-86.00,-59.00,-96.00,-86.00,-89.00,1.00
-90.00,-96.00,-81.00,-54.00,-88.00,-95.00,-95.00,1.00
-96.00,-96.00,-77.00,-52.00,-86.00,-86.00,-52.00,1.00
-91.00,-90.00,-78.00,-52.00,-96.00,-88.00,-96.00,1.00
-91.00,-96.00,-75.00,-55.00,-96.00,-96.00,-91.00,1.00
-86.00,-86.00,-75.00,-54.00,-96.00,-89.00,-75.00,1.00
-85.00,-92.00,-76.00,-51.00,-88.00,-76.00,1.00
-93.00,-91.00,-76.00,-55.00,-96.00,-96.00,-93.00,1.00
-87.00,-86.00,-76.00,-52.00,-86.00,-88.00,-52.00,1.00
-87.00,-91.00,-76.00,-55.00,-88.00,-88.00,-76.00,1.00
-86.00,-96.00,-80.00,-55.00,-88.00,-88.00,-88.00,1.00
-93.00,-86.00,-76.00,-57.00,-92.00,-90.00,-57.00,1.00
-96.00,-94.00,-92.00,-58.00,-94.00,-92.00,-92.00,1.00
-85.00,-95.00,-83.00,-61.00,-89.00,-91.00,-83.00,1.00
-86.00,-86.00,-83.00,-53.00,-86.00,-93.00,-86.00,1.00
-89.00,-95.00,-81.00,-52.00,-96.00,-91.00,-96.00,1.00
-94.00,-86.00,-83.00,-52.00,-95.00,-89.00,-94.00,1.00
-86.00,-92.00,-72.00,-52.00,-96.00,-89.00,-86.00,1.00
-88.00,-96.00,-85.00,-52.00,-90.00,-90.00,-96.00,1.00
-92.00,-91.00,-77.00,-59.00,-90.00,-90.00,-92.00,1.00
-86.00,-91.00,-78.00,-56.00,-92.00,-96.00,-86.00,1.00
-91.00,-96.00,-79.00,-53.00,-96.00,-92.00,-91.00,1.00
-89.00,-91.00,-77.00,-52.00,-86.00,-86.00,-86.00,1.00
-86.00,-91.00,-81.00,-59.00,-92.00,-92.00,-91.00,1.00
-96.00,-96.00,-75.00,-57.00,-96.00,-86.00,-96.00,1.00
-92.00,-96.00,-80.00,-64.00,-89.00,-96.00,-80.00,1.00
-90.00,-90.00,-73.00,-61.00,-86.00,-93.00,-86.00,1.00
-91.00,-85.00,-82.00,-79.00,-83.00,-85.00,-79.00,2.00
-90.00,-86.00,-94.00,-91.00,-84.00,-93.00,-86.00,2.00
-86.00,-91.00,-92.00,-90.00,-79.00,-76.00,-90.00,2.00
-91.00,-88.00,-86.00,-82.00,-71.00,-75.00,-91.00,2.00
-94.00,-85.00,-94.00,-86.00,-76.00,-76.00,-76.00,2.00
-86.00,-88.00,-86.00,-86.00,-72.00,-68.00,-88.00,2.00
-93.00,-84.00,-96.00,-88.00,-73.00,-68.00,-93.00,2.00
-93.00,-89.00,-96.00,-89.00,-70.00,-69.00,-69.00,2.00
-96.00,-85.00,-96.00,-86.00,-68.00,-69.00,-69.00,2.00
-96.00,-88.00,-95.00,-86.00,-70.00,-69.00,-70.00,2.00
-95.00,-87.00,-92.00,-86.00,-69.00,-70.00,-95.00,2.00
-86.00,-87.00,-86.00,-86.00,-67.00,-69.00,-86.00,2.00
-95.00,-87.00,-91.00,-88.00,-70.00,-68.00,-88.00,2.00
-86.00,-88.00,-86.00,-87.00,-70.00,-67.00,-86.00,2.00
-96.00,-87.00,-96.00,-87.00,-69.00,-68.00,-96.00,2.00
-96.00,-84.00,-90.00,-87.00,-71.00,-70.00,-90.00,2.00
-96.00,-91.00,-96.00,-86.00,-68.00,-70.00,-96.00,2.00
-92.00,-82.00,-86.00,-87.00,-70.00,-70.00,-87.00,2.00
-96.00,-90.00,-94.00,-87.00,-69.00,-69.00,-96.00,2.00
-94.00,-85.00,-96.00,-88.00,-70.00,-67.00,-67.00,2.00
-93.00,-90.00,-90.00,-88.00,-70.00,-69.00,-88.00,2.00
-95.00,-90.00,-86.00,-87.00,-68.00,-67.00,-68.00,2.00
-96.00,-84.00,-90.00,-86.00,-69.00,-67.00,-90.00,2.00
-96.00,-86.00,-86.00,-88.00,-69.00,-68.00,-96.00,2.00
-94.00,-84.00,-90.00,-86.00,-68.00,-67.00,-68.00,2.00
-93.00,-88.00,-96.00,-88.00,-69.00,-69.00,-93.00,2.00
-96.00,-92.00,-95.00,-88.00,-69.00,-69.00,-69.00,2.00
-96.00,-86.00,-86.00,-86.00,-70.00,-67.00,-86.00,2.00
-94.00,-90.00,-94.00,-88.00,-68.00,-68.00,-94.00,2.00
-96.00,-84.00,-96.00,-87.00,-70.00,-68.00,-84.00,2.00
-96.00,-86.00,-86.00,-88.00,-67.00,-67.00,-67.00,2.00
-96.00,-89.00,-94.00,-88.00,-69.00,-70.00,-89.00,2.00
-96.00,-83.00,-94.00,-88.00,-70.00,-69.00,-70.00,2.00
-96.00,-84.00,-96.00,-87.00,-70.00,-70.00,-87.00,2.00
-96.00,-86.00,-94.00,-86.00,-70.00,-67.00,-94.00,2.00
-93.00,-85.00,-94.00,-88.00,-68.00,-69.00,-88.00,2.00
-96.00,-89.00,-86.00,-88.00,-68.00,-69.00,-96.00,2.00
-95.00,-86.00,-90.00,-87.00,-69.00,-69.00,-86.00,2.00
-96.00,-83.00,-86.00,-86.00,-69.00,-69.00,-86.00,2.00
-96.00,-84.00,-86.00,-87.00,-69.00,-67.00,-96.00,2.00
-95.00,-85.00,-94.00,-85.00,-70.00,-67.00,-85.00,2.00
-94.00,-89.00,-90.00,-87.00,-68.00,-69.00,-90.00,2.00
-93.00,-89.00,-86.00,-86.00,-68.00,-69.00,-68.00,2.00
-93.00,-84.00,-90.00,-88.00,-70.00,-70.00,-70.00,2.00
-96.00,-82.00,-90.00,-86.00,-69.00,-69.00,-86.00,2.00
-96.00,-89.00,-90.00,-88.00,-68.00,-70.00,-70.00,2.00
-96.00,-85.00,-86.00,-88.00,-70.00,-69.00,-86.00,2.00
-96.00,-91.00,-90.00,-87.00,-69.00,-70.00,-70.00,2.00
-96.00,-89.00,-91.00,-87.00,-70.00,-68.00,-96.00,2.00
-86.00,-85.00,-90.00,-88.00,-69.00,-68.00,-90.00,2.00
-94.00,-89.00,-90.00,-88.00,-69.00,-68.00,-94.00,2.00
-93.00,-84.00,-86.00,-88.00,-70.00,-69.00,-70.00,2.00
-96.00,-83.00,-96.00,-88.00,-69.00,-70.00,-88.00,2.00
-93.00,-89.00,-95.00,-87.00,-69.00,-70.00,-69.00,2.00
-96.00,-92.00,-90.00,-88.00,-69.00,-68.00,-90.00,2.00
-94.00,-86.00,-90.00,-87.00,-68.00,-67.00,-90.00,2.00
-96.00,-85.00,-89.00,-87.00,-70.00,-68.00,-85.00,2.00
-94.00,-84.00,-86.00,-86.00,-70.00,-69.00,-69.00,2.00
-92.00,-88.00,-96.00,-86.00,-69.00,-68.00,-96.00,2.00
-96.00,-88.00,-90.00,-88.00,-70.00,-70.00,-70.00,2.00
-86.00,-85.00,-86.00,-88.00,-69.00,-67.00,-88.00,2.00
-96.00,-87.00,-91.00,-87.00,-70.00,-69.00,-96.00,2.00
-93.00,-90.00,-96.00,-87.00,-70.00,-70.00,-90.00,2.00
-86.00,-89.00,-86.00,-88.00,-69.00,-70.00,-70.00,2.00
-86.00,-88.00,-91.00,-86.00,-69.00,-69.00,-91.00,2.00
-93.00,-85.00,-90.00,-87.00,-70.00,-69.00,-87.00,2.00
-96.00,-85.00,-95.00,-86.00,-69.00,-68.00,-95.00,2.00
-93.00,-91.00,-86.00,-86.00,-70.00,-67.00,-86.00,2.00
-86.00,-86.00,-86.00,-86.00,-70.00,-67.00,-67.00,2.00
-93.00,-85.00,-90.00,-88.00,-69.00,-67.00,-85.00,2.00
-86.00,-88.00,-90.00,-87.00,-69.00,-68.00,-87.00,2.00
-94.00,-89.00,-91.00,-88.00,-68.00,-70.00,-94.00,2.00
-86.00,-88.00,-86.00,-87.00,-70.00,-69.00,-88.00,2.00
-96.00,-84.00,-96.00,-88.00,-70.00,-68.00,-68.00,2.00
-96.00,-86.00,-90.00,-86.00,-68.00,-68.00,-90.00,2.00
-96.00,-89.00,-86.00,-87.00,-69.00,-69.00,-87.00,2.00
-94.00,-92.00,-91.00,-88.00,-68.00,-70.00,-70.00,2.00
-86.00,-85.00,-91.00,-88.00,-70.00,-70.00,-91.00,2.00
-93.00,-90.00,-90.00,-87.00,-68.00,-68.00,-90.00,2.00
-92.00,-85.00,-91.00,-88.00,-68.00,-68.00,-68.00,2.00
-86.00,-84.00,-95.00,-87.00,-69.00,-69.00,-69.00,2.00
-96.00,-84.00,-90.00,-87.00,-68.00,-68.00,-87.00,2.00
-94.00,-86.00,-90.00,-88.00,-69.00,-69.00,-86.00,2.00
-96.00,-86.00,-95.00,-88.00,-68.00,-69.00,-86.00,2.00
-96.00,-85.00,-91.00,-88.00,-70.00,-69.00,-85.00,2.00
-94.00,-85.00,-96.00,-87.00,-70.00,-70.00,-94.00,2.00
-86.00,-88.00,-96.00,-87.00,-68.00,-69.00,-68.00,2.00
-96.00,-88.00,-90.00,-87.00,-70.00,-69.00,-70.00,2.00
-86.00,-88.00,-90.00,-88.00,-70.00,-69.00,-90.00,2.00
-93.00,-86.00,-96.00,-88.00,-69.00,-70.00,-96.00,2.00
-96.00,-91.00,-91.00,-87.00,-68.00,-69.00,-69.00,2.00
-96.00,-82.00,-86.00,-88.00,-69.00,-69.00,-69.00,2.00
-95.00,-86.00,-94.00,-87.00,-69.00,-70.00,-69.00,2.00
-96.00,-86.00,-86.00,-86.00,-70.00,-69.00,-70.00,2.00
-96.00,-86.00,-96.00,-88.00,-69.00,-70.00,-96.00,2.00
-93.00,-85.00,-96.00,-86.00,-68.00,-67.00,-85.00,2.00
-93.00,-88.00,-96.00,-87.00,-70.00,-69.00,-93.00,2.00
-86.00,-90.00,-91.00,-87.00,-70.00,-68.00,-68.00,2.00
-94.00,-89.00,-91.00,-88.00,-68.00,-68.00,-89.00,2.00
-96.00,-86.00,-95.00,-86.00,-70.00,-67.00,-67.00,2.00
-86.00,-83.00,-96.00,-87.00,-69.00,-69.00,-87.00,2.00
-93.00,-89.00,-86.00,-87.00,-70.00,-69.00,-86.00,2.00
-94.00,-86.00,-95.00,-86.00,-67.00,-70.00,-67.00,2.00
-94.00,-88.00,-91.00,-87.00,-68.00,-70.00,-87.00,2.00
-94.00,-86.00,-90.00,-86.00,-67.00,-68.00,-86.00,2.00
-94.00,-90.00,-96.00,-87.00,-70.00,-68.00,-87.00,2.00
-94.00,-91.00,-91.00,-87.00,-67.00,-69.00,-91.00,2.00
-94.00,-89.00,-90.00,-87.00,-70.00,-68.00,-68.00,2.00
-93.00,-92.00,-96.00,-87.00,-70.00,-68.00,-92.00,2.00
-96.00,-86.00,-96.00,-88.00,-69.00,-70.00,-86.00,2.00
-86.00,-86.00,-96.00,-88.00,-69.00,-68.00,-86.00,2.00
-93.00,-89.00,-96.00,-88.00,-70.00,-69.00,-96.00,2.00
-96.00,-89.00,-96.00,-87.00,-70.00,-70.00,-96.00,2.00
-93.00,-87.00,-96.00,-87.00,-68.00,-70.00,-87.00,2.00
-93.00,-88.00,-96.00,-87.00,-68.00,-69.00,-87.00,2.00
-93.00,-89.00,-96.00,-86.00,-69.00,-69.00,-96.00,2.00
-86.00,-89.00,-90.00,-88.00,-68.00,-68.00,-88.00,2.00
-86.00,-89.00,-86.00,-87.00,-69.00,-69.00,-86.00,2.00
-96.00,-89.00,-91.00,-88.00,-69.00,-67.00,-67.00,2.00
-86.00,-89.00,-95.00,-88.00,-68.00,-68.00,-89.00,2.00
-92.00,-89.00,-96.00,-88.00,-70.00,-68.00,-96.00,2.00
-96.00,-85.00,-96.00,-88.00,-68.00,-67.00,-96.00,2.00
-96.00,-84.00,-96.00,-88.00,-68.00,-69.00,-84.00,2.00
-93.00,-87.00,-86.00,-88.00,-70.00,-69.00,-93.00,2.00
-96.00,-89.00,-96.00,-86.00,-69.00,-69.00,-96.00,2.00
-95.00,-88.00,-96.00,-87.00,-68.00,-69.00,-96.00,2.00
-94.00,-84.00,-86.00,-88.00,-70.00,-68.00,-70.00,2.00
-86.00,-83.00,-95.00,-87.00,-70.00,-69.00,-86.00,2.00
-96.00,-89.00,-95.00,-87.00,-68.00,-69.00,-69.00,2.00
-86.00,-90.00,-95.00,-89.00,-68.00,-69.00,-86.00,2.00
-92.00,-90.00,-94.00,-84.00,-67.00,-69.00,-94.00,2.00
-96.00,-88.00,-91.00,-89.00,-71.00,-68.00,-88.00,2.00
-96.00,-86.00,-92.00,-96.00,-81.00,-72.00,-86.00,2.00
-86.00,-86.00,-93.00,-91.00,-80.00,-55.00,-91.00,2.00
-92.00,-91.00,-88.00,-89.00,-81.00,-68.00,-81.00,2.00
-91.00,-85.00,-95.00,-86.00,-80.00,-64.00,-86.00,2.00
-92.00,-86.00,-93.00,-95.00,-75.00,-66.00,-95.00,2.00
-93.00,-88.00,-90.00,-86.00,-79.00,-62.00,-88.00,2.00
-91.00,-92.00,-95.00,-86.00,-71.00,-61.00,-92.00,2.00
-86.00,-95.00,-87.00,-89.00,-69.00,-63.00,-86.00,2.00
-92.00,-86.00,-94.00,-95.00,-82.00,-71.00,-94.00,2.00
-88.00,-88.00,-91.00,-92.00,-84.00,-85.00,-92.00,0.00
-91.00,-85.00,-89.00,-82.00,-86.00,-86.00,-89.00,0.00
-96.00,-86.00,-85.00,-92.00,-81.00,-94.00,-85.00,0.00
-71.00,-78.00,-89.00,-86.00,-86.00,-93.00,-86.00,0.00
-74.00,-71.00,-96.00,-96.00,-90.00,-93.00,-90.00,0.00
-67.00,-66.00,-96.00,-94.00,-94.00,-86.00,-66.00,0.00
-64.00,-71.00,-96.00,-96.00,-88.00,-96.00,-88.00,0.00
-66.00,-73.00,-96.00,-96.00,-93.00,-92.00,-93.00,0.00
-65.00,-72.00,-96.00,-95.00,-96.00,-94.00,-96.00,0.00
-68.00,-65.00,-96.00,-92.00,-96.00,-86.00,-96.00,0.00
-65.00,-70.00,-96.00,-92.00,-86.00,-91.00,-96.00,0.00
-73.00,-72.00,-96.00,-95.00,-89.00,-91.00,-72.00,0.00
-70.00,-68.00,-95.00,-93.00,-86.00,-93.00,-95.00,0.00
-66.00,-69.00,-96.00,-92.00,-94.00,-96.00,-66.00,0.00
-65.00,-67.00,-86.00,-93.00,-94.00,-93.00,0.00
-65.00,-69.00,-96.00,-86.00,-94.00,-65.00,0.00
-64.00,-68.00,-91.00,-88.00,-96.00,-64.00,0.00
-64.00,-70.00,-95.00,-92.00,-86.00,-86.00,-86.00,0.00
-73.00,-70.00,-93.00,-81.00,-89.00,-86.00,-73.00,0.00
-71.00,-71.00,-86.00,-82.00,-89.00,-88.00,-71.00,0.00
-66.00,-63.00,-86.00,-81.00,-85.00,-87.00,-81.00,0.00
-68.00,-69.00,-84.00,-82.00,-85.00,-87.00,-85.00,0.00
-71.00,-64.00,-85.00,-89.00,-85.00,-87.00,-71.00,0.00
-67.00,-66.00,-86.00,-89.00,-84.00,-87.00,-89.00,0.00
-68.00,-67.00,-85.00,-91.00,-84.00,-81.00,-84.00,0.00
-65.00,-66.00,-86.00,-82.00,-84.00,-87.00,-66.00,0.00
-64.00,-66.00,-88.00,-81.00,-88.00,-87.00,-64.00,0.00
-73.00,-71.00,-88.00,-82.00,-85.00,-84.00,-84.00,0.00
-72.00,-70.00,-96.00,-82.00,-88.00,-86.00,-88.00,0.00
-70.00,-76.00,-92.00,-91.00,-93.00,-79.00,-79.00,0.00
-69.00,-71.00,-86.00,-78.00,-81.00,-84.00,-81.00,0.00
-73.00,-66.00,-93.00,-92.00,-85.00,-84.00,-84.00,0.00
-72.00,-66.00,-86.00,-78.00,-84.00,-82.00,-66.00,0.00
-66.00,-66.00,-88.00,-83.00,-84.00,-82.00,-82.00,0.00
-64.00,-66.00,-85.00,-82.00,-84.00,-84.00,-84.00,0.00
-65.00,-66.00,-92.00,-81.00,-86.00,-85.00,-86.00,0.00
-72.00,-69.00,-86.00,-82.00,-86.00,-86.00,-82.00,0.00
-72.00,-69.00,-94.00,-83.00,-85.00,-83.00,-69.00,0.00
-65.00,-64.00,-92.00,-81.00,-84.00,-82.00,-65.00,0.00
-65.00,-66.00,-84.00,-82.00,-85.00,-83.00,-65.00,0.00
-64.00,-66.00,-83.00,-82.00,-85.00,-83.00,-83.00,0.00
-65.00,-66.00,-92.00,-82.00,-86.00,-85.00,-82.00,0.00
-72.00,-68.00,-84.00,-81.00,-85.00,-83.00,-84.00,0.00
-65.00,-69.00,-94.00,-82.00,-87.00,-85.00,-87.00,0.00
-71.00,-66.00,-86.00,-81.00,-83.00,-84.00,-83.00,0.00
-66.00,-66.00,-85.00,-83.00,-87.00,-84.00,-66.00,0.00
-65.00,-64.00,-83.00,-83.00,-86.00,-83.00,-86.00,0.00
-73.00,-66.00,-86.00,-95.00,-86.00,-86.00,-95.00,0.00
-67.00,-64.00,-84.00,-81.00,-86.00,-84.00,-81.00,0.00
-66.00,-64.00,-92.00,-83.00,-84.00,-83.00,-84.00,0.00
-66.00,-66.00,-86.00,-81.00,-85.00,-82.00,-81.00,0.00
-66.00,-66.00,-86.00,-82.00,-83.00,-84.00,-66.00,0.00
-65.00,-68.00,-84.00,-95.00,-84.00,-84.00,-65.00,0.00
-66.00,-69.00,-93.00,-81.00,-86.00,-86.00,-69.00,0.00
-69.00,-66.00,-86.00,-82.00,-83.00,-84.00,-82.00,0.00
-66.00,-66.00,-86.00,-81.00,-87.00,-86.00,-66.00,0.00
-65.00,-65.00,-88.00,-91.00,-87.00,-80.00,-80.00,0.00
-72.00,-64.00,-89.00,-83.00,-85.00,-87.00,-87.00,0.00
-72.00,-69.00,-92.00,-81.00,-86.00,-85.00,-92.00,0.00
-66.00,-66.00,-85.00,-78.00,-83.00,-86.00,-66.00,0.00
-65.00,-66.00,-84.00,-81.00,-85.00,-87.00,-84.00,0.00
-72.00,-64.00,-86.00,-81.00,-82.00,-81.00,-64.00,0.00
-72.00,-64.00,-96.00,-80.00,-82.00,-87.00,-80.00,0.00
-66.00,-65.00,-91.00,-81.00,-82.00,-81.00,-81.00,0.00
-66.00,-69.00,-91.00,-81.00,-86.00,-86.00,-66.00,0.00
-64.00,-66.00,-84.00,-81.00,-86.00,-87.00,-86.00,0.00
-65.00,-69.00,-86.00,-82.00,-85.00,-87.00,-85.00,0.00
-65.00,-64.00,-85.00,-82.00,-86.00,-88.00,-82.00,0.00
-64.00,-66.00,-91.00,-82.00,-84.00,-87.00,-91.00,0.00
-66.00,-64.00,-85.00,-78.00,-84.00,-87.00,-85.00,0.00
-72.00,-64.00,-91.00,-81.00,-85.00,-81.00,-85.00,0.00
-66.00,-66.00,-85.00,-82.00,-85.00,-86.00,-82.00,0.00
-66.00,-69.00,-91.00,-81.00,-86.00,-87.00,-91.00,0.00
-72.00,-69.00,-90.00,-81.00,-86.00,-81.00,-81.00,0.00
-70.00,-66.00,-91.00,-81.00,-86.00,-83.00,-81.00,0.00
-72.00,-66.00,-86.00,-78.00,-85.00,-81.00,-78.00,0.00
-66.00,-69.00,-91.00,-82.00,-86.00,-87.00,-66.00,0.00
-72.00,-66.00,-90.00,-81.00,-83.00,-87.00,-66.00,0.00
-66.00,-68.00,-85.00,-81.00,-85.00,-86.00,-68.00,0.00
-66.00,-66.00,-84.00,-82.00,-87.00,-87.00,-66.00,0.00
-66.00,-64.00,-85.00,-81.00,-86.00,-86.00,-86.00,0.00
-65.00,-66.00,-85.00,-81.00,-85.00,-87.00,-66.00,0.00
-72.00,-66.00,-91.00,-82.00,-85.00,-86.00,-91.00,0.00
-64.00,-68.00,-83.00,-81.00,-85.00,-82.00,-82.00,0.00
-72.00,-65.00,-86.00,-82.00,-85.00,-81.00,-72.00,0.00
-65.00,-64.00,-86.00,-82.00,-84.00,-86.00,-64.00,0.00
-65.00,-69.00,-90.00,-81.00,-85.00,-87.00,-69.00,0.00
-65.00,-66.00,-84.00,-78.00,-85.00,-82.00,-78.00,0.00
-66.00,-66.00,-91.00,-78.00,-86.00,-87.00,-66.00,0.00
-65.00,-68.00,-91.00,-82.00,-85.00,-82.00,-82.00,0.00
-70.00,-64.00,-86.00,-82.00,-85.00,-82.00,-82.00,0.00
-65.00,-69.00,-91.00,-82.00,-87.00,-88.00,-65.00,0.00
-64.00,-69.00,-85.00,-81.00,-85.00,-86.00,-85.00,0.00
-65.00,-66.00,-91.00,-82.00,-84.00,-85.00,-65.00,0.00
-65.00,-68.00,-84.00,-81.00,-85.00,-86.00,-68.00,0.00
-65.00,-66.00,-84.00,-81.00,-86.00,-87.00,-86.00,0.00
-72.00,-68.00,-85.00,-81.00,-85.00,-87.00,-85.00,0.00
-72.00,-69.00,-91.00,-82.00,-84.00,-82.00,-69.00,0.00
-64.00,-69.00,-84.00,-81.00,-85.00,-85.00,-85.00,0.00
-65.00,-69.00,-91.00,-81.00,-83.00,-82.00,-82.00,0.00
-65.00,-64.00,-84.00,-80.00,-85.00,-85.00,-85.00,0.00
-65.00,-69.00,-85.00,-82.00,-85.00,-86.00,-82.00,0.00
-70.00,-66.00,-90.00,-81.00,-86.00,-82.00,-81.00,0.00
-65.00,-66.00,-96.00,-81.00,-86.00,-82.00,-86.00,0.00
-65.00,-64.00,-96.00,-78.00,-86.00,-86.00,-64.00,0.00
-70.00,-64.00,-85.00,-81.00,-86.00,-87.00,-87.00,0.00
-70.00,-68.00,-86.00,-81.00,-84.00,-81.00,-81.00,0.00
-65.00,-66.00,-83.00,-82.00,-85.00,-81.00,-85.00,0.00
-65.00,-66.00,-85.00,-81.00,-85.00,-82.00,-66.00,0.00
-65.00,-69.00,-84.00,-82.00,-84.00,-86.00,-84.00,0.00
-72.00,-66.00,-96.00,-81.00,-85.00,-82.00,-66.00,0.00
-65.00,-64.00,-83.00,-81.00,-82.00,-85.00,-81.00,0.00
-64.00,-69.00,-85.00,-78.00,-83.00,-86.00,-83.00,0.00
-72.00,-69.00,-85.00,-82.00,-86.00,-87.00,-85.00,0.00
-65.00,-69.00,-84.00,-82.00,-84.00,-82.00,-82.00,0.00
-66.00,-69.00,-91.00,-80.00,-86.00,-82.00,-66.00,0.00
-67.00,-66.00,-85.00,-78.00,-85.00,-87.00,-87.00,0.00
-65.00,-69.00,-86.00,-82.00,-86.00,-86.00,-82.00,0.00
-65.00,-66.00,-90.00,-82.00,-85.00,-82.00,-82.00,0.00
-65.00,-66.00,-91.00,-82.00,-83.00,-84.00,-65.00,0.00
-64.00,-66.00,-86.00,-81.00,-85.00,-87.00,-66.00,0.00
-65.00,-68.00,-86.00,-81.00,-86.00,-80.00,-81.00,0.00
-72.00,-66.00,-96.00,-83.00,-87.00,-89.00,-87.00,0.00
-66.00,-68.00,-89.00,-78.00,-84.00,-88.00,-84.00,0.00
-67.00,-69.00,-92.00,-81.00,-85.00,-83.00,-85.00,0.00
-66.00,-66.00,-86.00,-81.00,-85.00,-88.00,-88.00,0.00
-70.00,-66.00,-93.00,-81.00,-87.00,-86.00,-81.00,0.00
-65.00,-64.00,-86.00,-80.00,-86.00,-81.00,-64.00,0.00
-72.00,-68.00,-86.00,-82.00,-84.00,-84.00,-72.00,0.00
-65.00,-68.00,-86.00,-82.00,-83.00,-84.00,-65.00,0.00
-65.00,-66.00,-86.00,-82.00,-84.00,-83.00,-82.00,0.00
-65.00,-66.00,-86.00,-81.00,-85.00,-83.00,-65.00,0.00
-63.00,-70.00,-87.00,-92.00,-85.00,-83.00,-92.00,0.00
-72.00,-69.00,-88.00,-81.00,-85.00,-85.00,-88.00,0.00
-65.00,-70.00,-84.00,-81.00,-87.00,-92.00,-92.00,0.00
-65.00,-71.00,-95.00,-81.00,-87.00,-84.00,-81.00,0.00
-72.00,-66.00,-84.00,-79.00,-83.00,-83.00,-79.00,0.00
-65.00,-71.00,-86.00,-81.00,-89.00,-84.00,-65.00,0.00
-66.00,-64.00,-96.00,-96.00,-87.00,-85.00,-96.00,0.00
-71.00,-70.00,-89.00,-79.00,-85.00,-83.00,-89.00,0.00
-65.00,-66.00,-83.00,-81.00,-84.00,-85.00,-83.00,0.00
-65.00,-66.00,-90.00,-82.00,-86.00,-84.00,-84.00,0.00
-71.00,-67.00,-86.00,-81.00,-84.00,-83.00,-81.00,0.00
-71.00,-71.00,-86.00,-79.00,-89.00,-83.00,-79.00,0.00
-65.00,-64.00,-83.00,-81.00,-83.00,-83.00,-83.00,0.00
-72.00,-64.00,-84.00,-79.00,-84.00,-83.00,-64.00,0.00
-65.00,-67.00,-90.00,-96.00,-88.00,-91.00,-88.00,0.00
-72.00,-71.00,-86.00,-82.00,-84.00,-86.00,-71.00,0.00
-65.00,-71.00,-90.00,-96.00,-88.00,-92.00,-65.00,0.00
-65.00,-65.00,-89.00,-81.00,-83.00,-83.00,-65.00,0.00
-65.00,-64.00,-85.00,-82.00,-86.00,-84.00,-82.00,0.00
-64.00,-66.00,-85.00,-81.00,-84.00,-89.00,-84.00,0.00
-73.00,-67.00,-89.00,-82.00,-84.00,-84.00,-84.00,0.00
-73.00,-66.00,-85.00,-96.00,-84.00,-89.00,-96.00,0.00
-73.00,-66.00,-96.00,-81.00,-83.00,-84.00,-66.00,0.00
-73.00,-67.00,-96.00,-82.00,-87.00,-84.00,-73.00,0.00
-73.00,-67.00,-84.00,-79.00,-85.00,-83.00,-67.00,0.00
-65.00,-64.00,-86.00,-82.00,-85.00,-84.00,-82.00,0.00
-64.00,-71.00,-89.00,-82.00,-88.00,-84.00,-71.00,0.00
-65.00,-66.00,-89.00,-81.00,-84.00,-85.00,-65.00,0.00
-65.00,-71.00,-85.00,-96.00,-84.00,-85.00,-85.00,0.00
-73.00,-71.00,-85.00,-81.00,-86.00,-85.00,-85.00,0.00
-65.00,-71.00,-96.00,-82.00,-86.00,-84.00,-65.00,0.00
-73.00,-66.00,-85.00,-81.00,-89.00,-83.00,-81.00,0.00
-71.00,-66.00,-84.00,-81.00,-88.00,-84.00,-88.00,0.00
-64.00,-71.00,-85.00,-81.00,-84.00,-86.00,-85.00,0.00
-65.00,-65.00,-85.00,-81.00,-91.00,-90.00,-65.00,0.00
-65.00,-65.00,-85.00,-79.00,-83.00,-86.00,-85.00,0.00
-65.00,-67.00,-96.00,-81.00,-86.00,-84.00,-84.00,0.00
-65.00,-66.00,-84.00,-96.00,-88.00,-83.00,-83.00,0.00
-65.00,-70.00,-85.00,-81.00,-86.00,-90.00,-90.00,0.00
-65.00,-71.00,-96.00,-82.00,-84.00,-84.00,-84.00,0.00
-65.00,-71.00,-89.00,-82.00,-86.00,-84.00,-71.00,0.00
-64.00,-66.00,-89.00,-82.00,-84.00,-90.00,-82.00,0.00
-65.00,-67.00,-89.00,-79.00,-83.00,-90.00,-89.00,0.00
-73.00,-71.00,-96.00,-81.00,-84.00,-83.00,-73.00,0.00
-65.00,-67.00,-85.00,-81.00,-84.00,-84.00,-84.00,0.00
-73.00,-71.00,-86.00,-96.00,-86.00,-83.00,-86.00,0.00
-65.00,-67.00,-85.00,-81.00,-84.00,-84.00,-65.00,0.00
-73.00,-69.00,-89.00,-81.00,-84.00,-85.00,-69.00,0.00
-65.00,-71.00,-86.00,-96.00,-86.00,-91.00,-91.00,0.00
-65.00,-71.00,-85.00,-78.00,-86.00,-83.00,-86.00,0.00
-72.00,-66.00,-85.00,-81.00,-84.00,-85.00,-85.00,0.00
-65.00,-65.00,-85.00,-79.00,-87.00,-83.00,-65.00,0.00
-73.00,-66.00,-84.00,-81.00,-84.00,-84.00,-84.00,0.00
-65.00,-66.00,-85.00,-79.00,-84.00,-82.00,-85.00,0.00
-65.00,-71.00,-89.00,-82.00,-87.00,-91.00,-87.00,0.00
-64.00,-69.00,-89.00,-82.00,-83.00,-90.00,-83.00,0.00
-73.00,-65.00,-89.00,-79.00,-84.00,-85.00,-89.00,0.00
-73.00,-71.00,-89.00,-80.00,-88.00,-84.00,-71.00,0.00
-65.00,-71.00,-89.00,-83.00,-85.00,-84.00,-84.00,0.00
-64.00,-71.00,-89.00,-81.00,-85.00,-90.00,-90.00,0.00
-65.00,-71.00,-85.00,-79.00,-84.00,-90.00,-84.00,0.00
-65.00,-66.00,-85.00,-81.00,-86.00,-83.00,-65.00,0.00
-71.00,-65.00,-84.00,-81.00,-85.00,-86.00,-81.00,0.00
-73.00,-69.00,-86.00,-81.00,-84.00,-84.00,-73.00,0.00
-65.00,-66.00,-85.00,-81.00,-85.00,-84.00,-81.00,0.00
-65.00,-69.00,-85.00,-81.00,-86.00,-84.00,-81.00,0.00
-71.00,-66.00,-86.00,-81.00,-84.00,-90.00,-71.00,0.00
-64.00,-66.00,-89.00,-96.00,-86.00,-90.00,-96.00,0.00
-65.00,-66.00,-89.00,-83.00,-87.00,-85.00,-87.00,0.00
-65.00,-67.00,-85.00,-81.00,-87.00,-85.00,-85.00,0.00
-73.00,-71.00,-88.00,-78.00,-84.00,-85.00,-84.00,0.00
-73.00,-65.00,-85.00,-81.00,-83.00,-90.00,-90.00,0.00
-65.00,-67.00,-96.00,-79.00,-87.00,-83.00,-65.00,0.00
-65.00,-66.00,-96.00,-81.00,-87.00,-85.00,-87.00,0.00
-73.00,-66.00,-96.00,-81.00,-86.00,-86.00,-81.00,0.00
-65.00,-66.00,-89.00,-79.00,-83.00,-84.00,-66.00,0.00
-71.00,-66.00,-84.00,-82.00,-86.00,-84.00,-86.00,0.00
-73.00,-66.00,-89.00,-81.00,-83.00,-84.00,-73.00,0.00
-65.00,-66.00,-84.00,-81.00,-86.00,-84.00,-65.00,0.00
-65.00,-66.00,-96.00,-83.00,-87.00,-84.00,-87.00,0.00
-65.00,-70.00,-85.00,-83.00,-87.00,-86.00,-65.00,0.00
-73.00,-67.00,-85.00,-78.00,-84.00,-91.00,-84.00,0.00
-65.00,-66.00,-85.00,-81.00,-85.00,-86.00,-85.00,0.00
-65.00,-67.00,-85.00,-82.00,-85.00,-86.00,-86.00,0.00
-65.00,-69.00,-96.00,-81.00,-84.00,-86.00,-69.00,0.00
-65.00,-66.00,-90.00,-79.00,-87.00,-84.00,-90.00,0.00
-71.00,-69.00,-90.00,-79.00,-88.00,-90.00,-69.00,0.00
-65.00,-66.00,-84.00,-81.00,-86.00,-86.00,-86.00,0.00
-65.00,-66.00,-83.00,-81.00,-87.00,-84.00,-87.00,0.00
-71.00,-70.00,-96.00,-81.00,-86.00,-85.00,-86.00,0.00
-65.00,-67.00,-86.00,-81.00,-88.00,-84.00,-81.00,0.00
-73.00,-70.00,-85.00,-81.00,-87.00,-84.00,-87.00,0.00
-72.00,-66.00,-90.00,-81.00,-84.00,-84.00,-72.00,0.00
