%!PS-Adobe-3.0 EPSF-3.0
%%DocumentNeededResources: font Helvetica
%%+ font Helvetica-Bold
%%+ font Helvetica-Oblique
%%+ font Helvetica-BoldOblique
%%+ font Symbol
%%Title: R Graphics Output
%%Creator: R Software
%%Pages: (atend)
%%BoundingBox: 0 0 433 193
%%EndComments
%%BeginProlog
/bp  { gs sRGB gs } def
% begin .ps.prolog
/gs  { gsave } bind def
/gr  { grestore } bind def
/ep  { showpage gr gr } bind def
/m   { moveto } bind def
/l  { rlineto } bind def
/np  { newpath } bind def
/cp  { closepath } bind def
/f   { fill } bind def
/o   { stroke } bind def
/c   { newpath 0 360 arc } bind def
/r   { 4 2 roll moveto 1 copy 3 -1 roll exch 0 exch rlineto 0 rlineto -1 mul 0 exch rlineto closepath } bind def
/p1  { stroke } bind def
/p2  { gsave bg fill grestore newpath } bind def
/p3  { gsave bg fill grestore stroke } bind def
/p6  { gsave bg eofill grestore newpath } bind def
/p7  { gsave bg eofill grestore stroke } bind def
/t   { 5 -2 roll moveto gsave rotate
       1 index stringwidth pop
       mul neg 0 rmoveto show grestore } bind def
/ta  { 4 -2 roll moveto gsave rotate show } bind def
/tb  { 2 -1 roll 0 rmoveto show } bind def
/cl  { grestore gsave newpath 3 index 3 index moveto 1 index
       4 -1 roll lineto  exch 1 index lineto lineto
       closepath clip newpath } bind def
/rgb { setrgbcolor } bind def
/s   { scalefont setfont } bind def
% end   .ps.prolog
/sRGB { [ /CIEBasedABC
          << /DecodeLMN
               [ { dup 0.03928 le
                        {12.92321 div}
                        {0.055 add 1.055 div 2.4 exp }
                     ifelse
                 } bind dup dup
               ]
             /MatrixLMN [0.412457 0.212673 0.019334
                         0.357576 0.715152 0.119192
                         0.180437 0.072175 0.950301]
             /WhitePoint [0.9505 1.0 1.0890]
           >>
         ] setcolorspace } bind def
/srgb { setcolor } bind def
%%IncludeResource: font Helvetica
/Helvetica findfont
dup length dict begin
  {1 index /FID ne {def} {pop pop} ifelse} forall
  /Encoding ISOLatin1Encoding def
  currentdict
  end
/Font1 exch definefont pop
%%IncludeResource: font Helvetica-Bold
/Helvetica-Bold findfont
dup length dict begin
  {1 index /FID ne {def} {pop pop} ifelse} forall
  /Encoding ISOLatin1Encoding def
  currentdict
  end
/Font2 exch definefont pop
%%IncludeResource: font Helvetica-Oblique
/Helvetica-Oblique findfont
dup length dict begin
  {1 index /FID ne {def} {pop pop} ifelse} forall
  /Encoding ISOLatin1Encoding def
  currentdict
  end
/Font3 exch definefont pop
%%IncludeResource: font Helvetica-BoldOblique
/Helvetica-BoldOblique findfont
dup length dict begin
  {1 index /FID ne {def} {pop pop} ifelse} forall
  /Encoding ISOLatin1Encoding def
  currentdict
  end
/Font4 exch definefont pop
%%IncludeResource: font Symbol
/Symbol findfont
dup length dict begin
  {1 index /FID ne {def} {pop pop} ifelse} forall
  currentdict
  end
/Font5 exch definefont pop
%%EndProlog
%%Page: 1 1
bp
0.00 0.00 433.00 193.00 cl
0.00 0.00 433.00 193.00 cl
0.00 0.00 433.00 193.00 cl
/bg { 1 1 1 srgb } def
1 1 1 srgb
1.06 setlinewidth
[] 0 setdash
1 setlinecap
1 setlinejoin
10.00 setmiterlimit
0.00 0.00 433.00 193.00 r p3
0.00 0.00 433.00 193.00 cl
0.00 0.00 433.00 193.00 cl
0.00 0.00 433.00 193.00 cl
35.66 37.28 418.60 178.60 cl
/bg { 0.8980 0.8980 0.8980 srgb } def
35.66 37.28 382.94 141.32 r p2
0.9490 0.9490 0.9490 srgb
0.53 setlinewidth
[] 0 setdash
0 setlinecap
1 setlinejoin
10.00 setmiterlimit
np
35.66 66.96 m
382.94 0 l
o
np
35.66 113.48 m
382.94 0 l
o
np
35.66 160.00 m
382.94 0 l
o
np
86.42 37.28 m
0 141.32 l
o
np
185.25 37.28 m
0 141.32 l
o
np
284.08 37.28 m
0 141.32 l
o
np
382.91 37.28 m
0 141.32 l
o
1 1 1 srgb
1.06 setlinewidth
[] 0 setdash
np
35.66 43.71 m
382.94 0 l
o
np
35.66 90.22 m
382.94 0 l
o
np
35.66 136.74 m
382.94 0 l
o
np
37.01 37.28 m
0 141.32 l
o
np
135.84 37.28 m
0 141.32 l
o
np
234.67 37.28 m
0 141.32 l
o
np
333.50 37.28 m
0 141.32 l
o
0 0 0 srgb
1 setlinecap
np
53.07 43.76 m
0.68 -0.01 l
0.68 -0.01 l
0.68 0.02 l
0.68 -0.01 l
0.69 -0.03 l
0.68 -0.01 l
0.68 0 l
0.68 0 l
0.68 0 l
0.68 0 l
0.68 0 l
0.68 0 l
0.69 0 l
0.68 0 l
0.68 0 l
0.68 0 l
0.68 0 l
0.68 0.01 l
0.68 0.03 l
0.68 0 l
0.69 -0.02 l
0.68 -0.02 l
0.68 0 l
0.68 0 l
0.68 0 l
0.68 0 l
0.68 0 l
0.68 0 l
0.69 0 l
0.68 0 l
0.68 0 l
0.68 0 l
0.68 0 l
0.68 0 l
0.68 0 l
0.68 0 l
0.69 0 l
0.68 0 l
0.68 0 l
0.68 0 l
0.68 0 l
0.68 0 l
0.68 0 l
0.68 0 l
0.69 0 l
0.68 0 l
0.68 0 l
0.68 0 l
0.68 0 l
0.68 0 l
0.68 0 l
0.68 0 l
0.69 0 l
0.68 0 l
0.68 0 l
0.68 0 l
0.68 0 l
0.68 0 l
0.68 0 l
0.68 0 l
0.69 0 l
0.68 0 l
0.68 0 l
0.68 0 l
0.68 0 l
0.68 0 l
0.68 0 l
0.68 0 l
0.69 0.02 l
0.68 0.03 l
0.68 -0.01 l
0.68 -0.03 l
0.68 -0.01 l
0.68 0 l
0.68 0 l
0.68 0 l
0.69 0 l
0.68 0 l
0.68 0 l
0.68 0 l
0.68 0 l
0.68 0 l
0.68 0 l
0.68 0 l
0.69 0 l
0.68 0 l
0.68 0 l
0.68 0 l
0.68 0 l
0.68 0 l
0.68 0 l
0.68 0 l
0.69 0 l
0.68 0 l
0.68 0 l
0.68 0 l
0.68 0 l
0.68 0 l
0.68 0 l
121.20 43.71 lineto
0.68 0 l
0.68 0.02 l
0.68 0.05 l
0.68 0.03 l
0.68 -0.04 l
0.68 -0.04 l
0.68 0.01 l
0.69 0.02 l
0.68 -0.02 l
0.68 -0.02 l
0.68 -0.01 l
0.68 0 l
0.68 0 l
0.68 0 l
0.68 0 l
0.69 0 l
0.68 0 l
0.68 0 l
0.68 0 l
0.68 0 l
0.68 0 l
0.68 0 l
0.68 0.02 l
0.69 0.05 l
0.68 0.01 l
0.68 -0.02 l
0.68 -0.04 l
0.68 -0.02 l
0.68 0 l
0.68 0 l
0.68 0.02 l
0.69 0.03 l
0.68 -0.01 l
0.68 -0.02 l
0.68 0 l
0.68 0.03 l
0.68 0.02 l
0.68 0 l
0.68 0 l
0.69 -0.01 l
0.68 -0.01 l
0.68 0 l
0.68 -0.01 l
0.68 -0.02 l
0.68 -0.02 l
0.68 0 l
0.68 0 l
0.69 0.02 l
0.68 0.02 l
0.68 0 l
0.68 -0.03 l
0.68 -0.01 l
0.68 0 l
0.68 0 l
0.68 0 l
0.69 0.01 l
0.68 0.02 l
0.68 0.01 l
0.68 0 l
0.68 0 l
0.68 0.01 l
0.68 0 l
0.68 0.01 l
0.69 0.01 l
0.68 -0.01 l
0.68 -0.01 l
0.68 -0.01 l
0.68 0.02 l
0.68 0.03 l
0.68 -0.02 l
0.68 -0.03 l
0.69 0.01 l
0.68 -0.01 l
0.68 -0.01 l
0.68 0.03 l
0.68 0.08 l
0.68 0.05 l
0.68 -0.04 l
0.68 -0.06 l
0.69 -0.04 l
0.68 0.02 l
0.68 0.06 l
0.68 0.03 l
0.68 -0.03 l
0.68 -0.02 l
0.68 0 l
0.68 -0.03 l
0.69 0.01 l
0.68 0.07 l
0.68 0.04 l
0.68 0 l
0.68 0.04 l
0.68 0.07 l
0.68 0.01 l
0.68 -0.07 l
0.69 -0.09 l
0.68 -0.01 l
0.68 0.08 l
0.68 0.10 l
189.32 44.00 lineto
0.68 -0.04 l
0.68 0.07 l
0.69 0.05 l
0.68 -0.07 l
0.68 -0.06 l
0.68 0.08 l
0.68 0.17 l
0.68 0.04 l
0.68 -0.14 l
0.68 -0.13 l
0.69 0 l
0.68 0.09 l
0.68 0.08 l
0.68 0.02 l
0.68 -0.01 l
0.68 -0.05 l
0.68 0.01 l
0.68 0.08 l
0.69 0.08 l
0.68 0.04 l
0.68 0.08 l
0.68 0.12 l
0.68 0.11 l
0.68 0.07 l
0.68 -0.05 l
0.68 -0.12 l
0.69 0 l
0.68 0.07 l
0.68 0.01 l
0.68 -0.08 l
0.68 -0.02 l
0.68 0.10 l
0.68 0.13 l
0.68 0.22 l
0.69 0.21 l
0.68 -0.12 l
0.68 -0.40 l
0.68 -0.20 l
0.68 0.20 l
0.68 0.38 l
0.68 0.20 l
0.68 0.03 l
0.69 0.14 l
0.68 0.25 l
0.68 0.16 l
0.68 0.15 l
0.68 0.85 l
0.68 2.23 l
0.68 1.56 l
0.68 -1.65 l
0.69 -1.59 l
0.68 -0.26 l
0.68 0.15 l
0.68 0.35 l
0.68 0.38 l
0.68 0.10 l
0.68 0 l
0.68 0.49 l
0.69 1.41 l
0.68 3.25 l
0.68 5.79 l
0.68 3.67 l
0.68 -2.23 l
0.68 0.51 l
0.68 13.76 l
0.68 47.14 l
0.69 50.32 l
0.68 -24.41 l
0.68 -53.48 l
0.68 -28.26 l
0.68 -8.47 l
0.68 0.42 l
0.68 10.99 l
0.68 11.80 l
0.69 -8.21 l
0.68 -15.15 l
0.68 -7.17 l
0.68 -1.87 l
0.68 0.13 l
0.68 3.49 l
0.68 4.72 l
0.68 -1.30 l
0.69 -5.31 l
0.68 -3.22 l
0.68 -0.75 l
0.68 -0.20 l
0.68 -0.17 l
0.68 0.03 l
0.68 0.08 l
0.68 -0.08 l
0.69 -0.22 l
0.68 -0.23 l
0.68 -0.11 l
0.68 0.09 l
0.68 0.13 l
0.68 -0.09 l
0.68 -0.27 l
0.68 -0.22 l
0.69 -0.18 l
257.45 44.47 lineto
0.68 -0.15 l
0.68 0.01 l
0.68 0.11 l
0.68 0.12 l
0.68 -0.06 l
0.69 -0.13 l
0.68 0.05 l
0.68 0.10 l
0.68 -0.04 l
0.68 -0.11 l
0.68 -0.15 l
0.68 -0.14 l
0.68 -0.03 l
0.69 0.03 l
0.68 0.01 l
0.68 0.07 l
0.68 0.06 l
0.68 -0.01 l
0.68 0.01 l
0.68 0.02 l
0.68 -0.09 l
0.69 -0.10 l
0.68 0.05 l
0.68 -0.01 l
0.68 -0.12 l
0.68 -0.02 l
0.68 0.04 l
0.68 0.02 l
0.68 -0.05 l
0.69 0 l
0.68 0.07 l
0.68 0.10 l
0.68 0.03 l
0.68 0 l
0.68 -0.01 l
0.68 -0.04 l
0.68 -0.11 l
0.69 -0.14 l
0.68 -0.03 l
0.68 0.07 l
0.68 0.05 l
0.68 0 l
0.68 0.01 l
0.68 0.01 l
0.68 -0.03 l
0.69 0.01 l
0.68 0.09 l
0.68 0.01 l
0.68 -0.09 l
0.68 -0.05 l
0.68 0.01 l
0.68 0 l
0.68 -0.01 l
0.69 -0.02 l
0.68 0.02 l
0.68 0.06 l
0.68 0.05 l
0.68 0 l
0.68 -0.04 l
0.68 -0.07 l
0.68 -0.10 l
0.69 -0.06 l
0.68 0 l
0.68 0.01 l
0.68 0 l
0.68 0 l
0.68 0 l
0.68 0.01 l
0.68 0.01 l
0.69 0 l
0.68 -0.02 l
0.68 -0.03 l
0.68 0.01 l
0.68 0.06 l
0.68 0.06 l
0.68 0.02 l
0.68 -0.03 l
0.69 -0.03 l
0.68 -0.02 l
0.68 0 l
0.68 -0.02 l
0.68 0.03 l
0.68 0.14 l
0.68 0.19 l
0.68 -0.02 l
0.69 -0.23 l
0.68 -0.15 l
0.68 -0.03 l
0.68 0 l
0.68 0.02 l
0.68 0.05 l
0.68 0.05 l
0.68 -0.02 l
0.69 -0.05 l
0.68 -0.03 l
0.68 -0.02 l
0.68 0 l
0.68 0 l
0.68 0 l
325.57 43.71 lineto
0.68 0.01 l
0.69 0.02 l
0.68 0.02 l
0.68 -0.02 l
0.68 -0.01 l
0.68 0.02 l
0.68 0 l
0.68 -0.02 l
0.69 -0.02 l
0.68 0 l
0.68 0 l
0.68 0 l
0.68 0 l
0.68 0.01 l
0.68 0.03 l
0.68 0 l
0.69 -0.02 l
0.68 -0.02 l
0.68 0 l
0.68 0 l
0.68 0 l
0.68 0 l
0.68 0.02 l
0.68 0.02 l
0.69 0 l
0.68 -0.03 l
0.68 -0.01 l
0.68 0 l
0.68 0 l
0.68 0 l
0.68 0 l
0.68 0 l
0.69 0 l
0.68 0 l
0.68 0 l
0.68 0 l
0.68 0 l
0.68 0 l
0.68 0 l
0.68 0 l
0.69 0 l
0.68 0 l
0.68 0 l
0.68 0 l
0.68 0 l
0.68 0 l
0.68 0 l
0.68 0 l
0.69 0 l
0.68 0.01 l
0.68 0.02 l
0.68 0.02 l
0.68 -0.02 l
0.68 -0.03 l
0.68 0 l
0.68 0 l
0.69 0 l
0.68 0 l
0.68 0 l
0.68 0 l
0.68 0.03 l
0.68 0.05 l
0.68 0.01 l
0.68 -0.05 l
0.69 -0.04 l
0.68 0 l
0.68 0 l
0.68 0 l
0.68 0 l
0.68 0 l
0.68 0 l
0.68 0 l
0.69 0 l
0.68 0 l
0.68 0 l
0.68 0 l
0.68 0 l
0.68 0 l
0.68 0 l
0.68 0 l
0.69 0 l
0.68 0 l
0.68 0 l
0.68 0.02 l
0.68 0.02 l
0.68 0 l
0.68 -0.02 l
0.68 -0.02 l
0.69 0 l
0.68 0 l
0.68 0 l
0.68 0 l
0.68 0 l
0.68 0 l
0.68 0 l
0.68 0 l
0.69 0 l
0.68 0 l
0.68 0 l
393.70 43.71 lineto
0.68 0 l
0.68 0 l
0.68 0 l
0.68 0.01 l
0.69 0.03 l
0.68 0 l
0.68 -0.02 l
0.68 -0.02 l
0.68 0.01 l
0.68 0.02 l
0.68 0.01 l
0 -0.04 l
-0.68 0 l
-0.68 0 l
-0.68 0 l
-0.68 0 l
-0.68 0 l
-0.68 0 l
-0.69 0 l
-0.68 0 l
-0.68 0 l
-0.68 0 l
-0.68 0 l
-0.68 0 l
-0.68 0 l
-0.68 0 l
-0.69 0 l
-0.68 0 l
-0.68 0 l
-0.68 0 l
-0.68 0 l
-0.68 0 l
-0.68 0 l
-0.68 0 l
-0.69 0 l
-0.68 0 l
-0.68 0 l
-0.68 0 l
-0.68 0 l
-0.68 0 l
-0.68 0 l
-0.68 0 l
-0.69 0 l
-0.68 0 l
-0.68 0 l
-0.68 0 l
-0.68 0 l
-0.68 0 l
-0.68 0 l
-0.68 0 l
-0.69 0 l
-0.68 0 l
-0.68 0 l
-0.68 0 l
-0.68 0 l
-0.68 0 l
-0.68 0 l
-0.68 0 l
-0.69 0 l
-0.68 0 l
-0.68 0 l
-0.68 0 l
-0.68 0 l
-0.68 0 l
-0.68 0 l
-0.68 0 l
-0.69 0 l
-0.68 0 l
-0.68 0 l
-0.68 0 l
-0.68 0 l
-0.68 0 l
-0.68 0 l
-0.68 0 l
-0.69 0 l
-0.68 0 l
-0.68 0 l
-0.68 0 l
-0.68 0 l
-0.68 0 l
-0.68 0 l
-0.68 0 l
-0.69 0 l
-0.68 0 l
-0.68 0 l
-0.68 0 l
-0.68 0 l
-0.68 0 l
-0.68 0 l
-0.68 0 l
-0.69 0 l
-0.68 0 l
-0.68 0 l
-0.68 0 l
-0.68 0 l
-0.68 0 l
-0.68 0 l
-0.68 0 l
-0.69 0 l
341.24 43.71 lineto
-0.68 0 l
-0.68 0 l
-0.68 0 l
-0.68 0 l
-0.68 0 l
-0.68 0 l
-0.69 0 l
-0.68 0 l
-0.68 0 l
-0.68 0 l
-0.68 0 l
-0.68 0 l
-0.68 0 l
-0.68 0 l
-0.69 0 l
-0.68 0 l
-0.68 0 l
-0.68 0 l
-0.68 0 l
-0.68 0 l
-0.68 0 l
-0.69 0 l
-0.68 0 l
-0.68 0 l
-0.68 0 l
-0.68 0 l
-0.68 0 l
-0.68 0 l
-0.68 0 l
-0.69 0 l
-0.68 0 l
-0.68 0 l
-0.68 0 l
-0.68 0 l
-0.68 0 l
-0.68 0 l
-0.68 0 l
-0.69 0 l
-0.68 0 l
-0.68 0 l
-0.68 0 l
-0.68 0 l
-0.68 0 l
-0.68 0 l
-0.68 0 l
-0.69 0 l
-0.68 0 l
-0.68 0 l
-0.68 0 l
-0.68 0 l
-0.68 0 l
-0.68 0 l
-0.68 0 l
-0.69 0 l
-0.68 0 l
-0.68 0 l
-0.68 0 l
-0.68 0 l
-0.68 0 l
-0.68 0 l
-0.68 0 l
-0.69 0 l
-0.68 0 l
-0.68 0 l
-0.68 0 l
-0.68 0 l
-0.68 0 l
-0.68 0 l
-0.68 0 l
-0.69 0 l
-0.68 0 l
-0.68 0 l
-0.68 0 l
-0.68 0 l
-0.68 0 l
-0.68 0 l
-0.68 0 l
-0.69 0 l
-0.68 0 l
-0.68 0 l
-0.68 0 l
-0.68 0 l
-0.68 0 l
-0.68 0 l
-0.68 0 l
-0.69 0 l
-0.68 0 l
-0.68 0 l
-0.68 0 l
-0.68 0 l
-0.68 0 l
-0.68 0 l
-0.68 0 l
-0.69 0 l
-0.68 0 l
-0.68 0 l
-0.68 0 l
-0.68 0 l
-0.68 0 l
273.12 43.71 lineto
-0.68 0 l
-0.69 0 l
-0.68 0 l
-0.68 0 l
-0.68 0 l
-0.68 0 l
-0.68 0 l
-0.68 0 l
-0.68 0 l
-0.69 0 l
-0.68 0 l
-0.68 0 l
-0.68 0 l
-0.68 0 l
-0.68 0 l
-0.68 0 l
-0.68 0 l
-0.69 0 l
-0.68 0 l
-0.68 0 l
-0.68 0 l
-0.68 0 l
-0.68 0 l
-0.68 0 l
-0.69 0 l
-0.68 0 l
-0.68 0 l
-0.68 0 l
-0.68 0 l
-0.68 0 l
-0.68 0 l
-0.68 0 l
-0.69 0 l
-0.68 0 l
-0.68 0 l
-0.68 0 l
-0.68 0 l
-0.68 0 l
-0.68 0 l
-0.68 0 l
-0.69 0 l
-0.68 0 l
-0.68 0 l
-0.68 0 l
-0.68 0 l
-0.68 0 l
-0.68 0 l
-0.68 0 l
-0.69 0 l
-0.68 0 l
-0.68 0 l
-0.68 0 l
-0.68 0 l
-0.68 0 l
-0.68 0 l
-0.68 0 l
-0.69 0 l
-0.68 0 l
-0.68 0 l
-0.68 0 l
-0.68 0 l
-0.68 0 l
-0.68 0 l
-0.68 0 l
-0.69 0 l
-0.68 0 l
-0.68 0 l
-0.68 0 l
-0.68 0 l
-0.68 0 l
-0.68 0 l
-0.68 0 l
-0.69 0 l
-0.68 0 l
-0.68 0 l
-0.68 0 l
-0.68 0 l
-0.68 0 l
-0.68 0 l
-0.68 0 l
-0.69 0 l
-0.68 0 l
-0.68 0 l
-0.68 0 l
-0.68 0 l
-0.68 0 l
-0.68 0 l
-0.68 0 l
-0.69 0 l
-0.68 0 l
-0.68 0 l
-0.68 0 l
-0.68 0 l
-0.68 0 l
-0.68 0 l
-0.68 0 l
-0.69 0 l
-0.68 0 l
-0.68 0 l
204.99 43.71 lineto
-0.68 0 l
-0.68 0 l
-0.68 0 l
-0.68 0 l
-0.69 0 l
-0.68 0 l
-0.68 0 l
-0.68 0 l
-0.68 0 l
-0.68 0 l
-0.68 0 l
-0.68 0 l
-0.69 0 l
-0.68 0 l
-0.68 0 l
-0.68 0 l
-0.68 0 l
-0.68 0 l
-0.68 0 l
-0.68 0 l
-0.69 0 l
-0.68 0 l
-0.68 0 l
-0.68 0 l
-0.68 0 l
-0.68 0 l
-0.68 0 l
-0.69 0 l
-0.68 0 l
-0.68 0 l
-0.68 0 l
-0.68 0 l
-0.68 0 l
-0.68 0 l
-0.68 0 l
-0.69 0 l
-0.68 0 l
-0.68 0 l
-0.68 0 l
-0.68 0 l
-0.68 0 l
-0.68 0 l
-0.68 0 l
-0.69 0 l
-0.68 0 l
-0.68 0 l
-0.68 0 l
-0.68 0 l
-0.68 0 l
-0.68 0 l
-0.68 0 l
-0.69 0 l
-0.68 0 l
-0.68 0 l
-0.68 0 l
-0.68 0 l
-0.68 0 l
-0.68 0 l
-0.68 0 l
-0.69 0 l
-0.68 0 l
-0.68 0 l
-0.68 0 l
-0.68 0 l
-0.68 0 l
-0.68 0 l
-0.68 0 l
-0.69 0 l
-0.68 0 l
-0.68 0 l
-0.68 0 l
-0.68 0 l
-0.68 0 l
-0.68 0 l
-0.68 0 l
-0.69 0 l
-0.68 0 l
-0.68 0 l
-0.68 0 l
-0.68 0 l
-0.68 0 l
-0.68 0 l
-0.68 0 l
-0.69 0 l
-0.68 0 l
-0.68 0 l
-0.68 0 l
-0.68 0 l
-0.68 0 l
-0.68 0 l
-0.68 0 l
-0.69 0 l
-0.68 0 l
-0.68 0 l
-0.68 0 l
-0.68 0 l
-0.68 0 l
-0.68 0 l
-0.68 0 l
136.86 43.71 lineto
-0.68 0 l
-0.68 0 l
-0.68 0 l
-0.68 0 l
-0.68 0 l
-0.68 0 l
-0.68 0 l
-0.69 0 l
-0.68 0 l
-0.68 0 l
-0.68 0 l
-0.68 0 l
-0.68 0 l
-0.68 0 l
-0.68 0 l
-0.69 0 l
-0.68 0 l
-0.68 0 l
-0.68 0 l
-0.68 0 l
-0.68 0 l
-0.68 0 l
-0.68 0 l
-0.69 0 l
-0.68 0 l
-0.68 0 l
-0.68 0 l
-0.68 0 l
-0.68 0 l
-0.68 0 l
-0.69 0 l
-0.68 0 l
-0.68 0 l
-0.68 0 l
-0.68 0 l
-0.68 0 l
-0.68 0 l
-0.68 0 l
-0.69 0 l
-0.68 0 l
-0.68 0 l
-0.68 0 l
-0.68 0 l
-0.68 0 l
-0.68 0 l
-0.68 0 l
-0.69 0 l
-0.68 0 l
-0.68 0 l
-0.68 0 l
-0.68 0 l
-0.68 0 l
-0.68 0 l
-0.68 0 l
-0.69 0 l
-0.68 0 l
-0.68 0 l
-0.68 0 l
-0.68 0 l
-0.68 0 l
-0.68 0 l
-0.68 0 l
-0.69 0 l
-0.68 0 l
-0.68 0 l
-0.68 0 l
-0.68 0 l
-0.68 0 l
-0.68 0 l
-0.68 0 l
-0.69 0 l
-0.68 0 l
-0.68 0 l
-0.68 0 l
-0.68 0 l
-0.68 0 l
-0.68 0 l
-0.68 0 l
-0.69 0 l
-0.68 0 l
-0.68 0 l
-0.68 0 l
-0.68 0 l
-0.68 0 l
-0.68 0 l
-0.68 0 l
-0.69 0 l
-0.68 0 l
-0.68 0 l
-0.68 0 l
-0.68 0 l
-0.68 0 l
-0.68 0 l
-0.68 0 l
-0.69 0 l
-0.68 0 l
-0.68 0 l
-0.68 0 l
-0.68 0 l
currentpoint o m
68.74 43.71 lineto
-0.68 0 l
-0.68 0 l
-0.69 0 l
-0.68 0 l
-0.68 0 l
-0.68 0 l
-0.68 0 l
-0.68 0 l
-0.68 0 l
-0.68 0 l
-0.69 0 l
-0.68 0 l
-0.68 0 l
-0.68 0 l
-0.68 0 l
-0.68 0 l
-0.68 0 l
-0.68 0 l
-0.69 0 l
-0.68 0 l
-0.68 0 l
-0.68 0 l
-0.68 0 l
0 0.05 l
o
0.00 0.00 433.00 193.00 cl
0.00 0.00 433.00 193.00 cl
0.00 0.00 433.00 193.00 cl
/Font1 findfont 10 s
0.4980 0.4980 0.4980 srgb
28.58 40.12 (0) 1 0 t
28.58 86.63 (2) 1 0 t
28.58 133.15 (4) 1 0 t
0.00 0.00 433.00 193.00 cl
0.00 0.00 433.00 193.00 cl
0.4980 0.4980 0.4980 srgb
1.06 setlinewidth
[] 0 setdash
0 setlinecap
1 setlinejoin
10.00 setmiterlimit
np
31.41 43.71 m
4.25 0 l
o
np
31.41 90.22 m
4.25 0 l
o
np
31.41 136.74 m
4.25 0 l
o
0.00 0.00 433.00 193.00 cl
0.00 0.00 433.00 193.00 cl
0.00 0.00 433.00 193.00 cl
0.00 0.00 433.00 193.00 cl
0.00 0.00 433.00 193.00 cl
0.00 0.00 433.00 193.00 cl
0.4980 0.4980 0.4980 srgb
1.06 setlinewidth
[] 0 setdash
0 setlinecap
1 setlinejoin
10.00 setmiterlimit
np
37.01 33.03 m
0 4.25 l
o
np
135.84 33.03 m
0 4.25 l
o
np
234.67 33.03 m
0 4.25 l
o
np
333.50 33.03 m
0 4.25 l
o
0.00 0.00 433.00 193.00 cl
0.00 0.00 433.00 193.00 cl
/Font1 findfont 10 s
0.4980 0.4980 0.4980 srgb
37.01 23.02 (-8) .5 0 t
135.84 23.02 (-4) .5 0 t
234.67 23.02 (0) .5 0 t
333.50 23.02 (4) .5 0 t
0.00 0.00 433.00 193.00 cl
0.00 0.00 433.00 193.00 cl
0.00 0.00 433.00 193.00 cl
0.00 0.00 433.00 193.00 cl
0.00 0.00 433.00 193.00 cl
0.00 0.00 433.00 193.00 cl
0.00 0.00 433.00 193.00 cl
0.00 0.00 433.00 193.00 cl
0.00 0.00 433.00 193.00 cl
0.00 0.00 433.00 193.00 cl
0.00 0.00 433.00 193.00 cl
ep
%%Trailer
%%Pages: 1
%%EOF
