%!PS-Adobe-3.0 EPSF-3.0
%%DocumentNeededResources: font Helvetica
%%+ font Helvetica-Bold
%%+ font Helvetica-Oblique
%%+ font Helvetica-BoldOblique
%%+ font Symbol
%%Title: R Graphics Output
%%Creator: R Software
%%Pages: (atend)
%%BoundingBox: 0 0 433 193
%%EndComments
%%BeginProlog
/bp  { gs sRGB gs } def
% begin .ps.prolog
/gs  { gsave } bind def
/gr  { grestore } bind def
/ep  { showpage gr gr } bind def
/m   { moveto } bind def
/l  { rlineto } bind def
/np  { newpath } bind def
/cp  { closepath } bind def
/f   { fill } bind def
/o   { stroke } bind def
/c   { newpath 0 360 arc } bind def
/r   { 4 2 roll moveto 1 copy 3 -1 roll exch 0 exch rlineto 0 rlineto -1 mul 0 exch rlineto closepath } bind def
/p1  { stroke } bind def
/p2  { gsave bg fill grestore newpath } bind def
/p3  { gsave bg fill grestore stroke } bind def
/p6  { gsave bg eofill grestore newpath } bind def
/p7  { gsave bg eofill grestore stroke } bind def
/t   { 5 -2 roll moveto gsave rotate
       1 index stringwidth pop
       mul neg 0 rmoveto show grestore } bind def
/ta  { 4 -2 roll moveto gsave rotate show } bind def
/tb  { 2 -1 roll 0 rmoveto show } bind def
/cl  { grestore gsave newpath 3 index 3 index moveto 1 index
       4 -1 roll lineto  exch 1 index lineto lineto
       closepath clip newpath } bind def
/rgb { setrgbcolor } bind def
/s   { scalefont setfont } bind def
% end   .ps.prolog
/sRGB { [ /CIEBasedABC
          << /DecodeLMN
               [ { dup 0.03928 le
                        {12.92321 div}
                        {0.055 add 1.055 div 2.4 exp }
                     ifelse
                 } bind dup dup
               ]
             /MatrixLMN [0.412457 0.212673 0.019334
                         0.357576 0.715152 0.119192
                         0.180437 0.072175 0.950301]
             /WhitePoint [0.9505 1.0 1.0890]
           >>
         ] setcolorspace } bind def
/srgb { setcolor } bind def
%%IncludeResource: font Helvetica
/Helvetica findfont
dup length dict begin
  {1 index /FID ne {def} {pop pop} ifelse} forall
  /Encoding ISOLatin1Encoding def
  currentdict
  end
/Font1 exch definefont pop
%%IncludeResource: font Helvetica-Bold
/Helvetica-Bold findfont
dup length dict begin
  {1 index /FID ne {def} {pop pop} ifelse} forall
  /Encoding ISOLatin1Encoding def
  currentdict
  end
/Font2 exch definefont pop
%%IncludeResource: font Helvetica-Oblique
/Helvetica-Oblique findfont
dup length dict begin
  {1 index /FID ne {def} {pop pop} ifelse} forall
  /Encoding ISOLatin1Encoding def
  currentdict
  end
/Font3 exch definefont pop
%%IncludeResource: font Helvetica-BoldOblique
/Helvetica-BoldOblique findfont
dup length dict begin
  {1 index /FID ne {def} {pop pop} ifelse} forall
  /Encoding ISOLatin1Encoding def
  currentdict
  end
/Font4 exch definefont pop
%%IncludeResource: font Symbol
/Symbol findfont
dup length dict begin
  {1 index /FID ne {def} {pop pop} ifelse} forall
  currentdict
  end
/Font5 exch definefont pop
%%EndProlog
%%Page: 1 1
bp
0.00 0.00 433.00 193.00 cl
0.00 0.00 433.00 193.00 cl
0.00 0.00 433.00 193.00 cl
/bg { 1 1 1 srgb } def
1 1 1 srgb
1.06 setlinewidth
[] 0 setdash
1 setlinecap
1 setlinejoin
10.00 setmiterlimit
0.00 0.00 433.00 193.00 r p3
0.00 0.00 433.00 193.00 cl
0.00 0.00 433.00 193.00 cl
0.00 0.00 433.00 193.00 cl
35.66 37.28 418.60 178.60 cl
/bg { 0.8980 0.8980 0.8980 srgb } def
35.66 37.28 382.94 141.32 r p2
0.9490 0.9490 0.9490 srgb
0.53 setlinewidth
[] 0 setdash
0 setlinecap
1 setlinejoin
10.00 setmiterlimit
np
35.66 56.16 m
382.94 0 l
o
np
35.66 81.08 m
382.94 0 l
o
np
35.66 106.00 m
382.94 0 l
o
np
35.66 130.91 m
382.94 0 l
o
np
35.66 155.83 m
382.94 0 l
o
np
80.69 37.28 m
0 141.32 l
o
np
175.94 37.28 m
0 141.32 l
o
np
271.18 37.28 m
0 141.32 l
o
np
366.43 37.28 m
0 141.32 l
o
1 1 1 srgb
1.06 setlinewidth
[] 0 setdash
np
35.66 43.71 m
382.94 0 l
o
np
35.66 68.62 m
382.94 0 l
o
np
35.66 93.54 m
382.94 0 l
o
np
35.66 118.46 m
382.94 0 l
o
np
35.66 143.37 m
382.94 0 l
o
np
35.66 168.29 m
382.94 0 l
o
np
128.31 37.28 m
0 141.32 l
o
np
223.56 37.28 m
0 141.32 l
o
np
318.81 37.28 m
0 141.32 l
o
np
414.05 37.28 m
0 141.32 l
o
0 0 0 srgb
1 setlinecap
np
53.07 43.76 m
0.68 -0.02 l
0.68 -0.02 l
0.68 -0.01 l
0.68 0 l
0.69 0 l
0.68 0 l
0.68 0 l
0.68 0 l
0.68 0 l
0.68 0 l
0.68 0 l
0.68 0 l
0.69 0 l
0.68 0 l
0.68 0 l
0.68 0 l
0.68 0 l
0.68 0 l
0.68 0 l
0.68 0 l
0.69 0 l
0.68 0 l
0.68 0 l
0.68 0 l
0.68 0 l
0.68 0 l
0.68 0 l
0.68 0 l
0.69 0 l
0.68 0 l
0.68 0 l
0.68 0 l
0.68 0 l
0.68 0 l
0.68 0 l
0.68 0 l
0.69 0 l
0.68 0 l
0.68 0 l
0.68 0 l
0.68 0 l
0.68 0 l
0.68 0 l
0.68 0.02 l
0.69 0.03 l
0.68 -0.01 l
0.68 -0.03 l
0.68 -0.01 l
0.68 0 l
0.68 0 l
0.68 0 l
0.68 0 l
0.69 0 l
0.68 0 l
0.68 0 l
0.68 0 l
0.68 0 l
0.68 0 l
0.68 0.03 l
0.68 0.02 l
0.69 -0.02 l
0.68 -0.02 l
0.68 -0.01 l
0.68 0 l
0.68 0 l
0.68 0 l
0.68 0 l
0.68 0 l
0.69 0 l
0.68 0 l
0.68 0 l
0.68 0 l
0.68 0 l
0.68 0 l
0.68 0 l
0.68 0 l
0.69 0 l
0.68 0 l
0.68 0 l
0.68 0 l
0.68 0 l
0.68 0 l
0.68 0 l
0.68 0 l
0.69 0 l
0.68 0.01 l
0.68 0.03 l
0.68 0.01 l
0.68 -0.03 l
0.68 -0.02 l
0.68 0 l
0.68 0 l
0.69 0 l
0.68 0 l
0.68 0 l
0.68 0 l
0.68 0 l
0.68 0 l
0.68 0 l
121.20 43.71 lineto
0.68 0 l
0.68 0 l
0.68 0 l
0.68 0 l
0.68 0 l
0.68 0 l
0.68 0 l
0.69 0.03 l
0.68 0.04 l
0.68 0 l
0.68 -0.01 l
0.68 -0.03 l
0.68 -0.03 l
0.68 0 l
0.68 0 l
0.69 0 l
0.68 0.01 l
0.68 0.03 l
0.68 0.01 l
0.68 -0.02 l
0.68 -0.03 l
0.68 0 l
0.68 0 l
0.69 0 l
0.68 0 l
0.68 0.01 l
0.68 0.02 l
0.68 0.02 l
0.68 -0.01 l
0.68 0.01 l
0.68 0 l
0.69 -0.03 l
0.68 -0.02 l
0.68 0 l
0.68 0.02 l
0.68 0.05 l
0.68 0.03 l
0.68 0 l
0.68 0.01 l
0.69 -0.02 l
0.68 -0.04 l
0.68 0 l
0.68 -0.01 l
0.68 -0.02 l
0.68 -0.02 l
0.68 0 l
0.68 0 l
0.69 0 l
0.68 0 l
0.68 0.01 l
0.68 0.03 l
0.68 0.01 l
0.68 -0.01 l
0.68 0.02 l
0.68 0.08 l
0.69 1.13 l
0.68 7.72 l
0.68 16.19 l
0.68 5.33 l
0.68 -15.87 l
0.68 -12.10 l
0.68 -2.27 l
0.68 -0.12 l
0.69 -0.05 l
0.68 -0.05 l
0.68 0 l
0.68 -0.01 l
0.68 -0.01 l
0.68 0.04 l
0.68 0.03 l
0.68 -0.03 l
0.69 -0.04 l
0.68 0.01 l
0.68 0.05 l
0.68 0.07 l
0.68 0.11 l
0.68 0.01 l
0.68 -0.02 l
0.68 -0.03 l
0.69 -0.10 l
0.68 -0.07 l
0.68 -0.02 l
0.68 0.08 l
0.68 0.19 l
0.68 0.23 l
0.68 1.01 l
0.68 2.23 l
0.69 0.67 l
0.68 -2.28 l
0.68 -1.65 l
0.68 -0.20 l
0.68 0.13 l
0.68 0.05 l
0.68 -0.10 l
0.68 -0.12 l
0.69 0.01 l
0.68 0.03 l
0.68 0.01 l
0.68 0.08 l
189.32 44.17 lineto
0.68 -0.03 l
0.68 -0.02 l
0.69 -0.04 l
0.68 -0.10 l
0.68 0.01 l
0.68 0.21 l
0.68 0.19 l
0.68 -0.04 l
0.68 -0.18 l
0.68 -0.14 l
0.69 -0.03 l
0.68 0.02 l
0.68 0.05 l
0.68 0.11 l
0.68 0.21 l
0.68 0.22 l
0.68 0.18 l
0.68 0.13 l
0.69 0.11 l
0.68 0.13 l
0.68 0.17 l
0.68 -0.03 l
0.68 -0.19 l
0.68 0.05 l
0.68 0.29 l
0.68 0.29 l
0.69 0.16 l
0.68 0 l
0.68 -0.04 l
0.68 0.07 l
0.68 0.09 l
0.68 0.23 l
0.68 0.34 l
0.68 0.28 l
0.69 0.39 l
0.68 0.54 l
0.68 0.58 l
0.68 0.41 l
0.68 -0.01 l
0.68 -0.19 l
0.68 0.10 l
0.68 2.17 l
0.69 5.95 l
0.68 4.90 l
0.68 -2.35 l
0.68 -2.01 l
0.68 2.90 l
0.68 11.17 l
0.68 33.73 l
0.68 54.62 l
0.69 12.41 l
0.68 -58.07 l
0.68 -43.81 l
0.68 -11.41 l
0.68 -3.84 l
0.68 -1.89 l
0.68 0.15 l
0.68 3.55 l
0.69 5.06 l
0.68 -2.88 l
0.68 -6.27 l
0.68 -3.33 l
0.68 -1.10 l
0.68 -0.58 l
0.68 -0.28 l
0.68 -0.20 l
0.69 -0.35 l
0.68 -0.35 l
0.68 -0.20 l
0.68 -0.23 l
0.68 -0.16 l
0.68 -0.11 l
0.68 -0.18 l
0.68 -0.27 l
0.69 -0.22 l
0.68 0 l
0.68 -0.05 l
0.68 -0.28 l
0.68 -0.20 l
0.68 0.09 l
0.68 0.13 l
0.68 -0.02 l
0.69 0.02 l
0.68 0.04 l
0.68 -0.13 l
0.68 -0.18 l
0.68 -0.13 l
0.68 -0.09 l
0.68 -0.05 l
0.68 -0.03 l
0.69 -0.03 l
0.68 -0.02 l
0.68 0.01 l
0.68 0 l
0.68 -0.04 l
0.68 -0.07 l
0.68 -0.10 l
0.68 -0.05 l
0.69 0 l
257.45 44.06 lineto
0.68 0.03 l
0.68 0.03 l
0.68 0.05 l
0.68 0.01 l
0.68 -0.02 l
0.69 -0.02 l
0.68 -0.03 l
0.68 -0.05 l
0.68 -0.08 l
0.68 -0.02 l
0.68 0.11 l
0.68 0.09 l
0.68 -0.03 l
0.69 -0.13 l
0.68 -0.07 l
0.68 -0.03 l
0.68 0.01 l
0.68 0.01 l
0.68 -0.03 l
0.68 0 l
0.68 0.07 l
0.69 0.02 l
0.68 -0.03 l
0.68 -0.04 l
0.68 -0.02 l
0.68 -0.04 l
0.68 -0.07 l
0.68 0.03 l
0.68 0.09 l
0.69 -0.03 l
0.68 -0.09 l
0.68 -0.05 l
0.68 -0.02 l
0.68 0 l
0.68 0 l
0.68 0 l
0.68 0 l
0.69 0.03 l
0.68 0.08 l
0.68 0.07 l
0.68 -0.03 l
0.68 -0.08 l
0.68 -0.05 l
0.68 0 l
0.68 0.03 l
0.69 0.02 l
0.68 0.04 l
0.68 0.07 l
0.68 0.02 l
0.68 -0.03 l
0.68 -0.03 l
0.68 -0.02 l
0.68 -0.01 l
0.69 -0.02 l
0.68 -0.03 l
0.68 -0.02 l
0.68 -0.03 l
0.68 -0.01 l
0.68 0 l
0.68 0 l
0.68 0 l
0.69 0 l
0.68 0 l
0.68 0 l
0.68 0.03 l
0.68 0.06 l
0.68 0.04 l
0.68 -0.01 l
0.68 -0.04 l
0.69 -0.02 l
0.68 -0.02 l
0.68 0.01 l
0.68 0 l
0.68 -0.03 l
0.68 -0.02 l
0.68 0 l
0.68 0.01 l
0.69 0.02 l
0.68 0.02 l
0.68 -0.01 l
0.68 0 l
0.68 0.01 l
0.68 -0.01 l
0.68 0.01 l
0.68 0.01 l
0.69 -0.03 l
0.68 0 l
0.68 0.02 l
0.68 -0.01 l
0.68 0 l
0.68 0.02 l
0.68 0.02 l
0.68 0 l
0.69 -0.05 l
0.68 -0.03 l
0.68 0 l
0.68 0 l
0.68 0 l
0.68 0 l
325.57 43.71 lineto
0.68 0 l
0.69 0 l
0.68 0 l
0.68 0 l
0.68 0 l
0.68 0 l
0.68 0 l
0.68 0 l
0.69 0 l
0.68 0 l
0.68 0 l
0.68 0 l
0.68 0 l
0.68 0 l
0.68 0 l
0.68 0 l
0.69 0 l
0.68 0 l
0.68 0 l
0.68 0 l
0.68 0 l
0.68 0 l
0.68 0 l
0.68 0 l
0.69 0 l
0.68 0 l
0.68 0 l
0.68 0 l
0.68 0.01 l
0.68 0.03 l
0.68 0 l
0.68 -0.02 l
0.69 -0.02 l
0.68 0 l
0.68 0 l
0.68 0 l
0.68 0 l
0.68 0 l
0.68 0 l
0.68 0 l
0.69 0 l
0.68 0 l
0.68 0 l
0.68 0 l
0.68 0 l
0.68 0 l
0.68 0 l
0.68 0 l
0.69 0 l
0.68 0 l
0.68 0 l
0.68 0 l
0.68 0 l
0.68 0 l
0.68 0 l
0.68 0 l
0.69 0 l
0.68 0 l
0.68 0.02 l
0.68 0.03 l
0.68 -0.01 l
0.68 -0.03 l
0.68 -0.01 l
0.68 0 l
0.69 0 l
0.68 0 l
0.68 0 l
0.68 0 l
0.68 0 l
0.68 0 l
0.68 0 l
0.68 0 l
0.69 0 l
0.68 0 l
0.68 0 l
0.68 0 l
0.68 0 l
0.68 0 l
0.68 0 l
0.68 0 l
0.69 0 l
0.68 0 l
0.68 0 l
0.68 0 l
0.68 0 l
0.68 0 l
0.68 0 l
0.68 0 l
0.69 0 l
0.68 0 l
0.68 0 l
0.68 0 l
0.68 0 l
0.68 0 l
0.68 0 l
0.68 0 l
0.69 0 l
0.68 0 l
0.68 0 l
393.70 43.71 lineto
0.68 0 l
0.68 0 l
0.68 0 l
0.68 0 l
0.69 0 l
0.68 0 l
0.68 0 l
0.68 0 l
0.68 0.01 l
0.68 0.02 l
0.68 0.02 l
0 -0.05 l
-0.68 0 l
-0.68 0 l
-0.68 0 l
-0.68 0 l
-0.68 0 l
-0.68 0 l
-0.69 0 l
-0.68 0 l
-0.68 0 l
-0.68 0 l
-0.68 0 l
-0.68 0 l
-0.68 0 l
-0.68 0 l
-0.69 0 l
-0.68 0 l
-0.68 0 l
-0.68 0 l
-0.68 0 l
-0.68 0 l
-0.68 0 l
-0.68 0 l
-0.69 0 l
-0.68 0 l
-0.68 0 l
-0.68 0 l
-0.68 0 l
-0.68 0 l
-0.68 0 l
-0.68 0 l
-0.69 0 l
-0.68 0 l
-0.68 0 l
-0.68 0 l
-0.68 0 l
-0.68 0 l
-0.68 0 l
-0.68 0 l
-0.69 0 l
-0.68 0 l
-0.68 0 l
-0.68 0 l
-0.68 0 l
-0.68 0 l
-0.68 0 l
-0.68 0 l
-0.69 0 l
-0.68 0 l
-0.68 0 l
-0.68 0 l
-0.68 0 l
-0.68 0 l
-0.68 0 l
-0.68 0 l
-0.69 0 l
-0.68 0 l
-0.68 0 l
-0.68 0 l
-0.68 0 l
-0.68 0 l
-0.68 0 l
-0.68 0 l
-0.69 0 l
-0.68 0 l
-0.68 0 l
-0.68 0 l
-0.68 0 l
-0.68 0 l
-0.68 0 l
-0.68 0 l
-0.69 0 l
-0.68 0 l
-0.68 0 l
-0.68 0 l
-0.68 0 l
-0.68 0 l
-0.68 0 l
-0.68 0 l
-0.69 0 l
-0.68 0 l
-0.68 0 l
-0.68 0 l
-0.68 0 l
-0.68 0 l
-0.68 0 l
-0.68 0 l
-0.69 0 l
341.24 43.71 lineto
-0.68 0 l
-0.68 0 l
-0.68 0 l
-0.68 0 l
-0.68 0 l
-0.68 0 l
-0.69 0 l
-0.68 0 l
-0.68 0 l
-0.68 0 l
-0.68 0 l
-0.68 0 l
-0.68 0 l
-0.68 0 l
-0.69 0 l
-0.68 0 l
-0.68 0 l
-0.68 0 l
-0.68 0 l
-0.68 0 l
-0.68 0 l
-0.69 0 l
-0.68 0 l
-0.68 0 l
-0.68 0 l
-0.68 0 l
-0.68 0 l
-0.68 0 l
-0.68 0 l
-0.69 0 l
-0.68 0 l
-0.68 0 l
-0.68 0 l
-0.68 0 l
-0.68 0 l
-0.68 0 l
-0.68 0 l
-0.69 0 l
-0.68 0 l
-0.68 0 l
-0.68 0 l
-0.68 0 l
-0.68 0 l
-0.68 0 l
-0.68 0 l
-0.69 0 l
-0.68 0 l
-0.68 0 l
-0.68 0 l
-0.68 0 l
-0.68 0 l
-0.68 0 l
-0.68 0 l
-0.69 0 l
-0.68 0 l
-0.68 0 l
-0.68 0 l
-0.68 0 l
-0.68 0 l
-0.68 0 l
-0.68 0 l
-0.69 0 l
-0.68 0 l
-0.68 0 l
-0.68 0 l
-0.68 0 l
-0.68 0 l
-0.68 0 l
-0.68 0 l
-0.69 0 l
-0.68 0 l
-0.68 0 l
-0.68 0 l
-0.68 0 l
-0.68 0 l
-0.68 0 l
-0.68 0 l
-0.69 0 l
-0.68 0 l
-0.68 0 l
-0.68 0 l
-0.68 0 l
-0.68 0 l
-0.68 0 l
-0.68 0 l
-0.69 0 l
-0.68 0 l
-0.68 0 l
-0.68 0 l
-0.68 0 l
-0.68 0 l
-0.68 0 l
-0.68 0 l
-0.69 0 l
-0.68 0 l
-0.68 0 l
-0.68 0 l
-0.68 0 l
-0.68 0 l
273.12 43.71 lineto
-0.68 0 l
-0.69 0 l
-0.68 0 l
-0.68 0 l
-0.68 0 l
-0.68 0 l
-0.68 0 l
-0.68 0 l
-0.68 0 l
-0.69 0 l
-0.68 0 l
-0.68 0 l
-0.68 0 l
-0.68 0 l
-0.68 0 l
-0.68 0 l
-0.68 0 l
-0.69 0 l
-0.68 0 l
-0.68 0 l
-0.68 0 l
-0.68 0 l
-0.68 0 l
-0.68 0 l
-0.69 0 l
-0.68 0 l
-0.68 0 l
-0.68 0 l
-0.68 0 l
-0.68 0 l
-0.68 0 l
-0.68 0 l
-0.69 0 l
-0.68 0 l
-0.68 0 l
-0.68 0 l
-0.68 0 l
-0.68 0 l
-0.68 0 l
-0.68 0 l
-0.69 0 l
-0.68 0 l
-0.68 0 l
-0.68 0 l
-0.68 0 l
-0.68 0 l
-0.68 0 l
-0.68 0 l
-0.69 0 l
-0.68 0 l
-0.68 0 l
-0.68 0 l
-0.68 0 l
-0.68 0 l
-0.68 0 l
-0.68 0 l
-0.69 0 l
-0.68 0 l
-0.68 0 l
-0.68 0 l
-0.68 0 l
-0.68 0 l
-0.68 0 l
-0.68 0 l
-0.69 0 l
-0.68 0 l
-0.68 0 l
-0.68 0 l
-0.68 0 l
-0.68 0 l
-0.68 0 l
-0.68 0 l
-0.69 0 l
-0.68 0 l
-0.68 0 l
-0.68 0 l
-0.68 0 l
-0.68 0 l
-0.68 0 l
-0.68 0 l
-0.69 0 l
-0.68 0 l
-0.68 0 l
-0.68 0 l
-0.68 0 l
-0.68 0 l
-0.68 0 l
-0.68 0 l
-0.69 0 l
-0.68 0 l
-0.68 0 l
-0.68 0 l
-0.68 0 l
-0.68 0 l
-0.68 0 l
-0.68 0 l
-0.69 0 l
-0.68 0 l
-0.68 0 l
204.99 43.71 lineto
-0.68 0 l
-0.68 0 l
-0.68 0 l
-0.68 0 l
-0.69 0 l
-0.68 0 l
-0.68 0 l
-0.68 0 l
-0.68 0 l
-0.68 0 l
-0.68 0 l
-0.68 0 l
-0.69 0 l
-0.68 0 l
-0.68 0 l
-0.68 0 l
-0.68 0 l
-0.68 0 l
-0.68 0 l
-0.68 0 l
-0.69 0 l
-0.68 0 l
-0.68 0 l
-0.68 0 l
-0.68 0 l
-0.68 0 l
-0.68 0 l
-0.69 0 l
-0.68 0 l
-0.68 0 l
-0.68 0 l
-0.68 0 l
-0.68 0 l
-0.68 0 l
-0.68 0 l
-0.69 0 l
-0.68 0 l
-0.68 0 l
-0.68 0 l
-0.68 0 l
-0.68 0 l
-0.68 0 l
-0.68 0 l
-0.69 0 l
-0.68 0 l
-0.68 0 l
-0.68 0 l
-0.68 0 l
-0.68 0 l
-0.68 0 l
-0.68 0 l
-0.69 0 l
-0.68 0 l
-0.68 0 l
-0.68 0 l
-0.68 0 l
-0.68 0 l
-0.68 0 l
-0.68 0 l
-0.69 0 l
-0.68 0 l
-0.68 0 l
-0.68 0 l
-0.68 0 l
-0.68 0 l
-0.68 0 l
-0.68 0 l
-0.69 0 l
-0.68 0 l
-0.68 0 l
-0.68 0 l
-0.68 0 l
-0.68 0 l
-0.68 0 l
-0.68 0 l
-0.69 0 l
-0.68 0 l
-0.68 0 l
-0.68 0 l
-0.68 0 l
-0.68 0 l
-0.68 0 l
-0.68 0 l
-0.69 0 l
-0.68 0 l
-0.68 0 l
-0.68 0 l
-0.68 0 l
-0.68 0 l
-0.68 0 l
-0.68 0 l
-0.69 0 l
-0.68 0 l
-0.68 0 l
-0.68 0 l
-0.68 0 l
-0.68 0 l
-0.68 0 l
-0.68 0 l
136.86 43.71 lineto
-0.68 0 l
-0.68 0 l
-0.68 0 l
-0.68 0 l
-0.68 0 l
-0.68 0 l
-0.68 0 l
-0.69 0 l
-0.68 0 l
-0.68 0 l
-0.68 0 l
-0.68 0 l
-0.68 0 l
-0.68 0 l
-0.68 0 l
-0.69 0 l
-0.68 0 l
-0.68 0 l
-0.68 0 l
-0.68 0 l
-0.68 0 l
-0.68 0 l
-0.68 0 l
-0.69 0 l
-0.68 0 l
-0.68 0 l
-0.68 0 l
-0.68 0 l
-0.68 0 l
-0.68 0 l
-0.69 0 l
-0.68 0 l
-0.68 0 l
-0.68 0 l
-0.68 0 l
-0.68 0 l
-0.68 0 l
-0.68 0 l
-0.69 0 l
-0.68 0 l
-0.68 0 l
-0.68 0 l
-0.68 0 l
-0.68 0 l
-0.68 0 l
-0.68 0 l
-0.69 0 l
-0.68 0 l
-0.68 0 l
-0.68 0 l
-0.68 0 l
-0.68 0 l
-0.68 0 l
-0.68 0 l
-0.69 0 l
-0.68 0 l
-0.68 0 l
-0.68 0 l
-0.68 0 l
-0.68 0 l
-0.68 0 l
-0.68 0 l
-0.69 0 l
-0.68 0 l
-0.68 0 l
-0.68 0 l
-0.68 0 l
-0.68 0 l
-0.68 0 l
-0.68 0 l
-0.69 0 l
-0.68 0 l
-0.68 0 l
-0.68 0 l
-0.68 0 l
-0.68 0 l
-0.68 0 l
-0.68 0 l
-0.69 0 l
-0.68 0 l
-0.68 0 l
-0.68 0 l
-0.68 0 l
-0.68 0 l
-0.68 0 l
-0.68 0 l
-0.69 0 l
-0.68 0 l
-0.68 0 l
-0.68 0 l
-0.68 0 l
-0.68 0 l
-0.68 0 l
-0.68 0 l
-0.69 0 l
-0.68 0 l
-0.68 0 l
-0.68 0 l
-0.68 0 l
currentpoint o m
68.74 43.71 lineto
-0.68 0 l
-0.68 0 l
-0.69 0 l
-0.68 0 l
-0.68 0 l
-0.68 0 l
-0.68 0 l
-0.68 0 l
-0.68 0 l
-0.68 0 l
-0.69 0 l
-0.68 0 l
-0.68 0 l
-0.68 0 l
-0.68 0 l
-0.68 0 l
-0.68 0 l
-0.68 0 l
-0.69 0 l
-0.68 0 l
-0.68 0 l
-0.68 0 l
-0.68 0 l
0 0.05 l
o
0.00 0.00 433.00 193.00 cl
0.00 0.00 433.00 193.00 cl
0.00 0.00 433.00 193.00 cl
/Font1 findfont 10 s
0.4980 0.4980 0.4980 srgb
28.58 40.12 (0) 1 0 t
28.58 65.03 (1) 1 0 t
28.58 89.95 (2) 1 0 t
28.58 114.87 (3) 1 0 t
28.58 139.78 (4) 1 0 t
28.58 164.70 (5) 1 0 t
0.00 0.00 433.00 193.00 cl
0.00 0.00 433.00 193.00 cl
0.4980 0.4980 0.4980 srgb
1.06 setlinewidth
[] 0 setdash
0 setlinecap
1 setlinejoin
10.00 setmiterlimit
np
31.41 43.71 m
4.25 0 l
o
np
31.41 68.62 m
4.25 0 l
o
np
31.41 93.54 m
4.25 0 l
o
np
31.41 118.46 m
4.25 0 l
o
np
31.41 143.37 m
4.25 0 l
o
np
31.41 168.29 m
4.25 0 l
o
0.00 0.00 433.00 193.00 cl
0.00 0.00 433.00 193.00 cl
0.00 0.00 433.00 193.00 cl
0.00 0.00 433.00 193.00 cl
0.00 0.00 433.00 193.00 cl
0.00 0.00 433.00 193.00 cl
0.4980 0.4980 0.4980 srgb
1.06 setlinewidth
[] 0 setdash
0 setlinecap
1 setlinejoin
10.00 setmiterlimit
np
128.31 33.03 m
0 4.25 l
o
np
223.56 33.03 m
0 4.25 l
o
np
318.81 33.03 m
0 4.25 l
o
np
414.05 33.03 m
0 4.25 l
o
0.00 0.00 433.00 193.00 cl
0.00 0.00 433.00 193.00 cl
/Font1 findfont 10 s
0.4980 0.4980 0.4980 srgb
128.31 23.02 (-4) .5 0 t
223.56 23.02 (0) .5 0 t
318.81 23.02 (4) .5 0 t
414.05 23.02 (8) .5 0 t
0.00 0.00 433.00 193.00 cl
0.00 0.00 433.00 193.00 cl
0.00 0.00 433.00 193.00 cl
0.00 0.00 433.00 193.00 cl
0.00 0.00 433.00 193.00 cl
0.00 0.00 433.00 193.00 cl
0.00 0.00 433.00 193.00 cl
0.00 0.00 433.00 193.00 cl
0.00 0.00 433.00 193.00 cl
0.00 0.00 433.00 193.00 cl
0.00 0.00 433.00 193.00 cl
ep
%%Trailer
%%Pages: 1
%%EOF
