%!PS-Adobe-3.0 EPSF-3.0
%%DocumentNeededResources: font Helvetica
%%+ font Helvetica-Bold
%%+ font Helvetica-Oblique
%%+ font Helvetica-BoldOblique
%%+ font Symbol
%%Title: R Graphics Output
%%Creator: R Software
%%Pages: (atend)
%%BoundingBox: 0 0 433 193
%%EndComments
%%BeginProlog
/bp  { gs sRGB gs } def
% begin .ps.prolog
/gs  { gsave } bind def
/gr  { grestore } bind def
/ep  { showpage gr gr } bind def
/m   { moveto } bind def
/l  { rlineto } bind def
/np  { newpath } bind def
/cp  { closepath } bind def
/f   { fill } bind def
/o   { stroke } bind def
/c   { newpath 0 360 arc } bind def
/r   { 4 2 roll moveto 1 copy 3 -1 roll exch 0 exch rlineto 0 rlineto -1 mul 0 exch rlineto closepath } bind def
/p1  { stroke } bind def
/p2  { gsave bg fill grestore newpath } bind def
/p3  { gsave bg fill grestore stroke } bind def
/p6  { gsave bg eofill grestore newpath } bind def
/p7  { gsave bg eofill grestore stroke } bind def
/t   { 5 -2 roll moveto gsave rotate
       1 index stringwidth pop
       mul neg 0 rmoveto show grestore } bind def
/ta  { 4 -2 roll moveto gsave rotate show } bind def
/tb  { 2 -1 roll 0 rmoveto show } bind def
/cl  { grestore gsave newpath 3 index 3 index moveto 1 index
       4 -1 roll lineto  exch 1 index lineto lineto
       closepath clip newpath } bind def
/rgb { setrgbcolor } bind def
/s   { scalefont setfont } bind def
% end   .ps.prolog
/sRGB { [ /CIEBasedABC
          << /DecodeLMN
               [ { dup 0.03928 le
                        {12.92321 div}
                        {0.055 add 1.055 div 2.4 exp }
                     ifelse
                 } bind dup dup
               ]
             /MatrixLMN [0.412457 0.212673 0.019334
                         0.357576 0.715152 0.119192
                         0.180437 0.072175 0.950301]
             /WhitePoint [0.9505 1.0 1.0890]
           >>
         ] setcolorspace } bind def
/srgb { setcolor } bind def
%%IncludeResource: font Helvetica
/Helvetica findfont
dup length dict begin
  {1 index /FID ne {def} {pop pop} ifelse} forall
  /Encoding ISOLatin1Encoding def
  currentdict
  end
/Font1 exch definefont pop
%%IncludeResource: font Helvetica-Bold
/Helvetica-Bold findfont
dup length dict begin
  {1 index /FID ne {def} {pop pop} ifelse} forall
  /Encoding ISOLatin1Encoding def
  currentdict
  end
/Font2 exch definefont pop
%%IncludeResource: font Helvetica-Oblique
/Helvetica-Oblique findfont
dup length dict begin
  {1 index /FID ne {def} {pop pop} ifelse} forall
  /Encoding ISOLatin1Encoding def
  currentdict
  end
/Font3 exch definefont pop
%%IncludeResource: font Helvetica-BoldOblique
/Helvetica-BoldOblique findfont
dup length dict begin
  {1 index /FID ne {def} {pop pop} ifelse} forall
  /Encoding ISOLatin1Encoding def
  currentdict
  end
/Font4 exch definefont pop
%%IncludeResource: font Symbol
/Symbol findfont
dup length dict begin
  {1 index /FID ne {def} {pop pop} ifelse} forall
  currentdict
  end
/Font5 exch definefont pop
%%EndProlog
%%Page: 1 1
bp
0.00 0.00 433.00 193.00 cl
0.00 0.00 433.00 193.00 cl
0.00 0.00 433.00 193.00 cl
/bg { 1 1 1 srgb } def
1 1 1 srgb
1.06 setlinewidth
[] 0 setdash
1 setlinecap
1 setlinejoin
10.00 setmiterlimit
0.00 0.00 433.00 193.00 r p3
0.00 0.00 433.00 193.00 cl
0.00 0.00 433.00 193.00 cl
0.00 0.00 433.00 193.00 cl
55.12 37.28 418.60 178.60 cl
/bg { 0.8980 0.8980 0.8980 srgb } def
55.12 37.28 363.48 141.32 r p2
0.9490 0.9490 0.9490 srgb
0.53 setlinewidth
[] 0 setdash
0 setlinecap
1 setlinejoin
10.00 setmiterlimit
np
55.12 60.73 m
363.48 0 l
o
np
55.12 94.77 m
363.48 0 l
o
np
55.12 128.81 m
363.48 0 l
o
np
55.12 162.86 m
363.48 0 l
o
np
116.98 37.28 m
0 141.32 l
o
np
208.98 37.28 m
0 141.32 l
o
np
300.98 37.28 m
0 141.32 l
o
np
392.98 37.28 m
0 141.32 l
o
1 1 1 srgb
1.06 setlinewidth
[] 0 setdash
np
55.12 43.71 m
363.48 0 l
o
np
55.12 77.75 m
363.48 0 l
o
np
55.12 111.79 m
363.48 0 l
o
np
55.12 145.84 m
363.48 0 l
o
np
70.98 37.28 m
0 141.32 l
o
np
162.98 37.28 m
0 141.32 l
o
np
254.98 37.28 m
0 141.32 l
o
np
346.98 37.28 m
0 141.32 l
o
0 0 0 srgb
1 setlinecap
np
71.64 60.52 m
0.65 1.08 l
0.65 1.11 l
0.64 1.12 l
0.65 1.15 l
0.65 1.16 l
0.64 1.18 l
0.65 1.20 l
0.65 1.21 l
0.64 1.24 l
0.65 1.27 l
0.65 1.28 l
0.64 1.32 l
0.65 1.34 l
0.65 1.40 l
0.64 1.44 l
0.65 1.48 l
0.65 1.54 l
0.64 1.60 l
0.65 1.68 l
0.65 1.76 l
0.64 1.84 l
0.65 1.92 l
0.65 2.01 l
0.64 2.10 l
0.65 2.22 l
0.65 2.31 l
0.64 2.40 l
0.65 2.48 l
0.65 2.57 l
0.64 2.66 l
0.65 2.73 l
0.65 2.77 l
0.64 2.81 l
0.65 2.83 l
0.65 2.84 l
0.64 2.80 l
0.65 2.77 l
0.65 2.69 l
0.64 2.61 l
0.65 2.49 l
0.65 2.32 l
0.64 2.14 l
0.65 1.96 l
0.65 1.76 l
0.64 1.53 l
0.65 1.24 l
0.65 0.95 l
0.64 0.69 l
0.65 0.42 l
0.65 0.14 l
0.64 -0.16 l
0.65 -0.49 l
0.65 -0.75 l
0.64 -0.99 l
0.65 -1.23 l
0.65 -1.45 l
0.64 -1.70 l
0.65 -1.86 l
0.65 -1.99 l
0.64 -2.10 l
0.65 -2.19 l
0.65 -2.25 l
0.64 -2.25 l
0.65 -2.24 l
0.65 -2.18 l
0.64 -2.11 l
0.65 -2.00 l
0.65 -1.83 l
0.64 -1.65 l
0.65 -1.47 l
0.65 -1.26 l
0.64 -1.03 l
0.65 -0.72 l
0.65 -0.45 l
0.64 -0.18 l
0.65 0.10 l
0.65 0.39 l
0.64 0.70 l
0.65 1.04 l
0.65 1.30 l
0.64 1.57 l
0.65 1.83 l
0.65 2.07 l
0.64 2.34 l
0.65 2.53 l
0.65 2.69 l
0.64 2.82 l
0.65 2.93 l
0.65 3.02 l
0.64 3.04 l
0.65 3.02 l
0.65 2.98 l
0.64 2.89 l
0.65 2.76 l
0.65 2.56 l
0.64 2.35 l
0.65 2.10 l
0.65 1.85 l
0.64 1.55 l
136.31 165.13 lineto
0.65 0.79 l
0.64 0.44 l
0.65 0.08 l
0.65 -0.29 l
0.64 -0.70 l
0.65 -1.11 l
0.64 -1.45 l
0.65 -1.79 l
0.65 -2.08 l
0.64 -2.38 l
0.65 -2.69 l
0.65 -2.89 l
0.64 -3.07 l
0.65 -3.21 l
0.65 -3.32 l
0.64 -3.40 l
0.65 -3.41 l
0.65 -3.39 l
0.64 -3.34 l
0.65 -3.24 l
0.65 -3.12 l
0.64 -2.92 l
0.65 -2.72 l
0.65 -2.50 l
0.64 -2.27 l
0.65 -2.01 l
0.65 -1.65 l
0.64 -1.35 l
0.65 -1.03 l
0.65 -0.72 l
0.64 -0.39 l
0.65 -0.02 l
0.65 0.36 l
0.64 0.68 l
0.65 1.01 l
0.65 1.32 l
0.64 1.63 l
0.65 1.99 l
0.65 2.26 l
0.64 2.51 l
0.65 2.74 l
0.65 2.95 l
0.64 3.16 l
0.65 3.32 l
0.65 3.43 l
0.64 3.51 l
0.65 3.56 l
0.65 3.57 l
0.64 3.54 l
0.65 3.46 l
0.65 3.35 l
0.64 3.21 l
0.65 3.04 l
0.65 2.77 l
0.64 2.50 l
0.65 2.23 l
0.65 1.93 l
0.64 1.61 l
0.65 1.22 l
0.65 0.81 l
0.64 0.45 l
0.65 0.08 l
0.65 -0.29 l
0.64 -0.66 l
0.65 -1.09 l
0.65 -1.43 l
0.64 -1.73 l
0.65 -2.02 l
0.65 -2.29 l
0.64 -2.57 l
0.65 -2.77 l
0.65 -2.94 l
0.64 -3.07 l
0.65 -3.16 l
0.65 -3.23 l
0.64 -3.26 l
0.65 -3.24 l
0.65 -3.19 l
0.64 -3.13 l
0.65 -3.03 l
0.65 -2.87 l
0.64 -2.72 l
0.65 -2.55 l
0.65 -2.37 l
0.64 -2.18 l
0.65 -1.94 l
0.65 -1.71 l
0.64 -1.51 l
0.65 -1.29 l
0.65 -1.09 l
0.64 -0.88 l
0.65 -0.64 l
0.65 -0.46 l
0.64 -0.30 l
0.65 -0.14 l
0.65 0 l
0.64 0.14 l
0.65 0.25 l
0.65 0.33 l
200.97 107.54 lineto
0.65 0.43 l
0.65 0.47 l
0.64 0.46 l
0.65 0.45 l
0.65 0.41 l
0.64 0.37 l
0.65 0.30 l
0.65 0.20 l
0.64 0.11 l
0.65 0 l
0.65 -0.11 l
0.64 -0.23 l
0.65 -0.38 l
0.65 -0.51 l
0.64 -0.65 l
0.65 -0.77 l
0.65 -0.90 l
0.64 -1.03 l
0.65 -1.17 l
0.65 -1.27 l
0.64 -1.37 l
0.65 -1.45 l
0.65 -1.54 l
0.64 -1.61 l
0.65 -1.67 l
0.65 -1.71 l
0.64 -1.74 l
0.65 -1.77 l
0.65 -1.77 l
0.64 -1.77 l
0.65 -1.75 l
0.65 -1.73 l
0.64 -1.71 l
0.65 -1.67 l
0.65 -1.61 l
0.64 -1.56 l
0.65 -1.50 l
0.65 -1.45 l
0.64 -1.39 l
0.65 -1.31 l
0.65 -1.24 l
0.64 -1.17 l
0.65 -1.10 l
0.64 -1.04 l
0.65 -0.96 l
0.65 -0.88 l
0.64 -0.82 l
0.65 -0.75 l
0.65 -0.69 l
0.64 -0.63 l
0.65 -0.56 l
0.65 -0.50 l
0.64 -0.44 l
0.65 -0.40 l
0.65 -0.34 l
0.64 -0.29 l
0.65 -0.25 l
0.65 -0.20 l
0.64 -0.16 l
0.65 -0.13 l
0.65 -0.10 l
0.64 -0.07 l
0.65 -0.03 l
0.65 -0.02 l
0.64 0 l
0.65 0.02 l
0.65 0.03 l
0.64 0.05 l
0.65 0.06 l
0.65 0.06 l
0.64 0.06 l
0.65 0.06 l
0.65 0.07 l
0.64 0.06 l
0.65 0.06 l
0.65 0.05 l
0.64 0.05 l
0.65 0.04 l
0.65 0.03 l
0.64 0.03 l
0.65 0.01 l
0.65 0.01 l
0.64 0 l
0.65 -0.02 l
0.65 -0.02 l
0.64 -0.03 l
0.65 -0.04 l
0.65 -0.04 l
0.64 -0.05 l
0.65 -0.06 l
0.65 -0.07 l
0.64 -0.07 l
0.65 -0.08 l
0.65 -0.08 l
0.64 -0.08 l
0.65 -0.09 l
0.65 -0.09 l
0.64 -0.10 l
0.65 -0.09 l
265.64 58.51 lineto
0.64 -0.10 l
0.65 -0.10 l
0.65 -0.10 l
0.64 -0.10 l
0.65 -0.10 l
0.65 -0.10 l
0.64 -0.10 l
0.65 -0.10 l
0.65 -0.10 l
0.64 -0.10 l
0.65 -0.09 l
0.65 -0.10 l
0.64 -0.09 l
0.65 -0.09 l
0.65 -0.08 l
0.64 -0.08 l
0.65 -0.08 l
0.65 -0.08 l
0.64 -0.07 l
0.65 -0.07 l
0.65 -0.07 l
0.64 -0.06 l
0.65 -0.06 l
0.65 -0.06 l
0.64 -0.05 l
0.65 -0.05 l
0.65 -0.05 l
0.64 -0.04 l
0.65 -0.04 l
0.65 -0.03 l
0.64 -0.03 l
0.65 -0.02 l
0.65 -0.02 l
0.64 -0.02 l
0.65 -0.01 l
0.65 0 l
0.64 0 l
0.65 0 l
0.65 0.02 l
0.64 0.01 l
0.65 0.03 l
0.65 0.03 l
0.64 0.03 l
0.65 0.04 l
0.65 0.04 l
0.64 0.05 l
0.65 0.05 l
0.65 0.05 l
0.64 0.05 l
0.65 0.06 l
0.65 0.05 l
0.64 0.06 l
0.65 0.05 l
0.65 0.05 l
0.64 0.04 l
0.65 0.04 l
0.65 0.03 l
0.64 0.03 l
0.65 0.01 l
0.65 0.01 l
0.64 0 l
0.65 -0.02 l
0.65 -0.02 l
0.64 -0.04 l
0.65 -0.04 l
0.65 -0.06 l
0.64 -0.08 l
0.65 -0.08 l
0.65 -0.09 l
0.64 -0.11 l
0.65 -0.11 l
0.65 -0.12 l
0.64 -0.13 l
0.65 -0.14 l
0.65 -0.15 l
0.64 -0.15 l
0.65 -0.15 l
0.64 -0.16 l
0.65 -0.15 l
0.65 -0.16 l
0.64 -0.16 l
0.65 -0.15 l
0.65 -0.15 l
0.64 -0.15 l
0.65 -0.13 l
0.65 -0.13 l
0.64 -0.13 l
0.65 -0.11 l
0.65 -0.11 l
0.64 -0.09 l
0.65 -0.08 l
0.65 -0.07 l
0.64 -0.06 l
0.65 -0.04 l
0.65 -0.03 l
0.64 -0.02 l
0.65 0 l
0.65 0.01 l
0.64 0.02 l
330.30 53.40 lineto
0.65 0.05 l
0.64 0.07 l
0.65 0.09 l
0.65 0.09 l
0.64 0.11 l
0.65 0.12 l
0.65 0.14 l
0.64 0.15 l
0.65 0.17 l
0.65 0.18 l
0.64 0.19 l
0.65 0.21 l
0.65 0.23 l
0.64 0.24 l
0.65 0.26 l
0.65 0.27 l
0.64 0.29 l
0.65 0.31 l
0.65 0.32 l
0.64 0.35 l
0.65 0.36 l
0.65 0.38 l
0.64 0.40 l
0.65 0.43 l
0.65 0.45 l
0.64 0.46 l
0.65 0.49 l
0.65 0.51 l
0.64 0.53 l
0.65 0.55 l
0.65 0.58 l
0.64 0.59 l
0.65 0.60 l
0.65 0.63 l
0.64 0.64 l
0.65 0.65 l
0.65 0.67 l
0.64 0.67 l
0.65 0.68 l
0.65 0.67 l
0.64 0.68 l
0.65 0.68 l
0.65 0.66 l
0.64 0.66 l
0.65 0.64 l
0.65 0.62 l
0.64 0.60 l
0.65 0.57 l
0.65 0.55 l
0.64 0.52 l
0.65 0.48 l
0.65 0.45 l
0.64 0.42 l
0.65 0.38 l
0.65 0.34 l
0.64 0.29 l
0.65 0.26 l
0.65 0.22 l
0.64 0.18 l
0.65 0.16 l
0.65 0.11 l
0.64 0.07 l
0.65 0.05 l
0.65 0.03 l
0.64 0 l
0.65 -0.02 l
0.65 -0.04 l
0.64 -0.05 l
0.65 -0.06 l
0.65 -0.07 l
0.64 -0.08 l
0.65 -0.07 l
0.65 -0.08 l
0.64 -0.07 l
0.65 -0.07 l
0.65 -0.06 l
0.64 -0.05 l
0.65 -0.04 l
0.65 -0.04 l
0.64 -0.03 l
0.65 -0.03 l
0.65 -0.02 l
0.64 -0.02 l
0.65 -0.03 l
0.65 -0.04 l
0.64 -0.04 l
0.65 -0.07 l
0.65 -0.08 l
0.64 -0.11 l
0.65 -0.14 l
0.65 -0.18 l
0.64 -0.21 l
0.65 -0.25 l
0.65 -0.32 l
0.64 -0.36 l
0.65 -0.42 l
0.65 -0.47 l
0.64 -0.52 l
0.65 -0.60 l
394.97 72.41 lineto
0.64 -0.71 l
0.65 -0.76 l
0.65 -0.81 l
0.64 -0.87 l
0.65 -0.92 l
0.65 -0.96 l
0.64 -0.98 l
0.65 -1.02 l
0.65 -1.04 l
0.64 -1.07 l
0.65 -1.06 l
0 -18.50 l
-0.65 0 l
-0.64 0 l
-0.65 0 l
-0.65 0 l
-0.64 0 l
-0.65 0 l
-0.65 0 l
-0.64 0 l
-0.65 0 l
-0.65 0 l
-0.64 0 l
-0.65 0 l
-0.65 0 l
-0.64 0 l
-0.65 0 l
-0.65 0 l
-0.64 0 l
-0.65 0 l
-0.65 0 l
-0.64 0 l
-0.65 0 l
-0.65 0 l
-0.64 0 l
-0.65 0 l
-0.65 0 l
-0.64 0 l
-0.65 0 l
-0.65 0 l
-0.64 0 l
-0.65 0 l
-0.65 0 l
-0.64 0 l
-0.65 0 l
-0.65 0 l
-0.64 0 l
-0.65 0 l
-0.65 0 l
-0.64 0 l
-0.65 0 l
-0.65 0 l
-0.64 0 l
-0.65 0 l
-0.65 0 l
-0.64 0 l
-0.65 0 l
-0.65 0 l
-0.64 0 l
-0.65 0 l
-0.65 0 l
-0.64 0 l
-0.65 0 l
-0.65 0 l
-0.64 0 l
-0.65 0 l
-0.65 0 l
-0.64 0 l
-0.65 0 l
-0.65 0 l
-0.64 0 l
-0.65 0 l
-0.65 0 l
-0.64 0 l
-0.65 0 l
-0.65 0 l
-0.64 0 l
-0.65 0 l
-0.65 0 l
-0.64 0 l
-0.65 0 l
-0.65 0 l
-0.64 0 l
-0.65 0 l
-0.65 0 l
-0.64 0 l
-0.65 0 l
-0.65 0 l
-0.64 0 l
-0.65 0 l
-0.65 0 l
-0.64 0 l
-0.65 0 l
-0.65 0 l
-0.64 0 l
-0.65 0 l
-0.65 0 l
-0.64 0 l
-0.65 0 l
345.17 43.71 lineto
-0.64 0 l
-0.65 0 l
-0.65 0 l
-0.64 0 l
-0.65 0 l
-0.65 0 l
-0.64 0 l
-0.65 0 l
-0.65 0 l
-0.64 0 l
-0.65 0 l
-0.65 0 l
-0.64 0 l
-0.65 0 l
-0.65 0 l
-0.64 0 l
-0.65 0 l
-0.65 0 l
-0.64 0 l
-0.65 0 l
-0.65 0 l
-0.64 0 l
-0.65 0 l
-0.65 0 l
-0.64 0 l
-0.65 0 l
-0.65 0 l
-0.64 0 l
-0.65 0 l
-0.65 0 l
-0.64 0 l
-0.65 0 l
-0.65 0 l
-0.64 0 l
-0.65 0 l
-0.65 0 l
-0.64 0 l
-0.65 0 l
-0.65 0 l
-0.64 0 l
-0.65 0 l
-0.65 0 l
-0.64 0 l
-0.65 0 l
-0.65 0 l
-0.64 0 l
-0.65 0 l
-0.64 0 l
-0.65 0 l
-0.65 0 l
-0.64 0 l
-0.65 0 l
-0.65 0 l
-0.64 0 l
-0.65 0 l
-0.65 0 l
-0.64 0 l
-0.65 0 l
-0.65 0 l
-0.64 0 l
-0.65 0 l
-0.65 0 l
-0.64 0 l
-0.65 0 l
-0.65 0 l
-0.64 0 l
-0.65 0 l
-0.65 0 l
-0.64 0 l
-0.65 0 l
-0.65 0 l
-0.64 0 l
-0.65 0 l
-0.65 0 l
-0.64 0 l
-0.65 0 l
-0.65 0 l
-0.64 0 l
-0.65 0 l
-0.65 0 l
-0.64 0 l
-0.65 0 l
-0.65 0 l
-0.64 0 l
-0.65 0 l
-0.65 0 l
-0.64 0 l
-0.65 0 l
-0.65 0 l
-0.64 0 l
-0.65 0 l
-0.65 0 l
-0.64 0 l
-0.65 0 l
-0.65 0 l
-0.64 0 l
-0.65 0 l
-0.65 0 l
-0.64 0 l
280.51 43.71 lineto
-0.65 0 l
-0.64 0 l
-0.65 0 l
-0.65 0 l
-0.64 0 l
-0.65 0 l
-0.65 0 l
-0.64 0 l
-0.65 0 l
-0.65 0 l
-0.64 0 l
-0.65 0 l
-0.65 0 l
-0.64 0 l
-0.65 0 l
-0.65 0 l
-0.64 0 l
-0.65 0 l
-0.65 0 l
-0.64 0 l
-0.65 0 l
-0.65 0 l
-0.64 0 l
-0.65 0 l
-0.65 0 l
-0.64 0 l
-0.65 0 l
-0.65 0 l
-0.64 0 l
-0.65 0 l
-0.65 0 l
-0.64 0 l
-0.65 0 l
-0.65 0 l
-0.64 0 l
-0.65 0 l
-0.65 0 l
-0.64 0 l
-0.65 0 l
-0.65 0 l
-0.64 0 l
-0.65 0 l
-0.65 0 l
-0.64 0 l
-0.65 0 l
-0.65 0 l
-0.64 0 l
-0.65 0 l
-0.65 0 l
-0.64 0 l
-0.65 0 l
-0.65 0 l
-0.64 0 l
-0.65 0 l
-0.65 0 l
-0.64 0 l
-0.65 0 l
-0.65 0 l
-0.64 0 l
-0.65 0 l
-0.65 0 l
-0.64 0 l
-0.65 0 l
-0.65 0 l
-0.64 0 l
-0.65 0 l
-0.65 0 l
-0.64 0 l
-0.65 0 l
-0.65 0 l
-0.64 0 l
-0.65 0 l
-0.65 0 l
-0.64 0 l
-0.65 0 l
-0.65 0 l
-0.64 0 l
-0.65 0 l
-0.65 0 l
-0.64 0 l
-0.65 0 l
-0.64 0 l
-0.65 0 l
-0.65 0 l
-0.64 0 l
-0.65 0 l
-0.65 0 l
-0.64 0 l
-0.65 0 l
-0.65 0 l
-0.64 0 l
-0.65 0 l
-0.65 0 l
-0.64 0 l
-0.65 0 l
-0.65 0 l
-0.64 0 l
-0.65 0 l
-0.65 0 l
215.85 43.71 lineto
-0.65 0 l
-0.65 0 l
-0.64 0 l
-0.65 0 l
-0.65 0 l
-0.64 0 l
-0.65 0 l
-0.65 0 l
-0.64 0 l
-0.65 0 l
-0.65 0 l
-0.64 0 l
-0.65 0 l
-0.65 0 l
-0.64 0 l
-0.65 0 l
-0.65 0 l
-0.64 0 l
-0.65 0 l
-0.65 0 l
-0.64 0 l
-0.65 0 l
-0.65 0 l
-0.64 0 l
-0.65 0 l
-0.65 0 l
-0.64 0 l
-0.65 0 l
-0.65 0 l
-0.64 0 l
-0.65 0 l
-0.65 0 l
-0.64 0 l
-0.65 0 l
-0.65 0 l
-0.64 0 l
-0.65 0 l
-0.65 0 l
-0.64 0 l
-0.65 0 l
-0.65 0 l
-0.64 0 l
-0.65 0 l
-0.65 0 l
-0.64 0 l
-0.65 0 l
-0.65 0 l
-0.64 0 l
-0.65 0 l
-0.65 0 l
-0.64 0 l
-0.65 0 l
-0.65 0 l
-0.64 0 l
-0.65 0 l
-0.65 0 l
-0.64 0 l
-0.65 0 l
-0.65 0 l
-0.64 0 l
-0.65 0 l
-0.65 0 l
-0.64 0 l
-0.65 0 l
-0.65 0 l
-0.64 0 l
-0.65 0 l
-0.65 0 l
-0.64 0 l
-0.65 0 l
-0.65 0 l
-0.64 0 l
-0.65 0 l
-0.65 0 l
-0.64 0 l
-0.65 0 l
-0.65 0 l
-0.64 0 l
-0.65 0 l
-0.65 0 l
-0.64 0 l
-0.65 0 l
-0.65 0 l
-0.64 0 l
-0.65 0 l
-0.65 0 l
-0.64 0 l
-0.65 0 l
-0.65 0 l
-0.64 0 l
-0.65 0 l
-0.65 0 l
-0.64 0 l
-0.65 0 l
-0.65 0 l
-0.64 0 l
-0.65 0 l
-0.65 0 l
-0.64 0 l
151.18 43.71 lineto
-0.65 0 l
-0.64 0 l
-0.65 0 l
-0.65 0 l
-0.64 0 l
-0.65 0 l
-0.65 0 l
-0.64 0 l
-0.65 0 l
-0.65 0 l
-0.64 0 l
-0.65 0 l
-0.65 0 l
-0.64 0 l
-0.65 0 l
-0.65 0 l
-0.64 0 l
-0.65 0 l
-0.64 0 l
-0.65 0 l
-0.65 0 l
-0.64 0 l
-0.65 0 l
-0.65 0 l
-0.64 0 l
-0.65 0 l
-0.65 0 l
-0.64 0 l
-0.65 0 l
-0.65 0 l
-0.64 0 l
-0.65 0 l
-0.65 0 l
-0.64 0 l
-0.65 0 l
-0.65 0 l
-0.64 0 l
-0.65 0 l
-0.65 0 l
-0.64 0 l
-0.65 0 l
-0.65 0 l
-0.64 0 l
-0.65 0 l
-0.65 0 l
-0.64 0 l
-0.65 0 l
-0.65 0 l
-0.64 0 l
-0.65 0 l
-0.65 0 l
-0.64 0 l
-0.65 0 l
-0.65 0 l
-0.64 0 l
-0.65 0 l
-0.65 0 l
-0.64 0 l
-0.65 0 l
-0.65 0 l
-0.64 0 l
-0.65 0 l
-0.65 0 l
-0.64 0 l
-0.65 0 l
-0.65 0 l
-0.64 0 l
-0.65 0 l
-0.65 0 l
-0.64 0 l
-0.65 0 l
-0.65 0 l
-0.64 0 l
-0.65 0 l
-0.65 0 l
-0.64 0 l
-0.65 0 l
-0.65 0 l
-0.64 0 l
-0.65 0 l
-0.65 0 l
-0.64 0 l
-0.65 0 l
-0.65 0 l
-0.64 0 l
-0.65 0 l
-0.65 0 l
-0.64 0 l
-0.65 0 l
-0.65 0 l
-0.64 0 l
-0.65 0 l
-0.65 0 l
-0.64 0 l
-0.65 0 l
-0.65 0 l
-0.64 0 l
-0.65 0 l
-0.65 0 l
currentpoint o m
86.52 43.71 lineto
-0.65 0 l
-0.65 0 l
-0.64 0 l
-0.65 0 l
-0.65 0 l
-0.64 0 l
-0.65 0 l
-0.65 0 l
-0.64 0 l
-0.65 0 l
-0.65 0 l
-0.64 0 l
-0.65 0 l
-0.65 0 l
-0.64 0 l
-0.65 0 l
-0.65 0 l
-0.64 0 l
-0.65 0 l
-0.65 0 l
-0.64 0 l
-0.65 0 l
-0.65 0 l
0 16.81 l
o
0.00 0.00 433.00 193.00 cl
0.00 0.00 433.00 193.00 cl
0.00 0.00 433.00 193.00 cl
/Font1 findfont 10 s
0.4980 0.4980 0.4980 srgb
48.04 40.12 (0.000) 1 0 t
48.04 74.16 (0.002) 1 0 t
48.04 108.20 (0.004) 1 0 t
48.04 142.25 (0.006) 1 0 t
0.00 0.00 433.00 193.00 cl
0.00 0.00 433.00 193.00 cl
0.4980 0.4980 0.4980 srgb
1.06 setlinewidth
[] 0 setdash
0 setlinecap
1 setlinejoin
10.00 setmiterlimit
np
50.87 43.71 m
4.25 0 l
o
np
50.87 77.75 m
4.25 0 l
o
np
50.87 111.79 m
4.25 0 l
o
np
50.87 145.84 m
4.25 0 l
o
0.00 0.00 433.00 193.00 cl
0.00 0.00 433.00 193.00 cl
0.00 0.00 433.00 193.00 cl
0.00 0.00 433.00 193.00 cl
0.00 0.00 433.00 193.00 cl
0.00 0.00 433.00 193.00 cl
0.4980 0.4980 0.4980 srgb
1.06 setlinewidth
[] 0 setdash
0 setlinecap
1 setlinejoin
10.00 setmiterlimit
np
70.98 33.03 m
0 4.25 l
o
np
162.98 33.03 m
0 4.25 l
o
np
254.98 33.03 m
0 4.25 l
o
np
346.98 33.03 m
0 4.25 l
o
0.00 0.00 433.00 193.00 cl
0.00 0.00 433.00 193.00 cl
/Font1 findfont 10 s
0.4980 0.4980 0.4980 srgb
70.98 23.02 (0) .5 0 t
162.98 23.02 (100) .5 0 t
254.98 23.02 (200) .5 0 t
346.98 23.02 (300) .5 0 t
0.00 0.00 433.00 193.00 cl
0.00 0.00 433.00 193.00 cl
0.00 0.00 433.00 193.00 cl
0.00 0.00 433.00 193.00 cl
0.00 0.00 433.00 193.00 cl
0.00 0.00 433.00 193.00 cl
0.00 0.00 433.00 193.00 cl
0.00 0.00 433.00 193.00 cl
0.00 0.00 433.00 193.00 cl
0.00 0.00 433.00 193.00 cl
0.00 0.00 433.00 193.00 cl
ep
%%Trailer
%%Pages: 1
%%EOF
