%!PS-Adobe-3.0 EPSF-3.0
%%DocumentNeededResources: font Helvetica
%%+ font Helvetica-Bold
%%+ font Helvetica-Oblique
%%+ font Helvetica-BoldOblique
%%+ font Symbol
%%Title: R Graphics Output
%%Creator: R Software
%%Pages: (atend)
%%BoundingBox: 0 0 433 193
%%EndComments
%%BeginProlog
/bp  { gs sRGB gs } def
% begin .ps.prolog
/gs  { gsave } bind def
/gr  { grestore } bind def
/ep  { showpage gr gr } bind def
/m   { moveto } bind def
/l  { rlineto } bind def
/np  { newpath } bind def
/cp  { closepath } bind def
/f   { fill } bind def
/o   { stroke } bind def
/c   { newpath 0 360 arc } bind def
/r   { 4 2 roll moveto 1 copy 3 -1 roll exch 0 exch rlineto 0 rlineto -1 mul 0 exch rlineto closepath } bind def
/p1  { stroke } bind def
/p2  { gsave bg fill grestore newpath } bind def
/p3  { gsave bg fill grestore stroke } bind def
/p6  { gsave bg eofill grestore newpath } bind def
/p7  { gsave bg eofill grestore stroke } bind def
/t   { 5 -2 roll moveto gsave rotate
       1 index stringwidth pop
       mul neg 0 rmoveto show grestore } bind def
/ta  { 4 -2 roll moveto gsave rotate show } bind def
/tb  { 2 -1 roll 0 rmoveto show } bind def
/cl  { grestore gsave newpath 3 index 3 index moveto 1 index
       4 -1 roll lineto  exch 1 index lineto lineto
       closepath clip newpath } bind def
/rgb { setrgbcolor } bind def
/s   { scalefont setfont } bind def
% end   .ps.prolog
/sRGB { [ /CIEBasedABC
          << /DecodeLMN
               [ { dup 0.03928 le
                        {12.92321 div}
                        {0.055 add 1.055 div 2.4 exp }
                     ifelse
                 } bind dup dup
               ]
             /MatrixLMN [0.412457 0.212673 0.019334
                         0.357576 0.715152 0.119192
                         0.180437 0.072175 0.950301]
             /WhitePoint [0.9505 1.0 1.0890]
           >>
         ] setcolorspace } bind def
/srgb { setcolor } bind def
%%IncludeResource: font Helvetica
/Helvetica findfont
dup length dict begin
  {1 index /FID ne {def} {pop pop} ifelse} forall
  /Encoding ISOLatin1Encoding def
  currentdict
  end
/Font1 exch definefont pop
%%IncludeResource: font Helvetica-Bold
/Helvetica-Bold findfont
dup length dict begin
  {1 index /FID ne {def} {pop pop} ifelse} forall
  /Encoding ISOLatin1Encoding def
  currentdict
  end
/Font2 exch definefont pop
%%IncludeResource: font Helvetica-Oblique
/Helvetica-Oblique findfont
dup length dict begin
  {1 index /FID ne {def} {pop pop} ifelse} forall
  /Encoding ISOLatin1Encoding def
  currentdict
  end
/Font3 exch definefont pop
%%IncludeResource: font Helvetica-BoldOblique
/Helvetica-BoldOblique findfont
dup length dict begin
  {1 index /FID ne {def} {pop pop} ifelse} forall
  /Encoding ISOLatin1Encoding def
  currentdict
  end
/Font4 exch definefont pop
%%IncludeResource: font Symbol
/Symbol findfont
dup length dict begin
  {1 index /FID ne {def} {pop pop} ifelse} forall
  currentdict
  end
/Font5 exch definefont pop
%%EndProlog
%%Page: 1 1
bp
0.00 0.00 433.00 193.00 cl
0.00 0.00 433.00 193.00 cl
0.00 0.00 433.00 193.00 cl
/bg { 1 1 1 srgb } def
1 1 1 srgb
1.06 setlinewidth
[] 0 setdash
1 setlinecap
1 setlinejoin
10.00 setmiterlimit
0.00 0.00 433.00 193.00 r p3
0.00 0.00 433.00 193.00 cl
0.00 0.00 433.00 193.00 cl
0.00 0.00 433.00 193.00 cl
55.12 37.28 418.60 178.60 cl
/bg { 0.8980 0.8980 0.8980 srgb } def
55.12 37.28 363.48 141.32 r p2
0.9490 0.9490 0.9490 srgb
0.53 setlinewidth
[] 0 setdash
0 setlinecap
1 setlinejoin
10.00 setmiterlimit
np
55.12 58.92 m
363.48 0 l
o
np
55.12 89.34 m
363.48 0 l
o
np
55.12 119.76 m
363.48 0 l
o
np
55.12 150.19 m
363.48 0 l
o
np
112.95 37.28 m
0 141.32 l
o
np
195.56 37.28 m
0 141.32 l
o
np
278.17 37.28 m
0 141.32 l
o
np
360.77 37.28 m
0 141.32 l
o
1 1 1 srgb
1.06 setlinewidth
[] 0 setdash
np
55.12 43.71 m
363.48 0 l
o
np
55.12 74.13 m
363.48 0 l
o
np
55.12 104.55 m
363.48 0 l
o
np
55.12 134.97 m
363.48 0 l
o
np
55.12 165.40 m
363.48 0 l
o
np
71.64 37.28 m
0 141.32 l
o
np
154.25 37.28 m
0 141.32 l
o
np
236.86 37.28 m
0 141.32 l
o
np
319.47 37.28 m
0 141.32 l
o
np
402.08 37.28 m
0 141.32 l
o
0 0 0 srgb
1 setlinecap
np
71.64 102.47 m
0.65 2.08 l
0.65 2.07 l
0.64 2.07 l
0.65 2.06 l
0.65 2.05 l
0.64 2.03 l
0.65 2.02 l
0.65 2.00 l
0.64 1.97 l
0.65 1.95 l
0.65 1.91 l
0.64 1.88 l
0.65 1.84 l
0.65 1.80 l
0.64 1.77 l
0.65 1.71 l
0.65 1.66 l
0.64 1.63 l
0.65 1.58 l
0.65 1.50 l
0.64 1.47 l
0.65 1.41 l
0.65 1.36 l
0.64 1.30 l
0.65 1.24 l
0.65 1.19 l
0.64 1.14 l
0.65 1.07 l
0.65 1.02 l
0.64 0.97 l
0.65 0.91 l
0.65 0.85 l
0.64 0.81 l
0.65 0.76 l
0.65 0.70 l
0.64 0.65 l
0.65 0.61 l
0.65 0.57 l
0.64 0.51 l
0.65 0.48 l
0.65 0.44 l
0.64 0.40 l
0.65 0.35 l
0.65 0.33 l
0.64 0.30 l
0.65 0.26 l
0.65 0.23 l
0.64 0.21 l
0.65 0.19 l
0.65 0.15 l
0.64 0.14 l
0.65 0.12 l
0.65 0.10 l
0.64 0.09 l
0.65 0.07 l
0.65 0.06 l
0.64 0.05 l
0.65 0.03 l
0.65 0.03 l
0.64 0.03 l
0.65 0.01 l
0.65 0.02 l
0.64 0.01 l
0.65 0 l
0.65 0.01 l
0.64 0 l
0.65 0 l
0.65 0 l
0.64 0.01 l
0.65 0 l
0.65 0.01 l
0.64 0 l
0.65 0.01 l
0.65 0.01 l
0.64 0.01 l
0.65 0.02 l
0.65 0.01 l
0.64 0.02 l
0.65 0.02 l
0.65 0.01 l
0.64 0.02 l
0.65 0.02 l
0.65 0.02 l
0.64 0.02 l
0.65 0.02 l
0.65 0.01 l
0.64 0.02 l
0.65 0.01 l
0.65 0.01 l
0.64 0 l
0.65 0 l
0.65 0 l
0.64 -0.01 l
0.65 -0.01 l
0.65 -0.02 l
0.64 -0.02 l
0.65 -0.02 l
0.65 -0.04 l
0.64 -0.04 l
136.31 162.78 lineto
0.65 -0.05 l
0.64 -0.05 l
0.65 -0.06 l
0.65 -0.07 l
0.64 -0.07 l
0.65 -0.08 l
0.64 -0.08 l
0.65 -0.08 l
0.65 -0.08 l
0.64 -0.10 l
0.65 -0.09 l
0.65 -0.09 l
0.64 -0.10 l
0.65 -0.10 l
0.65 -0.09 l
0.64 -0.10 l
0.65 -0.10 l
0.65 -0.09 l
0.64 -0.09 l
0.65 -0.09 l
0.65 -0.09 l
0.64 -0.08 l
0.65 -0.08 l
0.65 -0.07 l
0.64 -0.07 l
0.65 -0.06 l
0.65 -0.06 l
0.64 -0.05 l
0.65 -0.04 l
0.65 -0.03 l
0.64 -0.03 l
0.65 -0.02 l
0.65 0 l
0.64 -0.01 l
0.65 0.01 l
0.65 0.01 l
0.64 0.03 l
0.65 0.03 l
0.65 0.03 l
0.64 0.05 l
0.65 0.06 l
0.65 0.06 l
0.64 0.07 l
0.65 0.08 l
0.65 0.08 l
0.64 0.09 l
0.65 0.10 l
0.65 0.10 l
0.64 0.11 l
0.65 0.12 l
0.65 0.12 l
0.64 0.13 l
0.65 0.13 l
0.65 0.14 l
0.64 0.14 l
0.65 0.15 l
0.65 0.15 l
0.64 0.15 l
0.65 0.16 l
0.65 0.16 l
0.64 0.17 l
0.65 0.17 l
0.65 0.18 l
0.64 0.17 l
0.65 0.19 l
0.65 0.18 l
0.64 0.19 l
0.65 0.19 l
0.65 0.20 l
0.64 0.20 l
0.65 0.20 l
0.65 0.21 l
0.64 0.20 l
0.65 0.22 l
0.65 0.21 l
0.64 0.22 l
0.65 0.22 l
0.65 0.23 l
0.64 0.23 l
0.65 0.23 l
0.65 0.23 l
0.64 0.23 l
0.65 0.23 l
0.65 0.24 l
0.64 0.23 l
0.65 0.24 l
0.65 0.23 l
0.64 0.23 l
0.65 0.23 l
0.65 0.23 l
0.64 0.23 l
0.65 0.22 l
0.65 0.21 l
0.64 0.21 l
0.65 0.21 l
0.65 0.20 l
0.64 0.18 l
0.65 0.19 l
0.65 0.17 l
200.97 171.20 lineto
0.65 0.15 l
0.65 0.14 l
0.64 0.13 l
0.65 0.12 l
0.65 0.10 l
0.64 0.09 l
0.65 0.08 l
0.65 0.06 l
0.64 0.05 l
0.65 0.03 l
0.65 0.02 l
0.64 0.01 l
0.65 -0.01 l
0.65 -0.02 l
0.64 -0.04 l
0.65 -0.05 l
0.65 -0.06 l
0.64 -0.07 l
0.65 -0.09 l
0.65 -0.10 l
0.64 -0.11 l
0.65 -0.12 l
0.65 -0.13 l
0.64 -0.13 l
0.65 -0.15 l
0.65 -0.15 l
0.64 -0.15 l
0.65 -0.17 l
0.65 -0.16 l
0.64 -0.17 l
0.65 -0.17 l
0.65 -0.18 l
0.64 -0.17 l
0.65 -0.17 l
0.65 -0.17 l
0.64 -0.18 l
0.65 -0.16 l
0.65 -0.17 l
0.64 -0.16 l
0.65 -0.16 l
0.65 -0.15 l
0.64 -0.15 l
0.65 -0.14 l
0.64 -0.14 l
0.65 -0.13 l
0.65 -0.12 l
0.64 -0.12 l
0.65 -0.12 l
0.65 -0.10 l
0.64 -0.10 l
0.65 -0.09 l
0.65 -0.09 l
0.64 -0.07 l
0.65 -0.07 l
0.65 -0.07 l
0.64 -0.06 l
0.65 -0.06 l
0.65 -0.04 l
0.64 -0.05 l
0.65 -0.04 l
0.65 -0.03 l
0.64 -0.03 l
0.65 -0.02 l
0.65 -0.02 l
0.64 -0.02 l
0.65 -0.01 l
0.65 -0.01 l
0.64 -0.01 l
0.65 -0.01 l
0.65 0 l
0.64 0 l
0.65 0.01 l
0.65 0 l
0.64 0.01 l
0.65 0 l
0.65 0.01 l
0.64 0.01 l
0.65 0.01 l
0.65 0.02 l
0.64 0.01 l
0.65 0.01 l
0.65 0.02 l
0.64 0.01 l
0.65 0.01 l
0.65 0.02 l
0.64 0.01 l
0.65 0.02 l
0.65 0.01 l
0.64 0.02 l
0.65 0.01 l
0.65 0.02 l
0.64 0.01 l
0.65 0.01 l
0.65 0.01 l
0.64 0.01 l
0.65 0.01 l
0.65 0.01 l
0.64 0.01 l
0.65 0.01 l
265.64 166.86 lineto
0.64 0.01 l
0.65 0 l
0.65 0 l
0.64 0 l
0.65 0 l
0.65 -0.01 l
0.64 0 l
0.65 -0.01 l
0.65 -0.01 l
0.64 -0.01 l
0.65 -0.02 l
0.65 -0.01 l
0.64 -0.02 l
0.65 -0.02 l
0.65 -0.03 l
0.64 -0.02 l
0.65 -0.03 l
0.65 -0.03 l
0.64 -0.03 l
0.65 -0.04 l
0.65 -0.04 l
0.64 -0.04 l
0.65 -0.04 l
0.65 -0.04 l
0.64 -0.05 l
0.65 -0.04 l
0.65 -0.05 l
0.64 -0.05 l
0.65 -0.05 l
0.65 -0.05 l
0.64 -0.06 l
0.65 -0.05 l
0.65 -0.06 l
0.64 -0.05 l
0.65 -0.06 l
0.65 -0.05 l
0.64 -0.06 l
0.65 -0.06 l
0.65 -0.05 l
0.64 -0.06 l
0.65 -0.05 l
0.65 -0.06 l
0.64 -0.05 l
0.65 -0.05 l
0.65 -0.06 l
0.64 -0.05 l
0.65 -0.05 l
0.65 -0.05 l
0.64 -0.04 l
0.65 -0.05 l
0.65 -0.05 l
0.64 -0.04 l
0.65 -0.05 l
0.65 -0.04 l
0.64 -0.05 l
0.65 -0.04 l
0.65 -0.04 l
0.64 -0.04 l
0.65 -0.05 l
0.65 -0.04 l
0.64 -0.04 l
0.65 -0.04 l
0.65 -0.04 l
0.64 -0.04 l
0.65 -0.04 l
0.65 -0.04 l
0.64 -0.04 l
0.65 -0.04 l
0.65 -0.04 l
0.64 -0.04 l
0.65 -0.04 l
0.65 -0.04 l
0.64 -0.04 l
0.65 -0.03 l
0.65 -0.04 l
0.64 -0.04 l
0.65 -0.03 l
0.64 -0.04 l
0.65 -0.03 l
0.65 -0.03 l
0.64 -0.03 l
0.65 -0.03 l
0.65 -0.03 l
0.64 -0.02 l
0.65 -0.02 l
0.65 -0.02 l
0.64 -0.01 l
0.65 -0.02 l
0.65 0 l
0.64 -0.01 l
0.65 0 l
0.65 0 l
0.64 0.01 l
0.65 0.01 l
0.65 0.01 l
0.64 0.02 l
0.65 0.02 l
0.65 0.03 l
0.64 0.03 l
330.30 163.83 lineto
0.65 0.04 l
0.64 0.04 l
0.65 0.05 l
0.65 0.05 l
0.64 0.05 l
0.65 0.06 l
0.65 0.06 l
0.64 0.07 l
0.65 0.06 l
0.65 0.07 l
0.64 0.07 l
0.65 0.07 l
0.65 0.08 l
0.64 0.08 l
0.65 0.08 l
0.65 0.08 l
0.64 0.08 l
0.65 0.09 l
0.65 0.08 l
0.64 0.09 l
0.65 0.08 l
0.65 0.09 l
0.64 0.09 l
0.65 0.09 l
0.65 0.09 l
0.64 0.09 l
0.65 0.09 l
0.65 0.09 l
0.64 0.09 l
0.65 0.09 l
0.65 0.09 l
0.64 0.09 l
0.65 0.09 l
0.65 0.09 l
0.64 0.09 l
0.65 0.09 l
0.65 0.09 l
0.64 0.09 l
0.65 0.09 l
0.65 0.08 l
0.64 0.08 l
0.65 0.09 l
0.65 0.07 l
0.64 0.08 l
0.65 0.07 l
0.65 0.06 l
0.64 0.06 l
0.65 0.05 l
0.65 0.05 l
0.64 0.04 l
0.65 0.02 l
0.65 0.02 l
0.64 0 l
0.65 0 l
0.65 -0.03 l
0.64 -0.04 l
0.65 -0.05 l
0.65 -0.07 l
0.64 -0.10 l
0.65 -0.12 l
0.65 -0.14 l
0.64 -0.16 l
0.65 -0.20 l
0.65 -0.22 l
0.64 -0.25 l
0.65 -0.29 l
0.65 -0.32 l
0.64 -0.36 l
0.65 -0.38 l
0.65 -0.44 l
0.64 -0.47 l
0.65 -0.52 l
0.65 -0.55 l
0.64 -0.61 l
0.65 -0.66 l
0.65 -0.70 l
0.64 -0.74 l
0.65 -0.81 l
0.65 -0.86 l
0.64 -0.90 l
0.65 -0.96 l
0.65 -1.03 l
0.64 -1.07 l
0.65 -1.13 l
0.65 -1.19 l
0.64 -1.24 l
0.65 -1.30 l
0.65 -1.35 l
0.64 -1.42 l
0.65 -1.47 l
0.65 -1.52 l
0.64 -1.57 l
0.65 -1.64 l
0.65 -1.68 l
0.64 -1.72 l
0.65 -1.77 l
0.65 -1.83 l
0.64 -1.86 l
0.65 -1.90 l
394.97 128.06 lineto
0.64 -1.98 l
0.65 -2.01 l
0.65 -2.03 l
0.64 -2.07 l
0.65 -2.09 l
0.65 -2.10 l
0.64 -2.12 l
0.65 -2.14 l
0.65 -2.14 l
0.64 -2.14 l
0.65 -2.15 l
0 -61.38 l
-0.65 0 l
-0.64 0 l
-0.65 0 l
-0.65 0 l
-0.64 0 l
-0.65 0 l
-0.65 0 l
-0.64 0 l
-0.65 0 l
-0.65 0 l
-0.64 0 l
-0.65 0 l
-0.65 0 l
-0.64 0 l
-0.65 0 l
-0.65 0 l
-0.64 0 l
-0.65 0 l
-0.65 0 l
-0.64 0 l
-0.65 0 l
-0.65 0 l
-0.64 0 l
-0.65 0 l
-0.65 0 l
-0.64 0 l
-0.65 0 l
-0.65 0 l
-0.64 0 l
-0.65 0 l
-0.65 0 l
-0.64 0 l
-0.65 0 l
-0.65 0 l
-0.64 0 l
-0.65 0 l
-0.65 0 l
-0.64 0 l
-0.65 0 l
-0.65 0 l
-0.64 0 l
-0.65 0 l
-0.65 0 l
-0.64 0 l
-0.65 0 l
-0.65 0 l
-0.64 0 l
-0.65 0 l
-0.65 0 l
-0.64 0 l
-0.65 0 l
-0.65 0 l
-0.64 0 l
-0.65 0 l
-0.65 0 l
-0.64 0 l
-0.65 0 l
-0.65 0 l
-0.64 0 l
-0.65 0 l
-0.65 0 l
-0.64 0 l
-0.65 0 l
-0.65 0 l
-0.64 0 l
-0.65 0 l
-0.65 0 l
-0.64 0 l
-0.65 0 l
-0.65 0 l
-0.64 0 l
-0.65 0 l
-0.65 0 l
-0.64 0 l
-0.65 0 l
-0.65 0 l
-0.64 0 l
-0.65 0 l
-0.65 0 l
-0.64 0 l
-0.65 0 l
-0.65 0 l
-0.64 0 l
-0.65 0 l
-0.65 0 l
-0.64 0 l
-0.65 0 l
345.17 43.71 lineto
-0.64 0 l
-0.65 0 l
-0.65 0 l
-0.64 0 l
-0.65 0 l
-0.65 0 l
-0.64 0 l
-0.65 0 l
-0.65 0 l
-0.64 0 l
-0.65 0 l
-0.65 0 l
-0.64 0 l
-0.65 0 l
-0.65 0 l
-0.64 0 l
-0.65 0 l
-0.65 0 l
-0.64 0 l
-0.65 0 l
-0.65 0 l
-0.64 0 l
-0.65 0 l
-0.65 0 l
-0.64 0 l
-0.65 0 l
-0.65 0 l
-0.64 0 l
-0.65 0 l
-0.65 0 l
-0.64 0 l
-0.65 0 l
-0.65 0 l
-0.64 0 l
-0.65 0 l
-0.65 0 l
-0.64 0 l
-0.65 0 l
-0.65 0 l
-0.64 0 l
-0.65 0 l
-0.65 0 l
-0.64 0 l
-0.65 0 l
-0.65 0 l
-0.64 0 l
-0.65 0 l
-0.64 0 l
-0.65 0 l
-0.65 0 l
-0.64 0 l
-0.65 0 l
-0.65 0 l
-0.64 0 l
-0.65 0 l
-0.65 0 l
-0.64 0 l
-0.65 0 l
-0.65 0 l
-0.64 0 l
-0.65 0 l
-0.65 0 l
-0.64 0 l
-0.65 0 l
-0.65 0 l
-0.64 0 l
-0.65 0 l
-0.65 0 l
-0.64 0 l
-0.65 0 l
-0.65 0 l
-0.64 0 l
-0.65 0 l
-0.65 0 l
-0.64 0 l
-0.65 0 l
-0.65 0 l
-0.64 0 l
-0.65 0 l
-0.65 0 l
-0.64 0 l
-0.65 0 l
-0.65 0 l
-0.64 0 l
-0.65 0 l
-0.65 0 l
-0.64 0 l
-0.65 0 l
-0.65 0 l
-0.64 0 l
-0.65 0 l
-0.65 0 l
-0.64 0 l
-0.65 0 l
-0.65 0 l
-0.64 0 l
-0.65 0 l
-0.65 0 l
-0.64 0 l
280.51 43.71 lineto
-0.65 0 l
-0.64 0 l
-0.65 0 l
-0.65 0 l
-0.64 0 l
-0.65 0 l
-0.65 0 l
-0.64 0 l
-0.65 0 l
-0.65 0 l
-0.64 0 l
-0.65 0 l
-0.65 0 l
-0.64 0 l
-0.65 0 l
-0.65 0 l
-0.64 0 l
-0.65 0 l
-0.65 0 l
-0.64 0 l
-0.65 0 l
-0.65 0 l
-0.64 0 l
-0.65 0 l
-0.65 0 l
-0.64 0 l
-0.65 0 l
-0.65 0 l
-0.64 0 l
-0.65 0 l
-0.65 0 l
-0.64 0 l
-0.65 0 l
-0.65 0 l
-0.64 0 l
-0.65 0 l
-0.65 0 l
-0.64 0 l
-0.65 0 l
-0.65 0 l
-0.64 0 l
-0.65 0 l
-0.65 0 l
-0.64 0 l
-0.65 0 l
-0.65 0 l
-0.64 0 l
-0.65 0 l
-0.65 0 l
-0.64 0 l
-0.65 0 l
-0.65 0 l
-0.64 0 l
-0.65 0 l
-0.65 0 l
-0.64 0 l
-0.65 0 l
-0.65 0 l
-0.64 0 l
-0.65 0 l
-0.65 0 l
-0.64 0 l
-0.65 0 l
-0.65 0 l
-0.64 0 l
-0.65 0 l
-0.65 0 l
-0.64 0 l
-0.65 0 l
-0.65 0 l
-0.64 0 l
-0.65 0 l
-0.65 0 l
-0.64 0 l
-0.65 0 l
-0.65 0 l
-0.64 0 l
-0.65 0 l
-0.65 0 l
-0.64 0 l
-0.65 0 l
-0.64 0 l
-0.65 0 l
-0.65 0 l
-0.64 0 l
-0.65 0 l
-0.65 0 l
-0.64 0 l
-0.65 0 l
-0.65 0 l
-0.64 0 l
-0.65 0 l
-0.65 0 l
-0.64 0 l
-0.65 0 l
-0.65 0 l
-0.64 0 l
-0.65 0 l
-0.65 0 l
215.85 43.71 lineto
-0.65 0 l
-0.65 0 l
-0.64 0 l
-0.65 0 l
-0.65 0 l
-0.64 0 l
-0.65 0 l
-0.65 0 l
-0.64 0 l
-0.65 0 l
-0.65 0 l
-0.64 0 l
-0.65 0 l
-0.65 0 l
-0.64 0 l
-0.65 0 l
-0.65 0 l
-0.64 0 l
-0.65 0 l
-0.65 0 l
-0.64 0 l
-0.65 0 l
-0.65 0 l
-0.64 0 l
-0.65 0 l
-0.65 0 l
-0.64 0 l
-0.65 0 l
-0.65 0 l
-0.64 0 l
-0.65 0 l
-0.65 0 l
-0.64 0 l
-0.65 0 l
-0.65 0 l
-0.64 0 l
-0.65 0 l
-0.65 0 l
-0.64 0 l
-0.65 0 l
-0.65 0 l
-0.64 0 l
-0.65 0 l
-0.65 0 l
-0.64 0 l
-0.65 0 l
-0.65 0 l
-0.64 0 l
-0.65 0 l
-0.65 0 l
-0.64 0 l
-0.65 0 l
-0.65 0 l
-0.64 0 l
-0.65 0 l
-0.65 0 l
-0.64 0 l
-0.65 0 l
-0.65 0 l
-0.64 0 l
-0.65 0 l
-0.65 0 l
-0.64 0 l
-0.65 0 l
-0.65 0 l
-0.64 0 l
-0.65 0 l
-0.65 0 l
-0.64 0 l
-0.65 0 l
-0.65 0 l
-0.64 0 l
-0.65 0 l
-0.65 0 l
-0.64 0 l
-0.65 0 l
-0.65 0 l
-0.64 0 l
-0.65 0 l
-0.65 0 l
-0.64 0 l
-0.65 0 l
-0.65 0 l
-0.64 0 l
-0.65 0 l
-0.65 0 l
-0.64 0 l
-0.65 0 l
-0.65 0 l
-0.64 0 l
-0.65 0 l
-0.65 0 l
-0.64 0 l
-0.65 0 l
-0.65 0 l
-0.64 0 l
-0.65 0 l
-0.65 0 l
-0.64 0 l
151.18 43.71 lineto
-0.65 0 l
-0.64 0 l
-0.65 0 l
-0.65 0 l
-0.64 0 l
-0.65 0 l
-0.65 0 l
-0.64 0 l
-0.65 0 l
-0.65 0 l
-0.64 0 l
-0.65 0 l
-0.65 0 l
-0.64 0 l
-0.65 0 l
-0.65 0 l
-0.64 0 l
-0.65 0 l
-0.64 0 l
-0.65 0 l
-0.65 0 l
-0.64 0 l
-0.65 0 l
-0.65 0 l
-0.64 0 l
-0.65 0 l
-0.65 0 l
-0.64 0 l
-0.65 0 l
-0.65 0 l
-0.64 0 l
-0.65 0 l
-0.65 0 l
-0.64 0 l
-0.65 0 l
-0.65 0 l
-0.64 0 l
-0.65 0 l
-0.65 0 l
-0.64 0 l
-0.65 0 l
-0.65 0 l
-0.64 0 l
-0.65 0 l
-0.65 0 l
-0.64 0 l
-0.65 0 l
-0.65 0 l
-0.64 0 l
-0.65 0 l
-0.65 0 l
-0.64 0 l
-0.65 0 l
-0.65 0 l
-0.64 0 l
-0.65 0 l
-0.65 0 l
-0.64 0 l
-0.65 0 l
-0.65 0 l
-0.64 0 l
-0.65 0 l
-0.65 0 l
-0.64 0 l
-0.65 0 l
-0.65 0 l
-0.64 0 l
-0.65 0 l
-0.65 0 l
-0.64 0 l
-0.65 0 l
-0.65 0 l
-0.64 0 l
-0.65 0 l
-0.65 0 l
-0.64 0 l
-0.65 0 l
-0.65 0 l
-0.64 0 l
-0.65 0 l
-0.65 0 l
-0.64 0 l
-0.65 0 l
-0.65 0 l
-0.64 0 l
-0.65 0 l
-0.65 0 l
-0.64 0 l
-0.65 0 l
-0.65 0 l
-0.64 0 l
-0.65 0 l
-0.65 0 l
-0.64 0 l
-0.65 0 l
-0.65 0 l
-0.64 0 l
-0.65 0 l
-0.65 0 l
currentpoint o m
86.52 43.71 lineto
-0.65 0 l
-0.65 0 l
-0.64 0 l
-0.65 0 l
-0.65 0 l
-0.64 0 l
-0.65 0 l
-0.65 0 l
-0.64 0 l
-0.65 0 l
-0.65 0 l
-0.64 0 l
-0.65 0 l
-0.65 0 l
-0.64 0 l
-0.65 0 l
-0.65 0 l
-0.64 0 l
-0.65 0 l
-0.65 0 l
-0.64 0 l
-0.65 0 l
-0.65 0 l
0 58.76 l
o
0.00 0.00 433.00 193.00 cl
0.00 0.00 433.00 193.00 cl
0.00 0.00 433.00 193.00 cl
/Font1 findfont 10 s
0.4980 0.4980 0.4980 srgb
48.04 40.12 (0.000) 1 0 t
48.04 70.54 (0.025) 1 0 t
48.04 100.96 (0.050) 1 0 t
48.04 131.38 (0.075) 1 0 t
48.04 161.81 (0.100) 1 0 t
0.00 0.00 433.00 193.00 cl
0.00 0.00 433.00 193.00 cl
0.4980 0.4980 0.4980 srgb
1.06 setlinewidth
[] 0 setdash
0 setlinecap
1 setlinejoin
10.00 setmiterlimit
np
50.87 43.71 m
4.25 0 l
o
np
50.87 74.13 m
4.25 0 l
o
np
50.87 104.55 m
4.25 0 l
o
np
50.87 134.97 m
4.25 0 l
o
np
50.87 165.40 m
4.25 0 l
o
0.00 0.00 433.00 193.00 cl
0.00 0.00 433.00 193.00 cl
0.00 0.00 433.00 193.00 cl
0.00 0.00 433.00 193.00 cl
0.00 0.00 433.00 193.00 cl
0.00 0.00 433.00 193.00 cl
0.4980 0.4980 0.4980 srgb
1.06 setlinewidth
[] 0 setdash
0 setlinecap
1 setlinejoin
10.00 setmiterlimit
np
71.64 33.03 m
0 4.25 l
o
np
154.25 33.03 m
0 4.25 l
o
np
236.86 33.03 m
0 4.25 l
o
np
319.47 33.03 m
0 4.25 l
o
np
402.08 33.03 m
0 4.25 l
o
0.00 0.00 433.00 193.00 cl
0.00 0.00 433.00 193.00 cl
/Font1 findfont 10 s
0.4980 0.4980 0.4980 srgb
71.64 23.02 (-5.0) .5 0 t
154.25 23.02 (-2.5) .5 0 t
236.86 23.02 (0.0) .5 0 t
319.47 23.02 (2.5) .5 0 t
402.08 23.02 (5.0) .5 0 t
0.00 0.00 433.00 193.00 cl
0.00 0.00 433.00 193.00 cl
0.00 0.00 433.00 193.00 cl
0.00 0.00 433.00 193.00 cl
0.00 0.00 433.00 193.00 cl
0.00 0.00 433.00 193.00 cl
0.00 0.00 433.00 193.00 cl
0.00 0.00 433.00 193.00 cl
0.00 0.00 433.00 193.00 cl
0.00 0.00 433.00 193.00 cl
0.00 0.00 433.00 193.00 cl
ep
%%Trailer
%%Pages: 1
%%EOF
