%!PS-Adobe-3.0 EPSF-3.0
%%DocumentNeededResources: font Helvetica
%%+ font Helvetica-Bold
%%+ font Helvetica-Oblique
%%+ font Helvetica-BoldOblique
%%+ font Symbol
%%Title: R Graphics Output
%%Creator: R Software
%%Pages: (atend)
%%BoundingBox: 0 0 433 193
%%EndComments
%%BeginProlog
/bp  { gs sRGB gs } def
% begin .ps.prolog
/gs  { gsave } bind def
/gr  { grestore } bind def
/ep  { showpage gr gr } bind def
/m   { moveto } bind def
/l  { rlineto } bind def
/np  { newpath } bind def
/cp  { closepath } bind def
/f   { fill } bind def
/o   { stroke } bind def
/c   { newpath 0 360 arc } bind def
/r   { 4 2 roll moveto 1 copy 3 -1 roll exch 0 exch rlineto 0 rlineto -1 mul 0 exch rlineto closepath } bind def
/p1  { stroke } bind def
/p2  { gsave bg fill grestore newpath } bind def
/p3  { gsave bg fill grestore stroke } bind def
/p6  { gsave bg eofill grestore newpath } bind def
/p7  { gsave bg eofill grestore stroke } bind def
/t   { 5 -2 roll moveto gsave rotate
       1 index stringwidth pop
       mul neg 0 rmoveto show grestore } bind def
/ta  { 4 -2 roll moveto gsave rotate show } bind def
/tb  { 2 -1 roll 0 rmoveto show } bind def
/cl  { grestore gsave newpath 3 index 3 index moveto 1 index
       4 -1 roll lineto  exch 1 index lineto lineto
       closepath clip newpath } bind def
/rgb { setrgbcolor } bind def
/s   { scalefont setfont } bind def
% end   .ps.prolog
/sRGB { [ /CIEBasedABC
          << /DecodeLMN
               [ { dup 0.03928 le
                        {12.92321 div}
                        {0.055 add 1.055 div 2.4 exp }
                     ifelse
                 } bind dup dup
               ]
             /MatrixLMN [0.412457 0.212673 0.019334
                         0.357576 0.715152 0.119192
                         0.180437 0.072175 0.950301]
             /WhitePoint [0.9505 1.0 1.0890]
           >>
         ] setcolorspace } bind def
/srgb { setcolor } bind def
%%IncludeResource: font Helvetica
/Helvetica findfont
dup length dict begin
  {1 index /FID ne {def} {pop pop} ifelse} forall
  /Encoding ISOLatin1Encoding def
  currentdict
  end
/Font1 exch definefont pop
%%IncludeResource: font Helvetica-Bold
/Helvetica-Bold findfont
dup length dict begin
  {1 index /FID ne {def} {pop pop} ifelse} forall
  /Encoding ISOLatin1Encoding def
  currentdict
  end
/Font2 exch definefont pop
%%IncludeResource: font Helvetica-Oblique
/Helvetica-Oblique findfont
dup length dict begin
  {1 index /FID ne {def} {pop pop} ifelse} forall
  /Encoding ISOLatin1Encoding def
  currentdict
  end
/Font3 exch definefont pop
%%IncludeResource: font Helvetica-BoldOblique
/Helvetica-BoldOblique findfont
dup length dict begin
  {1 index /FID ne {def} {pop pop} ifelse} forall
  /Encoding ISOLatin1Encoding def
  currentdict
  end
/Font4 exch definefont pop
%%IncludeResource: font Symbol
/Symbol findfont
dup length dict begin
  {1 index /FID ne {def} {pop pop} ifelse} forall
  currentdict
  end
/Font5 exch definefont pop
%%EndProlog
%%Page: 1 1
bp
0.00 0.00 433.00 193.00 cl
0.00 0.00 433.00 193.00 cl
0.00 0.00 433.00 193.00 cl
/bg { 1 1 1 srgb } def
1 1 1 srgb
1.06 setlinewidth
[] 0 setdash
1 setlinecap
1 setlinejoin
10.00 setmiterlimit
0.00 0.00 433.00 193.00 r p3
0.00 0.00 433.00 193.00 cl
0.00 0.00 433.00 193.00 cl
0.00 0.00 433.00 193.00 cl
55.12 37.28 418.60 178.60 cl
/bg { 0.8980 0.8980 0.8980 srgb } def
55.12 37.28 363.48 141.32 r p2
0.9490 0.9490 0.9490 srgb
0.53 setlinewidth
[] 0 setdash
0 setlinecap
1 setlinejoin
10.00 setmiterlimit
np
55.12 60.29 m
363.48 0 l
o
np
55.12 93.45 m
363.48 0 l
o
np
55.12 126.61 m
363.48 0 l
o
np
55.12 159.77 m
363.48 0 l
o
np
86.61 37.28 m
0 141.32 l
o
np
146.71 37.28 m
0 141.32 l
o
np
206.81 37.28 m
0 141.32 l
o
np
266.91 37.28 m
0 141.32 l
o
np
327.01 37.28 m
0 141.32 l
o
np
387.11 37.28 m
0 141.32 l
o
1 1 1 srgb
1.06 setlinewidth
[] 0 setdash
np
55.12 43.71 m
363.48 0 l
o
np
55.12 76.87 m
363.48 0 l
o
np
55.12 110.03 m
363.48 0 l
o
np
55.12 143.19 m
363.48 0 l
o
np
55.12 176.35 m
363.48 0 l
o
np
56.56 37.28 m
0 141.32 l
o
np
116.66 37.28 m
0 141.32 l
o
np
176.76 37.28 m
0 141.32 l
o
np
236.86 37.28 m
0 141.32 l
o
np
296.96 37.28 m
0 141.32 l
o
np
357.06 37.28 m
0 141.32 l
o
np
417.16 37.28 m
0 141.32 l
o
0 0 0 srgb
1 setlinecap
np
71.64 102.43 m
0.65 1.98 l
0.65 1.97 l
0.64 1.97 l
0.65 1.96 l
0.65 1.96 l
0.64 1.93 l
0.65 1.92 l
0.65 1.90 l
0.64 1.88 l
0.65 1.85 l
0.65 1.82 l
0.64 1.80 l
0.65 1.76 l
0.65 1.72 l
0.64 1.70 l
0.65 1.66 l
0.65 1.62 l
0.64 1.57 l
0.65 1.54 l
0.65 1.51 l
0.64 1.45 l
0.65 1.41 l
0.65 1.37 l
0.64 1.33 l
0.65 1.28 l
0.65 1.24 l
0.64 1.21 l
0.65 1.15 l
0.65 1.11 l
0.64 1.07 l
0.65 1.04 l
0.65 0.99 l
0.64 0.95 l
0.65 0.91 l
0.65 0.88 l
0.64 0.83 l
0.65 0.79 l
0.65 0.77 l
0.64 0.73 l
0.65 0.69 l
0.65 0.66 l
0.64 0.63 l
0.65 0.59 l
0.65 0.57 l
0.64 0.53 l
0.65 0.52 l
0.65 0.47 l
0.64 0.45 l
0.65 0.43 l
0.65 0.41 l
0.64 0.37 l
0.65 0.35 l
0.65 0.33 l
0.64 0.31 l
0.65 0.28 l
0.65 0.27 l
0.64 0.25 l
0.65 0.22 l
0.65 0.21 l
0.64 0.19 l
0.65 0.17 l
0.65 0.15 l
0.64 0.14 l
0.65 0.12 l
0.65 0.11 l
0.64 0.09 l
0.65 0.07 l
0.65 0.07 l
0.64 0.05 l
0.65 0.04 l
0.65 0.02 l
0.64 0.02 l
0.65 0 l
0.65 -0.01 l
0.64 -0.01 l
0.65 -0.03 l
0.65 -0.04 l
0.64 -0.04 l
0.65 -0.05 l
0.65 -0.07 l
0.64 -0.06 l
0.65 -0.08 l
0.65 -0.08 l
0.64 -0.09 l
0.65 -0.09 l
0.65 -0.10 l
0.64 -0.10 l
0.65 -0.11 l
0.65 -0.11 l
0.64 -0.11 l
0.65 -0.12 l
0.65 -0.12 l
0.64 -0.12 l
0.65 -0.13 l
0.65 -0.12 l
0.64 -0.13 l
0.65 -0.12 l
0.65 -0.13 l
0.64 -0.12 l
136.31 166.32 lineto
0.65 -0.12 l
0.64 -0.12 l
0.65 -0.12 l
0.65 -0.12 l
0.64 -0.12 l
0.65 -0.11 l
0.64 -0.11 l
0.65 -0.10 l
0.65 -0.10 l
0.64 -0.10 l
0.65 -0.09 l
0.65 -0.09 l
0.64 -0.08 l
0.65 -0.08 l
0.65 -0.07 l
0.64 -0.06 l
0.65 -0.06 l
0.65 -0.05 l
0.64 -0.04 l
0.65 -0.04 l
0.65 -0.03 l
0.64 -0.02 l
0.65 -0.02 l
0.65 -0.01 l
0.64 0 l
0.65 0 l
0.65 0.02 l
0.64 0.02 l
0.65 0.02 l
0.65 0.04 l
0.64 0.04 l
0.65 0.05 l
0.65 0.06 l
0.64 0.06 l
0.65 0.07 l
0.65 0.08 l
0.64 0.08 l
0.65 0.09 l
0.65 0.10 l
0.64 0.10 l
0.65 0.11 l
0.65 0.11 l
0.64 0.12 l
0.65 0.12 l
0.65 0.13 l
0.64 0.13 l
0.65 0.13 l
0.65 0.14 l
0.64 0.14 l
0.65 0.15 l
0.65 0.15 l
0.64 0.15 l
0.65 0.15 l
0.65 0.15 l
0.64 0.16 l
0.65 0.15 l
0.65 0.16 l
0.64 0.15 l
0.65 0.16 l
0.65 0.16 l
0.64 0.16 l
0.65 0.15 l
0.65 0.16 l
0.64 0.15 l
0.65 0.15 l
0.65 0.15 l
0.64 0.15 l
0.65 0.15 l
0.65 0.15 l
0.64 0.14 l
0.65 0.14 l
0.65 0.14 l
0.64 0.14 l
0.65 0.13 l
0.65 0.13 l
0.64 0.13 l
0.65 0.12 l
0.65 0.12 l
0.64 0.12 l
0.65 0.12 l
0.65 0.11 l
0.64 0.11 l
0.65 0.10 l
0.65 0.10 l
0.64 0.10 l
0.65 0.09 l
0.65 0.09 l
0.64 0.08 l
0.65 0.07 l
0.65 0.07 l
0.64 0.07 l
0.65 0.06 l
0.65 0.05 l
0.64 0.05 l
0.65 0.04 l
0.65 0.03 l
0.64 0.02 l
0.65 0.02 l
0.65 0.01 l
200.97 172.17 lineto
0.65 -0.01 l
0.65 -0.02 l
0.64 -0.03 l
0.65 -0.04 l
0.65 -0.05 l
0.64 -0.06 l
0.65 -0.08 l
0.65 -0.09 l
0.64 -0.09 l
0.65 -0.11 l
0.65 -0.12 l
0.64 -0.14 l
0.65 -0.14 l
0.65 -0.16 l
0.64 -0.17 l
0.65 -0.18 l
0.65 -0.19 l
0.64 -0.20 l
0.65 -0.22 l
0.65 -0.23 l
0.64 -0.23 l
0.65 -0.25 l
0.65 -0.25 l
0.64 -0.27 l
0.65 -0.27 l
0.65 -0.28 l
0.64 -0.28 l
0.65 -0.30 l
0.65 -0.29 l
0.64 -0.30 l
0.65 -0.31 l
0.65 -0.30 l
0.64 -0.31 l
0.65 -0.31 l
0.65 -0.31 l
0.64 -0.30 l
0.65 -0.31 l
0.65 -0.29 l
0.64 -0.30 l
0.65 -0.29 l
0.65 -0.28 l
0.64 -0.28 l
0.65 -0.27 l
0.64 -0.26 l
0.65 -0.25 l
0.65 -0.24 l
0.64 -0.23 l
0.65 -0.21 l
0.65 -0.21 l
0.64 -0.19 l
0.65 -0.18 l
0.65 -0.17 l
0.64 -0.15 l
0.65 -0.14 l
0.65 -0.12 l
0.64 -0.11 l
0.65 -0.10 l
0.65 -0.08 l
0.64 -0.08 l
0.65 -0.05 l
0.65 -0.05 l
0.64 -0.03 l
0.65 -0.03 l
0.65 -0.01 l
0.64 0 l
0.65 0.01 l
0.65 0.02 l
0.64 0.03 l
0.65 0.03 l
0.65 0.04 l
0.64 0.04 l
0.65 0.05 l
0.65 0.05 l
0.64 0.06 l
0.65 0.06 l
0.65 0.05 l
0.64 0.06 l
0.65 0.06 l
0.65 0.05 l
0.64 0.05 l
0.65 0.05 l
0.65 0.04 l
0.64 0.04 l
0.65 0.03 l
0.65 0.03 l
0.64 0.02 l
0.65 0.01 l
0.65 0 l
0.64 0 l
0.65 -0.01 l
0.65 -0.02 l
0.64 -0.03 l
0.65 -0.03 l
0.65 -0.04 l
0.64 -0.05 l
0.65 -0.06 l
0.65 -0.06 l
0.64 -0.07 l
0.65 -0.08 l
265.64 160.72 lineto
0.64 -0.08 l
0.65 -0.09 l
0.65 -0.09 l
0.64 -0.10 l
0.65 -0.09 l
0.65 -0.10 l
0.64 -0.09 l
0.65 -0.10 l
0.65 -0.09 l
0.64 -0.09 l
0.65 -0.09 l
0.65 -0.08 l
0.64 -0.08 l
0.65 -0.07 l
0.65 -0.06 l
0.64 -0.06 l
0.65 -0.05 l
0.65 -0.04 l
0.64 -0.04 l
0.65 -0.02 l
0.65 -0.01 l
0.64 -0.01 l
0.65 0 l
0.65 0.02 l
0.64 0.02 l
0.65 0.04 l
0.65 0.04 l
0.64 0.05 l
0.65 0.06 l
0.65 0.07 l
0.64 0.08 l
0.65 0.09 l
0.65 0.09 l
0.64 0.10 l
0.65 0.10 l
0.65 0.11 l
0.64 0.11 l
0.65 0.12 l
0.65 0.12 l
0.64 0.13 l
0.65 0.12 l
0.65 0.12 l
0.64 0.13 l
0.65 0.12 l
0.65 0.12 l
0.64 0.12 l
0.65 0.11 l
0.65 0.12 l
0.64 0.10 l
0.65 0.10 l
0.65 0.10 l
0.64 0.09 l
0.65 0.08 l
0.65 0.07 l
0.64 0.07 l
0.65 0.06 l
0.65 0.05 l
0.64 0.04 l
0.65 0.03 l
0.65 0.03 l
0.64 0.01 l
0.65 0.01 l
0.65 -0.01 l
0.64 0 l
0.65 -0.02 l
0.65 -0.03 l
0.64 -0.03 l
0.65 -0.04 l
0.65 -0.05 l
0.64 -0.05 l
0.65 -0.06 l
0.65 -0.07 l
0.64 -0.07 l
0.65 -0.07 l
0.65 -0.08 l
0.64 -0.08 l
0.65 -0.09 l
0.64 -0.08 l
0.65 -0.09 l
0.65 -0.09 l
0.64 -0.09 l
0.65 -0.08 l
0.65 -0.09 l
0.64 -0.09 l
0.65 -0.08 l
0.65 -0.09 l
0.64 -0.08 l
0.65 -0.08 l
0.65 -0.07 l
0.64 -0.08 l
0.65 -0.06 l
0.65 -0.07 l
0.64 -0.06 l
0.65 -0.06 l
0.65 -0.05 l
0.64 -0.05 l
0.65 -0.05 l
0.65 -0.04 l
0.64 -0.03 l
330.30 160.00 lineto
0.65 -0.03 l
0.64 -0.03 l
0.65 -0.02 l
0.65 -0.01 l
0.64 -0.02 l
0.65 -0.01 l
0.65 0 l
0.64 0 l
0.65 0 l
0.65 0 l
0.64 0.01 l
0.65 0.01 l
0.65 0.01 l
0.64 0.01 l
0.65 0.02 l
0.65 0.02 l
0.64 0.02 l
0.65 0.03 l
0.65 0.03 l
0.64 0.03 l
0.65 0.03 l
0.65 0.03 l
0.64 0.04 l
0.65 0.04 l
0.65 0.04 l
0.64 0.04 l
0.65 0.04 l
0.65 0.05 l
0.64 0.05 l
0.65 0.05 l
0.65 0.05 l
0.64 0.06 l
0.65 0.05 l
0.65 0.06 l
0.64 0.06 l
0.65 0.06 l
0.65 0.06 l
0.64 0.06 l
0.65 0.06 l
0.65 0.06 l
0.64 0.06 l
0.65 0.06 l
0.65 0.05 l
0.64 0.06 l
0.65 0.05 l
0.65 0.06 l
0.64 0.04 l
0.65 0.05 l
0.65 0.04 l
0.64 0.03 l
0.65 0.03 l
0.65 0.02 l
0.64 0.02 l
0.65 0 l
0.65 0 l
0.64 -0.02 l
0.65 -0.02 l
0.65 -0.04 l
0.64 -0.06 l
0.65 -0.06 l
0.65 -0.08 l
0.64 -0.11 l
0.65 -0.12 l
0.65 -0.13 l
0.64 -0.16 l
0.65 -0.19 l
0.65 -0.21 l
0.64 -0.23 l
0.65 -0.27 l
0.65 -0.29 l
0.64 -0.33 l
0.65 -0.35 l
0.65 -0.39 l
0.64 -0.44 l
0.65 -0.47 l
0.65 -0.50 l
0.64 -0.55 l
0.65 -0.60 l
0.65 -0.64 l
0.64 -0.68 l
0.65 -0.75 l
0.65 -0.79 l
0.64 -0.83 l
0.65 -0.89 l
0.65 -0.96 l
0.64 -1.00 l
0.65 -1.05 l
0.65 -1.12 l
0.64 -1.18 l
0.65 -1.23 l
0.65 -1.28 l
0.64 -1.35 l
0.65 -1.41 l
0.65 -1.46 l
0.64 -1.51 l
0.65 -1.58 l
0.65 -1.63 l
0.64 -1.67 l
0.65 -1.73 l
394.97 129.49 lineto
0.64 -1.82 l
0.65 -1.86 l
0.65 -1.91 l
0.64 -1.94 l
0.65 -1.97 l
0.65 -2.00 l
0.64 -2.04 l
0.65 -2.06 l
0.65 -2.07 l
0.64 -2.09 l
0.65 -2.11 l
0 -63.91 l
-0.65 0 l
-0.64 0 l
-0.65 0 l
-0.65 0 l
-0.64 0 l
-0.65 0 l
-0.65 0 l
-0.64 0 l
-0.65 0 l
-0.65 0 l
-0.64 0 l
-0.65 0 l
-0.65 0 l
-0.64 0 l
-0.65 0 l
-0.65 0 l
-0.64 0 l
-0.65 0 l
-0.65 0 l
-0.64 0 l
-0.65 0 l
-0.65 0 l
-0.64 0 l
-0.65 0 l
-0.65 0 l
-0.64 0 l
-0.65 0 l
-0.65 0 l
-0.64 0 l
-0.65 0 l
-0.65 0 l
-0.64 0 l
-0.65 0 l
-0.65 0 l
-0.64 0 l
-0.65 0 l
-0.65 0 l
-0.64 0 l
-0.65 0 l
-0.65 0 l
-0.64 0 l
-0.65 0 l
-0.65 0 l
-0.64 0 l
-0.65 0 l
-0.65 0 l
-0.64 0 l
-0.65 0 l
-0.65 0 l
-0.64 0 l
-0.65 0 l
-0.65 0 l
-0.64 0 l
-0.65 0 l
-0.65 0 l
-0.64 0 l
-0.65 0 l
-0.65 0 l
-0.64 0 l
-0.65 0 l
-0.65 0 l
-0.64 0 l
-0.65 0 l
-0.65 0 l
-0.64 0 l
-0.65 0 l
-0.65 0 l
-0.64 0 l
-0.65 0 l
-0.65 0 l
-0.64 0 l
-0.65 0 l
-0.65 0 l
-0.64 0 l
-0.65 0 l
-0.65 0 l
-0.64 0 l
-0.65 0 l
-0.65 0 l
-0.64 0 l
-0.65 0 l
-0.65 0 l
-0.64 0 l
-0.65 0 l
-0.65 0 l
-0.64 0 l
-0.65 0 l
345.17 43.71 lineto
-0.64 0 l
-0.65 0 l
-0.65 0 l
-0.64 0 l
-0.65 0 l
-0.65 0 l
-0.64 0 l
-0.65 0 l
-0.65 0 l
-0.64 0 l
-0.65 0 l
-0.65 0 l
-0.64 0 l
-0.65 0 l
-0.65 0 l
-0.64 0 l
-0.65 0 l
-0.65 0 l
-0.64 0 l
-0.65 0 l
-0.65 0 l
-0.64 0 l
-0.65 0 l
-0.65 0 l
-0.64 0 l
-0.65 0 l
-0.65 0 l
-0.64 0 l
-0.65 0 l
-0.65 0 l
-0.64 0 l
-0.65 0 l
-0.65 0 l
-0.64 0 l
-0.65 0 l
-0.65 0 l
-0.64 0 l
-0.65 0 l
-0.65 0 l
-0.64 0 l
-0.65 0 l
-0.65 0 l
-0.64 0 l
-0.65 0 l
-0.65 0 l
-0.64 0 l
-0.65 0 l
-0.64 0 l
-0.65 0 l
-0.65 0 l
-0.64 0 l
-0.65 0 l
-0.65 0 l
-0.64 0 l
-0.65 0 l
-0.65 0 l
-0.64 0 l
-0.65 0 l
-0.65 0 l
-0.64 0 l
-0.65 0 l
-0.65 0 l
-0.64 0 l
-0.65 0 l
-0.65 0 l
-0.64 0 l
-0.65 0 l
-0.65 0 l
-0.64 0 l
-0.65 0 l
-0.65 0 l
-0.64 0 l
-0.65 0 l
-0.65 0 l
-0.64 0 l
-0.65 0 l
-0.65 0 l
-0.64 0 l
-0.65 0 l
-0.65 0 l
-0.64 0 l
-0.65 0 l
-0.65 0 l
-0.64 0 l
-0.65 0 l
-0.65 0 l
-0.64 0 l
-0.65 0 l
-0.65 0 l
-0.64 0 l
-0.65 0 l
-0.65 0 l
-0.64 0 l
-0.65 0 l
-0.65 0 l
-0.64 0 l
-0.65 0 l
-0.65 0 l
-0.64 0 l
280.51 43.71 lineto
-0.65 0 l
-0.64 0 l
-0.65 0 l
-0.65 0 l
-0.64 0 l
-0.65 0 l
-0.65 0 l
-0.64 0 l
-0.65 0 l
-0.65 0 l
-0.64 0 l
-0.65 0 l
-0.65 0 l
-0.64 0 l
-0.65 0 l
-0.65 0 l
-0.64 0 l
-0.65 0 l
-0.65 0 l
-0.64 0 l
-0.65 0 l
-0.65 0 l
-0.64 0 l
-0.65 0 l
-0.65 0 l
-0.64 0 l
-0.65 0 l
-0.65 0 l
-0.64 0 l
-0.65 0 l
-0.65 0 l
-0.64 0 l
-0.65 0 l
-0.65 0 l
-0.64 0 l
-0.65 0 l
-0.65 0 l
-0.64 0 l
-0.65 0 l
-0.65 0 l
-0.64 0 l
-0.65 0 l
-0.65 0 l
-0.64 0 l
-0.65 0 l
-0.65 0 l
-0.64 0 l
-0.65 0 l
-0.65 0 l
-0.64 0 l
-0.65 0 l
-0.65 0 l
-0.64 0 l
-0.65 0 l
-0.65 0 l
-0.64 0 l
-0.65 0 l
-0.65 0 l
-0.64 0 l
-0.65 0 l
-0.65 0 l
-0.64 0 l
-0.65 0 l
-0.65 0 l
-0.64 0 l
-0.65 0 l
-0.65 0 l
-0.64 0 l
-0.65 0 l
-0.65 0 l
-0.64 0 l
-0.65 0 l
-0.65 0 l
-0.64 0 l
-0.65 0 l
-0.65 0 l
-0.64 0 l
-0.65 0 l
-0.65 0 l
-0.64 0 l
-0.65 0 l
-0.64 0 l
-0.65 0 l
-0.65 0 l
-0.64 0 l
-0.65 0 l
-0.65 0 l
-0.64 0 l
-0.65 0 l
-0.65 0 l
-0.64 0 l
-0.65 0 l
-0.65 0 l
-0.64 0 l
-0.65 0 l
-0.65 0 l
-0.64 0 l
-0.65 0 l
-0.65 0 l
215.85 43.71 lineto
-0.65 0 l
-0.65 0 l
-0.64 0 l
-0.65 0 l
-0.65 0 l
-0.64 0 l
-0.65 0 l
-0.65 0 l
-0.64 0 l
-0.65 0 l
-0.65 0 l
-0.64 0 l
-0.65 0 l
-0.65 0 l
-0.64 0 l
-0.65 0 l
-0.65 0 l
-0.64 0 l
-0.65 0 l
-0.65 0 l
-0.64 0 l
-0.65 0 l
-0.65 0 l
-0.64 0 l
-0.65 0 l
-0.65 0 l
-0.64 0 l
-0.65 0 l
-0.65 0 l
-0.64 0 l
-0.65 0 l
-0.65 0 l
-0.64 0 l
-0.65 0 l
-0.65 0 l
-0.64 0 l
-0.65 0 l
-0.65 0 l
-0.64 0 l
-0.65 0 l
-0.65 0 l
-0.64 0 l
-0.65 0 l
-0.65 0 l
-0.64 0 l
-0.65 0 l
-0.65 0 l
-0.64 0 l
-0.65 0 l
-0.65 0 l
-0.64 0 l
-0.65 0 l
-0.65 0 l
-0.64 0 l
-0.65 0 l
-0.65 0 l
-0.64 0 l
-0.65 0 l
-0.65 0 l
-0.64 0 l
-0.65 0 l
-0.65 0 l
-0.64 0 l
-0.65 0 l
-0.65 0 l
-0.64 0 l
-0.65 0 l
-0.65 0 l
-0.64 0 l
-0.65 0 l
-0.65 0 l
-0.64 0 l
-0.65 0 l
-0.65 0 l
-0.64 0 l
-0.65 0 l
-0.65 0 l
-0.64 0 l
-0.65 0 l
-0.65 0 l
-0.64 0 l
-0.65 0 l
-0.65 0 l
-0.64 0 l
-0.65 0 l
-0.65 0 l
-0.64 0 l
-0.65 0 l
-0.65 0 l
-0.64 0 l
-0.65 0 l
-0.65 0 l
-0.64 0 l
-0.65 0 l
-0.65 0 l
-0.64 0 l
-0.65 0 l
-0.65 0 l
-0.64 0 l
151.18 43.71 lineto
-0.65 0 l
-0.64 0 l
-0.65 0 l
-0.65 0 l
-0.64 0 l
-0.65 0 l
-0.65 0 l
-0.64 0 l
-0.65 0 l
-0.65 0 l
-0.64 0 l
-0.65 0 l
-0.65 0 l
-0.64 0 l
-0.65 0 l
-0.65 0 l
-0.64 0 l
-0.65 0 l
-0.64 0 l
-0.65 0 l
-0.65 0 l
-0.64 0 l
-0.65 0 l
-0.65 0 l
-0.64 0 l
-0.65 0 l
-0.65 0 l
-0.64 0 l
-0.65 0 l
-0.65 0 l
-0.64 0 l
-0.65 0 l
-0.65 0 l
-0.64 0 l
-0.65 0 l
-0.65 0 l
-0.64 0 l
-0.65 0 l
-0.65 0 l
-0.64 0 l
-0.65 0 l
-0.65 0 l
-0.64 0 l
-0.65 0 l
-0.65 0 l
-0.64 0 l
-0.65 0 l
-0.65 0 l
-0.64 0 l
-0.65 0 l
-0.65 0 l
-0.64 0 l
-0.65 0 l
-0.65 0 l
-0.64 0 l
-0.65 0 l
-0.65 0 l
-0.64 0 l
-0.65 0 l
-0.65 0 l
-0.64 0 l
-0.65 0 l
-0.65 0 l
-0.64 0 l
-0.65 0 l
-0.65 0 l
-0.64 0 l
-0.65 0 l
-0.65 0 l
-0.64 0 l
-0.65 0 l
-0.65 0 l
-0.64 0 l
-0.65 0 l
-0.65 0 l
-0.64 0 l
-0.65 0 l
-0.65 0 l
-0.64 0 l
-0.65 0 l
-0.65 0 l
-0.64 0 l
-0.65 0 l
-0.65 0 l
-0.64 0 l
-0.65 0 l
-0.65 0 l
-0.64 0 l
-0.65 0 l
-0.65 0 l
-0.64 0 l
-0.65 0 l
-0.65 0 l
-0.64 0 l
-0.65 0 l
-0.65 0 l
-0.64 0 l
-0.65 0 l
-0.65 0 l
currentpoint o m
86.52 43.71 lineto
-0.65 0 l
-0.65 0 l
-0.64 0 l
-0.65 0 l
-0.65 0 l
-0.64 0 l
-0.65 0 l
-0.65 0 l
-0.64 0 l
-0.65 0 l
-0.65 0 l
-0.64 0 l
-0.65 0 l
-0.65 0 l
-0.64 0 l
-0.65 0 l
-0.65 0 l
-0.64 0 l
-0.65 0 l
-0.65 0 l
-0.64 0 l
-0.65 0 l
-0.65 0 l
0 58.72 l
o
0.00 0.00 433.00 193.00 cl
0.00 0.00 433.00 193.00 cl
0.00 0.00 433.00 193.00 cl
/Font1 findfont 10 s
0.4980 0.4980 0.4980 srgb
48.04 40.12 (0.000) 1 0 t
48.04 73.28 (0.005) 1 0 t
48.04 106.44 (0.010) 1 0 t
48.04 139.60 (0.015) 1 0 t
48.04 172.76 (0.020) 1 0 t
0.00 0.00 433.00 193.00 cl
0.00 0.00 433.00 193.00 cl
0.4980 0.4980 0.4980 srgb
1.06 setlinewidth
[] 0 setdash
0 setlinecap
1 setlinejoin
10.00 setmiterlimit
np
50.87 43.71 m
4.25 0 l
o
np
50.87 76.87 m
4.25 0 l
o
np
50.87 110.03 m
4.25 0 l
o
np
50.87 143.19 m
4.25 0 l
o
np
50.87 176.35 m
4.25 0 l
o
0.00 0.00 433.00 193.00 cl
0.00 0.00 433.00 193.00 cl
0.00 0.00 433.00 193.00 cl
0.00 0.00 433.00 193.00 cl
0.00 0.00 433.00 193.00 cl
0.00 0.00 433.00 193.00 cl
0.4980 0.4980 0.4980 srgb
1.06 setlinewidth
[] 0 setdash
0 setlinecap
1 setlinejoin
10.00 setmiterlimit
np
56.56 33.03 m
0 4.25 l
o
np
116.66 33.03 m
0 4.25 l
o
np
176.76 33.03 m
0 4.25 l
o
np
236.86 33.03 m
0 4.25 l
o
np
296.96 33.03 m
0 4.25 l
o
np
357.06 33.03 m
0 4.25 l
o
np
417.16 33.03 m
0 4.25 l
o
0.00 0.00 433.00 193.00 cl
0.00 0.00 433.00 193.00 cl
/Font1 findfont 10 s
0.4980 0.4980 0.4980 srgb
56.56 23.02 (-30) .5 0 t
116.66 23.02 (-20) .5 0 t
176.76 23.02 (-10) .5 0 t
236.86 23.02 (0) .5 0 t
296.96 23.02 (10) .5 0 t
357.06 23.02 (20) .5 0 t
417.16 23.02 (30) .5 0 t
0.00 0.00 433.00 193.00 cl
0.00 0.00 433.00 193.00 cl
0.00 0.00 433.00 193.00 cl
0.00 0.00 433.00 193.00 cl
0.00 0.00 433.00 193.00 cl
0.00 0.00 433.00 193.00 cl
0.00 0.00 433.00 193.00 cl
0.00 0.00 433.00 193.00 cl
0.00 0.00 433.00 193.00 cl
0.00 0.00 433.00 193.00 cl
0.00 0.00 433.00 193.00 cl
ep
%%Trailer
%%Pages: 1
%%EOF
