%!PS-Adobe-3.0 EPSF-3.0
%%DocumentNeededResources: font Helvetica
%%+ font Helvetica-Bold
%%+ font Helvetica-Oblique
%%+ font Helvetica-BoldOblique
%%+ font Symbol
%%Title: R Graphics Output
%%Creator: R Software
%%Pages: (atend)
%%BoundingBox: 0 0 903 533
%%EndComments
%%BeginProlog
/bp  { gs sRGB gs } def
% begin .ps.prolog
/gs  { gsave } bind def
/gr  { grestore } bind def
/ep  { showpage gr gr } bind def
/m   { moveto } bind def
/l  { rlineto } bind def
/np  { newpath } bind def
/cp  { closepath } bind def
/f   { fill } bind def
/o   { stroke } bind def
/c   { newpath 0 360 arc } bind def
/r   { 4 2 roll moveto 1 copy 3 -1 roll exch 0 exch rlineto 0 rlineto -1 mul 0 exch rlineto closepath } bind def
/p1  { stroke } bind def
/p2  { gsave bg fill grestore newpath } bind def
/p3  { gsave bg fill grestore stroke } bind def
/p6  { gsave bg eofill grestore newpath } bind def
/p7  { gsave bg eofill grestore stroke } bind def
/t   { 5 -2 roll moveto gsave rotate
       1 index stringwidth pop
       mul neg 0 rmoveto show grestore } bind def
/ta  { 4 -2 roll moveto gsave rotate show } bind def
/tb  { 2 -1 roll 0 rmoveto show } bind def
/cl  { grestore gsave newpath 3 index 3 index moveto 1 index
       4 -1 roll lineto  exch 1 index lineto lineto
       closepath clip newpath } bind def
/rgb { setrgbcolor } bind def
/s   { scalefont setfont } bind def
% end   .ps.prolog
/sRGB { [ /CIEBasedABC
          << /DecodeLMN
               [ { dup 0.03928 le
                        {12.92321 div}
                        {0.055 add 1.055 div 2.4 exp }
                     ifelse
                 } bind dup dup
               ]
             /MatrixLMN [0.412457 0.212673 0.019334
                         0.357576 0.715152 0.119192
                         0.180437 0.072175 0.950301]
             /WhitePoint [0.9505 1.0 1.0890]
           >>
         ] setcolorspace } bind def
/srgb { setcolor } bind def
%%IncludeResource: font Helvetica
/Helvetica findfont
dup length dict begin
  {1 index /FID ne {def} {pop pop} ifelse} forall
  /Encoding ISOLatin1Encoding def
  currentdict
  end
/Font1 exch definefont pop
%%IncludeResource: font Helvetica-Bold
/Helvetica-Bold findfont
dup length dict begin
  {1 index /FID ne {def} {pop pop} ifelse} forall
  /Encoding ISOLatin1Encoding def
  currentdict
  end
/Font2 exch definefont pop
%%IncludeResource: font Helvetica-Oblique
/Helvetica-Oblique findfont
dup length dict begin
  {1 index /FID ne {def} {pop pop} ifelse} forall
  /Encoding ISOLatin1Encoding def
  currentdict
  end
/Font3 exch definefont pop
%%IncludeResource: font Helvetica-BoldOblique
/Helvetica-BoldOblique findfont
dup length dict begin
  {1 index /FID ne {def} {pop pop} ifelse} forall
  /Encoding ISOLatin1Encoding def
  currentdict
  end
/Font4 exch definefont pop
%%IncludeResource: font Symbol
/Symbol findfont
dup length dict begin
  {1 index /FID ne {def} {pop pop} ifelse} forall
  currentdict
  end
/Font5 exch definefont pop
%%EndProlog
%%Page: 1 1
bp
0.00 0.00 903.00 533.00 cl
0.00 0.00 903.00 533.00 cl
0.00 0.00 903.00 533.00 cl
/bg { 1 1 1 srgb } def
1 1 1 srgb
1.06 setlinewidth
[] 0 setdash
1 setlinecap
1 setlinejoin
10.00 setmiterlimit
0.00 0.00 903.00 533.00 r p3
0.00 0.00 903.00 533.00 cl
0.00 0.00 903.00 533.00 cl
0.00 0.00 903.00 533.00 cl
44.81 40.87 888.60 518.60 cl
/bg { 0.8980 0.8980 0.8980 srgb } def
44.81 40.87 843.79 477.73 r p2
0.9490 0.9490 0.9490 srgb
0.53 setlinewidth
[] 0 setdash
0 setlinecap
1 setlinejoin
10.00 setmiterlimit
np
44.81 129.71 m
843.79 0 l
o
np
44.81 263.94 m
843.79 0 l
o
np
44.81 398.18 m
843.79 0 l
o
np
187.77 40.87 m
0 477.73 l
o
np
396.97 40.87 m
0 477.73 l
o
np
606.18 40.87 m
0 477.73 l
o
np
815.38 40.87 m
0 477.73 l
o
1 1 1 srgb
1.06 setlinewidth
[] 0 setdash
np
44.81 62.59 m
843.79 0 l
o
np
44.81 196.82 m
843.79 0 l
o
np
44.81 331.06 m
843.79 0 l
o
np
44.81 465.30 m
843.79 0 l
o
np
83.17 40.87 m
0 477.73 l
o
np
292.37 40.87 m
0 477.73 l
o
np
501.57 40.87 m
0 477.73 l
o
np
710.78 40.87 m
0 477.73 l
o
0 0 0 srgb
1.00 setmiterlimit
np
83.17 62.59 m
69.73 145.42 l
69.74 288.88 l
69.73 -111.35 l
69.73 55.76 l
69.74 0.41 l
69.73 22.24 l
69.74 1.72 l
69.73 -12.89 l
69.74 8.30 l
69.73 -3.53 l
69.74 3.32 l
o
/bg { 0 0 0 srgb } def
83.17 62.59 2.13 c p2
152.90 208.01 2.13 c p2
222.64 496.89 2.13 c p2
292.37 385.54 2.13 c p2
362.10 441.30 2.13 c p2
431.84 441.71 2.13 c p2
501.57 463.95 2.13 c p2
571.31 465.67 2.13 c p2
641.04 452.78 2.13 c p2
710.78 461.08 2.13 c p2
780.51 457.55 2.13 c p2
850.25 460.87 2.13 c p2
0.00 0.00 903.00 533.00 cl
0.00 0.00 903.00 533.00 cl
0.00 0.00 903.00 533.00 cl
/Font1 findfont 10 s
0.4980 0.4980 0.4980 srgb
37.73 59.00 (50) 1 0 t
37.73 193.23 (60) 1 0 t
37.73 327.47 (70) 1 0 t
37.73 461.71 (80) 1 0 t
0.00 0.00 903.00 533.00 cl
0.00 0.00 903.00 533.00 cl
0.4980 0.4980 0.4980 srgb
1.06 setlinewidth
[] 0 setdash
0 setlinecap
1 setlinejoin
10.00 setmiterlimit
np
40.56 62.59 m
4.25 0 l
o
np
40.56 196.82 m
4.25 0 l
o
np
40.56 331.06 m
4.25 0 l
o
np
40.56 465.30 m
4.25 0 l
o
0.00 0.00 903.00 533.00 cl
0.00 0.00 903.00 533.00 cl
0.00 0.00 903.00 533.00 cl
0.00 0.00 903.00 533.00 cl
0.00 0.00 903.00 533.00 cl
0.00 0.00 903.00 533.00 cl
0.4980 0.4980 0.4980 srgb
1.06 setlinewidth
[] 0 setdash
0 setlinecap
1 setlinejoin
10.00 setmiterlimit
np
83.17 36.62 m
0 4.25 l
o
np
292.37 36.62 m
0 4.25 l
o
np
501.57 36.62 m
0 4.25 l
o
np
710.78 36.62 m
0 4.25 l
o
0.00 0.00 903.00 533.00 cl
0.00 0.00 903.00 533.00 cl
/Font1 findfont 10 s
0.4980 0.4980 0.4980 srgb
83.17 26.61 (0) .5 0 t
292.37 26.61 (3) .5 0 t
501.57 26.61 (6) .5 0 t
710.78 26.61 (9) .5 0 t
0.00 0.00 903.00 533.00 cl
0.00 0.00 903.00 533.00 cl
0.00 0.00 903.00 533.00 cl
0.00 0.00 903.00 533.00 cl
0.00 0.00 903.00 533.00 cl
/Font1 findfont 17 s
0 0 0 srgb
368.92 10.80 (K) 0 ta
-0.680 (olejne iter) tb
-0.170 (acje algor) tb
0.510 (ytm) tb
-0.170 (u) tb gr
0.00 0.00 903.00 533.00 cl
0.00 0.00 903.00 533.00 cl
/Font1 findfont 17 s
0 0 0 srgb
23.01 279.74 (Skutecznosc \(%\)) .5 90 t
0.00 0.00 903.00 533.00 cl
0.00 0.00 903.00 533.00 cl
0.00 0.00 903.00 533.00 cl
0.00 0.00 903.00 533.00 cl
ep
%%Trailer
%%Pages: 1
%%EOF
