%!PS-Adobe-3.0 EPSF-3.0
%%DocumentNeededResources: font Helvetica
%%+ font Helvetica-Bold
%%+ font Helvetica-Oblique
%%+ font Helvetica-BoldOblique
%%+ font Symbol
%%Title: R Graphics Output
%%Creator: R Software
%%Pages: (atend)
%%BoundingBox: 0 0 1026 683
%%EndComments
%%BeginProlog
/bp  { gs sRGB gs } def
% begin .ps.prolog
/gs  { gsave } bind def
/gr  { grestore } bind def
/ep  { showpage gr gr } bind def
/m   { moveto } bind def
/l  { rlineto } bind def
/np  { newpath } bind def
/cp  { closepath } bind def
/f   { fill } bind def
/o   { stroke } bind def
/c   { newpath 0 360 arc } bind def
/r   { 4 2 roll moveto 1 copy 3 -1 roll exch 0 exch rlineto 0 rlineto -1 mul 0 exch rlineto closepath } bind def
/p1  { stroke } bind def
/p2  { gsave bg fill grestore newpath } bind def
/p3  { gsave bg fill grestore stroke } bind def
/p6  { gsave bg eofill grestore newpath } bind def
/p7  { gsave bg eofill grestore stroke } bind def
/t   { 5 -2 roll moveto gsave rotate
       1 index stringwidth pop
       mul neg 0 rmoveto show grestore } bind def
/ta  { 4 -2 roll moveto gsave rotate show } bind def
/tb  { 2 -1 roll 0 rmoveto show } bind def
/cl  { grestore gsave newpath 3 index 3 index moveto 1 index
       4 -1 roll lineto  exch 1 index lineto lineto
       closepath clip newpath } bind def
/rgb { setrgbcolor } bind def
/s   { scalefont setfont } bind def
% end   .ps.prolog
/sRGB { [ /CIEBasedABC
          << /DecodeLMN
               [ { dup 0.03928 le
                        {12.92321 div}
                        {0.055 add 1.055 div 2.4 exp }
                     ifelse
                 } bind dup dup
               ]
             /MatrixLMN [0.412457 0.212673 0.019334
                         0.357576 0.715152 0.119192
                         0.180437 0.072175 0.950301]
             /WhitePoint [0.9505 1.0 1.0890]
           >>
         ] setcolorspace } bind def
/srgb { setcolor } bind def
%%IncludeResource: font Helvetica
/Helvetica findfont
dup length dict begin
  {1 index /FID ne {def} {pop pop} ifelse} forall
  /Encoding ISOLatin1Encoding def
  currentdict
  end
/Font1 exch definefont pop
%%IncludeResource: font Helvetica-Bold
/Helvetica-Bold findfont
dup length dict begin
  {1 index /FID ne {def} {pop pop} ifelse} forall
  /Encoding ISOLatin1Encoding def
  currentdict
  end
/Font2 exch definefont pop
%%IncludeResource: font Helvetica-Oblique
/Helvetica-Oblique findfont
dup length dict begin
  {1 index /FID ne {def} {pop pop} ifelse} forall
  /Encoding ISOLatin1Encoding def
  currentdict
  end
/Font3 exch definefont pop
%%IncludeResource: font Helvetica-BoldOblique
/Helvetica-BoldOblique findfont
dup length dict begin
  {1 index /FID ne {def} {pop pop} ifelse} forall
  /Encoding ISOLatin1Encoding def
  currentdict
  end
/Font4 exch definefont pop
%%IncludeResource: font Symbol
/Symbol findfont
dup length dict begin
  {1 index /FID ne {def} {pop pop} ifelse} forall
  currentdict
  end
/Font5 exch definefont pop
%%EndProlog
%%Page: 1 1
bp
0.00 0.00 1026.00 683.00 cl
0.00 0.00 1026.00 683.00 cl
0.00 0.00 1026.00 683.00 cl
/bg { 1 1 1 srgb } def
1 1 1 srgb
1.06 setlinewidth
[] 0 setdash
1 setlinecap
1 setlinejoin
10.00 setmiterlimit
-0.00 0.00 1026.00 683.00 r p3
0.00 0.00 1026.00 683.00 cl
0.00 0.00 1026.00 683.00 cl
0.00 0.00 1026.00 683.00 cl
49.56 37.28 1011.60 668.60 cl
/bg { 0.8980 0.8980 0.8980 srgb } def
49.56 37.28 962.04 631.32 r p2
0.9490 0.9490 0.9490 srgb
0.53 setlinewidth
[] 0 setdash
0 setlinecap
1 setlinejoin
10.00 setmiterlimit
np
49.56 124.23 m
962.04 0 l
o
np
49.56 240.74 m
962.04 0 l
o
np
49.56 357.25 m
962.04 0 l
o
np
49.56 473.77 m
962.04 0 l
o
np
49.56 590.28 m
962.04 0 l
o
np
169.15 37.28 m
0 631.32 l
o
np
392.25 37.28 m
0 631.32 l
o
np
615.36 37.28 m
0 631.32 l
o
np
838.47 37.28 m
0 631.32 l
o
1 1 1 srgb
1.06 setlinewidth
[] 0 setdash
np
49.56 65.98 m
962.04 0 l
o
np
49.56 182.49 m
962.04 0 l
o
np
49.56 299.00 m
962.04 0 l
o
np
49.56 415.51 m
962.04 0 l
o
np
49.56 532.02 m
962.04 0 l
o
np
49.56 648.53 m
962.04 0 l
o
np
57.59 37.28 m
0 631.32 l
o
np
280.70 37.28 m
0 631.32 l
o
np
503.81 37.28 m
0 631.32 l
o
np
726.92 37.28 m
0 631.32 l
o
np
950.02 37.28 m
0 631.32 l
o
0 0 0 srgb
1 setlinecap
np
93.29 393.40 m
1.71 11.26 l
1.71 10.59 l
1.72 9.90 l
1.71 9.18 l
1.71 8.26 l
1.71 7.53 l
1.71 6.83 l
1.71 6.13 l
1.72 5.48 l
1.71 4.81 l
1.71 4.15 l
1.71 3.66 l
1.71 3.23 l
1.71 2.85 l
1.71 2.53 l
1.72 2.26 l
1.71 2.08 l
1.71 1.99 l
1.71 1.96 l
1.71 1.99 l
1.71 2.07 l
1.71 2.26 l
1.72 2.47 l
1.71 2.73 l
1.71 3.01 l
1.71 3.33 l
1.71 3.69 l
1.71 4.13 l
1.72 4.52 l
1.71 4.90 l
1.71 5.27 l
1.71 5.63 l
1.71 6.01 l
1.71 6.36 l
1.71 6.60 l
1.72 6.81 l
1.71 6.95 l
1.71 7.04 l
1.71 7.03 l
1.71 6.92 l
1.71 6.72 l
1.71 6.43 l
1.72 6.07 l
1.71 5.61 l
1.71 4.87 l
1.71 4.19 l
1.71 3.41 l
1.71 2.56 l
1.72 1.65 l
1.71 0.59 l
1.71 -0.65 l
1.71 -1.74 l
1.71 -2.84 l
1.71 -3.97 l
1.71 -5.08 l
1.72 -6.36 l
1.71 -7.54 l
1.71 -8.57 l
1.71 -9.52 l
1.71 -10.43 l
1.71 -11.27 l
1.71 -12.18 l
1.72 -12.84 l
1.71 -13.37 l
1.71 -13.83 l
1.71 -14.20 l
1.71 -14.49 l
1.71 -14.69 l
1.72 -14.75 l
1.71 -14.74 l
1.71 -14.64 l
1.71 -14.50 l
1.71 -14.24 l
1.71 -13.91 l
1.71 -13.55 l
1.72 -13.16 l
1.71 -12.74 l
1.71 -12.28 l
1.71 -11.70 l
1.71 -11.16 l
1.71 -10.62 l
1.72 -10.10 l
1.71 -9.56 l
1.71 -9.02 l
1.71 -8.33 l
1.71 -7.80 l
1.71 -7.28 l
1.71 -6.76 l
1.72 -6.25 l
1.71 -5.73 l
1.71 -5.17 l
1.71 -4.72 l
1.71 -4.28 l
1.71 -3.88 l
1.71 -3.47 l
1.72 -3.05 l
1.71 -2.65 l
1.71 -2.34 l
1.71 -2.03 l
264.44 200.18 lineto
1.71 -1.47 l
1.72 -1.18 l
1.71 -0.95 l
1.71 -0.74 l
1.71 -0.55 l
1.71 -0.38 l
1.71 -0.21 l
1.71 -0.03 l
1.72 0.11 l
1.71 0.24 l
1.71 0.35 l
1.71 0.47 l
1.71 0.59 l
1.71 0.70 l
1.71 0.81 l
1.72 0.91 l
1.71 1.00 l
1.71 1.09 l
1.71 1.21 l
1.71 1.30 l
1.71 1.40 l
1.72 1.48 l
1.71 1.57 l
1.71 1.66 l
1.71 1.75 l
1.71 1.82 l
1.71 1.89 l
1.71 1.94 l
1.72 1.99 l
1.71 2.04 l
1.71 2.06 l
1.71 2.07 l
1.71 2.07 l
1.71 2.05 l
1.71 2.02 l
1.72 1.96 l
1.71 1.87 l
1.71 1.79 l
1.71 1.68 l
1.71 1.56 l
1.71 1.42 l
1.72 1.22 l
1.71 1.04 l
1.71 0.83 l
1.71 0.63 l
1.71 0.40 l
1.71 0.16 l
1.71 -0.15 l
1.72 -0.41 l
1.71 -0.67 l
1.71 -0.94 l
1.71 -1.22 l
1.71 -1.51 l
1.71 -1.83 l
1.71 -2.09 l
1.72 -2.35 l
1.71 -2.59 l
1.71 -2.82 l
1.71 -3.08 l
1.71 -3.28 l
1.71 -3.46 l
1.72 -3.60 l
1.71 -3.73 l
1.71 -3.83 l
1.71 -3.92 l
1.71 -3.95 l
1.71 -3.96 l
1.71 -3.95 l
1.72 -3.91 l
1.71 -3.84 l
1.71 -3.73 l
1.71 -3.61 l
1.71 -3.47 l
1.71 -3.32 l
1.72 -3.16 l
1.71 -2.96 l
1.71 -2.74 l
1.71 -2.56 l
1.71 -2.37 l
1.71 -2.18 l
1.71 -2.00 l
1.72 -1.79 l
1.71 -1.61 l
1.71 -1.46 l
1.71 -1.33 l
1.71 -1.19 l
1.71 -1.09 l
1.71 -0.98 l
1.72 -0.90 l
1.71 -0.85 l
1.71 -0.81 l
1.71 -0.79 l
1.71 -0.77 l
1.71 -0.78 l
1.72 -0.79 l
1.71 -0.82 l
1.71 -0.86 l
1.71 -0.90 l
1.71 -0.95 l
435.59 132.94 lineto
1.71 -1.07 l
1.72 -1.12 l
1.71 -1.19 l
1.71 -1.25 l
1.71 -1.32 l
1.71 -1.37 l
1.71 -1.43 l
1.71 -1.48 l
1.72 -1.52 l
1.71 -1.57 l
1.71 -1.62 l
1.71 -1.66 l
1.71 -1.68 l
1.71 -1.71 l
1.72 -1.73 l
1.71 -1.75 l
1.71 -1.77 l
1.71 -1.77 l
1.71 -1.78 l
1.71 -1.77 l
1.71 -1.76 l
1.72 -1.75 l
1.71 -1.73 l
1.71 -1.71 l
1.71 -1.69 l
1.71 -1.65 l
1.71 -1.62 l
1.71 -1.56 l
1.72 -1.53 l
1.71 -1.47 l
1.71 -1.43 l
1.71 -1.38 l
1.71 -1.31 l
1.71 -1.25 l
1.72 -1.19 l
1.71 -1.13 l
1.71 -1.07 l
1.71 -1.02 l
1.71 -0.94 l
1.71 -0.88 l
1.71 -0.81 l
1.72 -0.77 l
1.71 -0.70 l
1.71 -0.66 l
1.71 -0.59 l
1.71 -0.54 l
1.71 -0.49 l
1.72 -0.45 l
1.71 -0.41 l
1.71 -0.37 l
1.71 -0.32 l
1.71 -0.29 l
1.71 -0.26 l
1.71 -0.23 l
1.72 -0.21 l
1.71 -0.18 l
1.71 -0.15 l
1.71 -0.14 l
1.71 -0.11 l
1.71 -0.11 l
1.71 -0.09 l
1.72 -0.07 l
1.71 -0.06 l
1.71 -0.06 l
1.71 -0.04 l
1.71 -0.04 l
1.71 -0.04 l
1.72 -0.02 l
1.71 -0.02 l
1.71 -0.02 l
1.71 -0.02 l
1.71 -0.01 l
1.71 -0.01 l
1.71 -0.01 l
1.72 -0.01 l
1.71 0 l
1.71 -0.01 l
1.71 0 l
1.71 0 l
1.71 0 l
1.71 -0.01 l
1.72 0 l
1.71 0 l
1.71 0 l
1.71 0 l
1.71 0 l
1.71 0 l
1.72 0 l
1.71 0 l
1.71 0 l
1.71 0 l
1.71 0 l
1.71 0 l
1.71 0 l
1.72 0 l
1.71 0 l
1.71 0 l
1.71 0 l
1.71 0 l
606.74 65.98 lineto
1.71 0 l
1.72 0 l
1.71 0 l
1.71 0 l
1.71 0 l
1.71 0 l
1.71 0 l
1.72 0 l
1.71 0 l
1.71 0 l
1.71 0 l
1.71 0 l
1.71 0 l
1.71 0 l
1.72 0 l
1.71 0 l
1.71 0 l
1.71 0 l
1.71 0 l
1.71 0 l
1.71 0 l
1.72 0 l
1.71 0 l
1.71 0 l
1.71 0 l
1.71 0 l
1.71 0 l
1.72 0 l
1.71 0 l
1.71 0 l
1.71 0 l
1.71 0 l
1.71 0 l
1.71 0 l
1.72 0 l
1.71 0 l
1.71 0 l
1.71 0 l
1.71 0 l
1.71 0 l
1.72 0 l
1.71 0 l
1.71 0 l
1.71 0 l
1.71 0 l
1.71 0 l
1.71 0 l
1.72 0 l
1.71 0 l
1.71 0 l
1.71 0 l
1.71 0 l
1.71 0 l
1.71 0 l
1.72 0 l
1.71 0 l
1.71 0 l
1.71 0 l
1.71 0 l
1.71 0 l
1.72 0 l
1.71 0 l
1.71 0 l
1.71 0 l
1.71 0 l
1.71 0 l
1.71 0 l
1.72 0 l
1.71 0 l
1.71 0 l
1.71 0 l
1.71 0 l
1.71 0 l
1.71 0 l
1.72 0 l
1.71 0 l
1.71 0 l
1.71 0 l
1.71 0 l
1.71 0 l
1.72 0 l
1.71 0 l
1.71 0 l
1.71 0 l
1.71 0 l
1.71 0 l
1.71 0 l
1.72 0 l
1.71 0 l
1.71 0 l
1.71 0 l
1.71 0 l
1.71 0 l
1.71 0 l
1.72 0 l
1.71 0 l
1.71 0 l
1.71 0 l
1.71 0 l
777.89 65.98 lineto
1.72 0 l
1.71 0 l
1.71 0 l
1.71 0 l
1.71 0 l
1.71 0 l
1.71 0 l
1.72 0 l
1.71 0 l
1.71 0 l
1.71 0 l
1.71 0 l
1.71 0 l
1.71 0 l
1.72 0 l
1.71 0 l
1.71 0 l
1.71 0 l
1.71 0 l
1.71 0 l
1.72 0 l
1.71 0 l
1.71 0 l
1.71 0 l
1.71 0 l
1.71 0 l
1.71 0 l
1.72 0 l
1.71 0 l
1.71 0 l
1.71 0 l
1.71 0 l
1.71 0 l
1.72 0 l
1.71 0 l
1.71 0 l
1.71 0 l
1.71 0 l
1.71 0 l
1.71 0 l
1.72 0 l
1.71 0 l
1.71 0 l
1.71 0 l
1.71 0 l
1.71 0.01 l
1.71 0 l
1.72 0 l
1.71 0.01 l
1.71 0 l
1.71 0.01 l
1.71 0.01 l
1.71 0.01 l
1.72 0.02 l
1.71 0.02 l
1.71 0.02 l
1.71 0.04 l
1.71 0.04 l
1.71 0.05 l
1.71 0.06 l
1.72 0.07 l
1.71 0.09 l
1.71 0.12 l
1.71 0.14 l
1.71 0.16 l
1.71 0.19 l
1.71 0.23 l
1.72 0.27 l
1.71 0.33 l
1.71 0.37 l
1.71 0.44 l
1.71 0.49 l
1.71 0.57 l
1.72 0.66 l
1.71 0.75 l
1.71 0.84 l
1.71 0.94 l
1.71 1.03 l
1.71 1.16 l
1.71 1.29 l
1.72 1.40 l
1.71 1.51 l
1.71 1.63 l
1.71 1.74 l
1.71 1.88 l
1.71 1.98 l
1.71 2.08 l
1.72 2.16 l
1.71 2.23 l
1.71 2.30 l
1.71 2.35 l
1.71 2.37 l
1.71 2.36 l
1.72 2.35 l
1.71 2.30 l
1.71 2.23 l
1.71 2.12 l
1.71 2.00 l
1.71 1.85 l
949.04 116.96 lineto
1.72 1.51 l
1.71 1.27 l
1.71 1.03 l
1.71 0.79 l
1.71 0.55 l
1.71 0.29 l
1.72 0.04 l
1.71 -0.29 l
1.71 -0.55 l
1.71 -0.79 l
1.71 -1.03 l
0 -53.80 l
-1.71 0 l
-1.71 0 l
-1.71 0 l
-1.71 0 l
-1.72 0 l
-1.71 0 l
-1.71 0 l
-1.71 0 l
-1.71 0 l
-1.71 0 l
-1.72 0 l
-1.71 0 l
-1.71 0 l
-1.71 0 l
-1.71 0 l
-1.71 0 l
-1.71 0 l
-1.72 0 l
-1.71 0 l
-1.71 0 l
-1.71 0 l
-1.71 0 l
-1.71 0 l
-1.72 0 l
-1.71 0 l
-1.71 0 l
-1.71 0 l
-1.71 0 l
-1.71 0 l
-1.71 0 l
-1.72 0 l
-1.71 0 l
-1.71 0 l
-1.71 0 l
-1.71 0 l
-1.71 0 l
-1.71 0 l
-1.72 0 l
-1.71 0 l
-1.71 0 l
-1.71 0 l
-1.71 0 l
-1.71 0 l
-1.72 0 l
-1.71 0 l
-1.71 0 l
-1.71 0 l
-1.71 0 l
-1.71 0 l
-1.71 0 l
-1.72 0 l
-1.71 0 l
-1.71 0 l
-1.71 0 l
-1.71 0 l
-1.71 0 l
-1.71 0 l
-1.72 0 l
-1.71 0 l
-1.71 0 l
-1.71 0 l
-1.71 0 l
-1.71 0 l
-1.72 0 l
-1.71 0 l
-1.71 0 l
-1.71 0 l
-1.71 0 l
-1.71 0 l
-1.71 0 l
-1.72 0 l
-1.71 0 l
-1.71 0 l
-1.71 0 l
-1.71 0 l
-1.71 0 l
-1.71 0 l
-1.72 0 l
-1.71 0 l
-1.71 0 l
-1.71 0 l
-1.71 0 l
-1.71 0 l
-1.72 0 l
-1.71 0 l
-1.71 0 l
-1.71 0 l
817.26 65.98 lineto
-1.71 0 l
-1.71 0 l
-1.72 0 l
-1.71 0 l
-1.71 0 l
-1.71 0 l
-1.71 0 l
-1.71 0 l
-1.72 0 l
-1.71 0 l
-1.71 0 l
-1.71 0 l
-1.71 0 l
-1.71 0 l
-1.71 0 l
-1.72 0 l
-1.71 0 l
-1.71 0 l
-1.71 0 l
-1.71 0 l
-1.71 0 l
-1.71 0 l
-1.72 0 l
-1.71 0 l
-1.71 0 l
-1.71 0 l
-1.71 0 l
-1.71 0 l
-1.72 0 l
-1.71 0 l
-1.71 0 l
-1.71 0 l
-1.71 0 l
-1.71 0 l
-1.71 0 l
-1.72 0 l
-1.71 0 l
-1.71 0 l
-1.71 0 l
-1.71 0 l
-1.71 0 l
-1.71 0 l
-1.72 0 l
-1.71 0 l
-1.71 0 l
-1.71 0 l
-1.71 0 l
-1.71 0 l
-1.72 0 l
-1.71 0 l
-1.71 0 l
-1.71 0 l
-1.71 0 l
-1.71 0 l
-1.71 0 l
-1.72 0 l
-1.71 0 l
-1.71 0 l
-1.71 0 l
-1.71 0 l
-1.71 0 l
-1.71 0 l
-1.72 0 l
-1.71 0 l
-1.71 0 l
-1.71 0 l
-1.71 0 l
-1.71 0 l
-1.72 0 l
-1.71 0 l
-1.71 0 l
-1.71 0 l
-1.71 0 l
-1.71 0 l
-1.71 0 l
-1.72 0 l
-1.71 0 l
-1.71 0 l
-1.71 0 l
-1.71 0 l
-1.71 0 l
-1.71 0 l
-1.72 0 l
-1.71 0 l
-1.71 0 l
-1.71 0 l
-1.71 0 l
-1.71 0 l
-1.72 0 l
-1.71 0 l
-1.71 0 l
-1.71 0 l
-1.71 0 l
-1.71 0 l
-1.71 0 l
-1.72 0 l
-1.71 0 l
-1.71 0 l
-1.71 0 l
646.11 65.98 lineto
-1.71 0 l
-1.72 0 l
-1.71 0 l
-1.71 0 l
-1.71 0 l
-1.71 0 l
-1.71 0 l
-1.71 0 l
-1.72 0 l
-1.71 0 l
-1.71 0 l
-1.71 0 l
-1.71 0 l
-1.71 0 l
-1.71 0 l
-1.72 0 l
-1.71 0 l
-1.71 0 l
-1.71 0 l
-1.71 0 l
-1.71 0 l
-1.72 0 l
-1.71 0 l
-1.71 0 l
-1.71 0 l
-1.71 0 l
-1.71 0 l
-1.71 0 l
-1.72 0 l
-1.71 0 l
-1.71 0 l
-1.71 0 l
-1.71 0 l
-1.71 0 l
-1.71 0 l
-1.72 0 l
-1.71 0 l
-1.71 0 l
-1.71 0 l
-1.71 0 l
-1.71 0 l
-1.72 0 l
-1.71 0 l
-1.71 0 l
-1.71 0 l
-1.71 0 l
-1.71 0 l
-1.71 0 l
-1.72 0 l
-1.71 0 l
-1.71 0 l
-1.71 0 l
-1.71 0 l
-1.71 0 l
-1.71 0 l
-1.72 0 l
-1.71 0 l
-1.71 0 l
-1.71 0 l
-1.71 0 l
-1.71 0 l
-1.72 0 l
-1.71 0 l
-1.71 0 l
-1.71 0 l
-1.71 0 l
-1.71 0 l
-1.71 0 l
-1.72 0 l
-1.71 0 l
-1.71 0 l
-1.71 0 l
-1.71 0 l
-1.71 0 l
-1.71 0 l
-1.72 0 l
-1.71 0 l
-1.71 0 l
-1.71 0 l
-1.71 0 l
-1.71 0 l
-1.72 0 l
-1.71 0 l
-1.71 0 l
-1.71 0 l
-1.71 0 l
-1.71 0 l
-1.71 0 l
-1.72 0 l
-1.71 0 l
-1.71 0 l
-1.71 0 l
-1.71 0 l
-1.71 0 l
-1.72 0 l
-1.71 0 l
-1.71 0 l
-1.71 0 l
-1.71 0 l
474.96 65.98 lineto
-1.71 0 l
-1.72 0 l
-1.71 0 l
-1.71 0 l
-1.71 0 l
-1.71 0 l
-1.71 0 l
-1.71 0 l
-1.72 0 l
-1.71 0 l
-1.71 0 l
-1.71 0 l
-1.71 0 l
-1.71 0 l
-1.72 0 l
-1.71 0 l
-1.71 0 l
-1.71 0 l
-1.71 0 l
-1.71 0 l
-1.71 0 l
-1.72 0 l
-1.71 0 l
-1.71 0 l
-1.71 0 l
-1.71 0 l
-1.71 0 l
-1.71 0 l
-1.72 0 l
-1.71 0 l
-1.71 0 l
-1.71 0 l
-1.71 0 l
-1.71 0 l
-1.72 0 l
-1.71 0 l
-1.71 0 l
-1.71 0 l
-1.71 0 l
-1.71 0 l
-1.71 0 l
-1.72 0 l
-1.71 0 l
-1.71 0 l
-1.71 0 l
-1.71 0 l
-1.71 0 l
-1.71 0 l
-1.72 0 l
-1.71 0 l
-1.71 0 l
-1.71 0 l
-1.71 0 l
-1.71 0 l
-1.72 0 l
-1.71 0 l
-1.71 0 l
-1.71 0 l
-1.71 0 l
-1.71 0 l
-1.71 0 l
-1.72 0 l
-1.71 0 l
-1.71 0 l
-1.71 0 l
-1.71 0 l
-1.71 0 l
-1.72 0 l
-1.71 0 l
-1.71 0 l
-1.71 0 l
-1.71 0 l
-1.71 0 l
-1.71 0 l
-1.72 0 l
-1.71 0 l
-1.71 0 l
-1.71 0 l
-1.71 0 l
-1.71 0 l
-1.71 0 l
-1.72 0 l
-1.71 0 l
-1.71 0 l
-1.71 0 l
-1.71 0 l
-1.71 0 l
-1.72 0 l
-1.71 0 l
-1.71 0 l
-1.71 0 l
-1.71 0 l
-1.71 0 l
-1.71 0 l
-1.72 0 l
-1.71 0 l
-1.71 0 l
-1.71 0 l
-1.71 0 l
303.81 65.98 lineto
-1.71 0 l
-1.72 0 l
-1.71 0 l
-1.71 0 l
-1.71 0 l
-1.71 0 l
-1.71 0 l
-1.72 0 l
-1.71 0 l
-1.71 0 l
-1.71 0 l
-1.71 0 l
-1.71 0 l
-1.71 0 l
-1.72 0 l
-1.71 0 l
-1.71 0 l
-1.71 0 l
-1.71 0 l
-1.71 0 l
-1.71 0 l
-1.72 0 l
-1.71 0 l
-1.71 0 l
-1.71 0 l
-1.71 0 l
-1.71 0 l
-1.72 0 l
-1.71 0 l
-1.71 0 l
-1.71 0 l
-1.71 0 l
-1.71 0 l
-1.71 0 l
-1.72 0 l
-1.71 0 l
-1.71 0 l
-1.71 0 l
-1.71 0 l
-1.71 0 l
-1.71 0 l
-1.72 0 l
-1.71 0 l
-1.71 0 l
-1.71 0 l
-1.71 0 l
-1.71 0 l
-1.72 0 l
-1.71 0 l
-1.71 0 l
-1.71 0 l
-1.71 0 l
-1.71 0 l
-1.71 0 l
-1.72 0 l
-1.71 0 l
-1.71 0 l
-1.71 0 l
-1.71 0 l
-1.71 0 l
-1.72 0 l
-1.71 0 l
-1.71 0 l
-1.71 0 l
-1.71 0 l
-1.71 0 l
-1.71 0 l
-1.72 0 l
-1.71 0 l
-1.71 0 l
-1.71 0 l
-1.71 0 l
-1.71 0 l
-1.71 0 l
-1.72 0 l
-1.71 0 l
-1.71 0 l
-1.71 0 l
-1.71 0 l
-1.71 0 l
-1.72 0 l
-1.71 0 l
-1.71 0 l
-1.71 0 l
-1.71 0 l
-1.71 0 l
-1.71 0 l
-1.72 0 l
-1.71 0 l
-1.71 0 l
-1.71 0 l
-1.71 0 l
-1.71 0 l
-1.71 0 l
-1.72 0 l
-1.71 0 l
-1.71 0 l
-1.71 0 l
-1.71 0 l
currentpoint o m
132.66 65.98 lineto
-1.72 0 l
-1.71 0 l
-1.71 0 l
-1.71 0 l
-1.71 0 l
-1.71 0 l
-1.71 0 l
-1.72 0 l
-1.71 0 l
-1.71 0 l
-1.71 0 l
-1.71 0 l
-1.71 0 l
-1.71 0 l
-1.72 0 l
-1.71 0 l
-1.71 0 l
-1.71 0 l
-1.71 0 l
-1.71 0 l
-1.72 0 l
-1.71 0 l
-1.71 0 l
0 327.42 l
o
0.00 0.00 1026.00 683.00 cl
0.00 0.00 1026.00 683.00 cl
0.00 0.00 1026.00 683.00 cl
/Font1 findfont 10 s
0.4980 0.4980 0.4980 srgb
42.48 62.39 (0.00) 1 0 t
42.48 178.90 (0.01) 1 0 t
42.48 295.41 (0.02) 1 0 t
42.48 411.92 (0.03) 1 0 t
42.48 528.43 (0.04) 1 0 t
42.48 644.94 (0.05) 1 0 t
0.00 0.00 1026.00 683.00 cl
0.00 0.00 1026.00 683.00 cl
0.4980 0.4980 0.4980 srgb
1.06 setlinewidth
[] 0 setdash
0 setlinecap
1 setlinejoin
10.00 setmiterlimit
np
45.31 65.98 m
4.25 0 l
o
np
45.31 182.49 m
4.25 0 l
o
np
45.31 299.00 m
4.25 0 l
o
np
45.31 415.51 m
4.25 0 l
o
np
45.31 532.02 m
4.25 0 l
o
np
45.31 648.53 m
4.25 0 l
o
0.00 0.00 1026.00 683.00 cl
0.00 0.00 1026.00 683.00 cl
0.00 0.00 1026.00 683.00 cl
0.00 0.00 1026.00 683.00 cl
0.00 0.00 1026.00 683.00 cl
0.00 0.00 1026.00 683.00 cl
0.4980 0.4980 0.4980 srgb
1.06 setlinewidth
[] 0 setdash
0 setlinecap
1 setlinejoin
10.00 setmiterlimit
np
57.59 33.03 m
0 4.25 l
o
np
280.70 33.03 m
0 4.25 l
o
np
503.81 33.03 m
0 4.25 l
o
np
726.92 33.03 m
0 4.25 l
o
np
950.02 33.03 m
0 4.25 l
o
0.00 0.00 1026.00 683.00 cl
0.00 0.00 1026.00 683.00 cl
/Font1 findfont 10 s
0.4980 0.4980 0.4980 srgb
57.59 23.02 (-100) .5 0 t
280.70 23.02 (-75) .5 0 t
503.81 23.02 (-50) .5 0 t
726.92 23.02 (-25) .5 0 t
950.02 23.02 (0) .5 0 t
0.00 0.00 1026.00 683.00 cl
0.00 0.00 1026.00 683.00 cl
0.00 0.00 1026.00 683.00 cl
0.00 0.00 1026.00 683.00 cl
0.00 0.00 1026.00 683.00 cl
0.00 0.00 1026.00 683.00 cl
0.00 0.00 1026.00 683.00 cl
0.00 0.00 1026.00 683.00 cl
0.00 0.00 1026.00 683.00 cl
0.00 0.00 1026.00 683.00 cl
0.00 0.00 1026.00 683.00 cl
ep
%%Trailer
%%Pages: 1
%%EOF
