%!PS-Adobe-3.0 EPSF-3.0
%%DocumentNeededResources: font Helvetica
%%+ font Helvetica-Bold
%%+ font Helvetica-Oblique
%%+ font Helvetica-BoldOblique
%%+ font Symbol
%%Title: R Graphics Output
%%Creator: R Software
%%Pages: (atend)
%%BoundingBox: 0 0 1026 683
%%EndComments
%%BeginProlog
/bp  { gs sRGB gs } def
% begin .ps.prolog
/gs  { gsave } bind def
/gr  { grestore } bind def
/ep  { showpage gr gr } bind def
/m   { moveto } bind def
/l  { rlineto } bind def
/np  { newpath } bind def
/cp  { closepath } bind def
/f   { fill } bind def
/o   { stroke } bind def
/c   { newpath 0 360 arc } bind def
/r   { 4 2 roll moveto 1 copy 3 -1 roll exch 0 exch rlineto 0 rlineto -1 mul 0 exch rlineto closepath } bind def
/p1  { stroke } bind def
/p2  { gsave bg fill grestore newpath } bind def
/p3  { gsave bg fill grestore stroke } bind def
/p6  { gsave bg eofill grestore newpath } bind def
/p7  { gsave bg eofill grestore stroke } bind def
/t   { 5 -2 roll moveto gsave rotate
       1 index stringwidth pop
       mul neg 0 rmoveto show grestore } bind def
/ta  { 4 -2 roll moveto gsave rotate show } bind def
/tb  { 2 -1 roll 0 rmoveto show } bind def
/cl  { grestore gsave newpath 3 index 3 index moveto 1 index
       4 -1 roll lineto  exch 1 index lineto lineto
       closepath clip newpath } bind def
/rgb { setrgbcolor } bind def
/s   { scalefont setfont } bind def
% end   .ps.prolog
/sRGB { [ /CIEBasedABC
          << /DecodeLMN
               [ { dup 0.03928 le
                        {12.92321 div}
                        {0.055 add 1.055 div 2.4 exp }
                     ifelse
                 } bind dup dup
               ]
             /MatrixLMN [0.412457 0.212673 0.019334
                         0.357576 0.715152 0.119192
                         0.180437 0.072175 0.950301]
             /WhitePoint [0.9505 1.0 1.0890]
           >>
         ] setcolorspace } bind def
/srgb { setcolor } bind def
%%IncludeResource: font Helvetica
/Helvetica findfont
dup length dict begin
  {1 index /FID ne {def} {pop pop} ifelse} forall
  /Encoding ISOLatin1Encoding def
  currentdict
  end
/Font1 exch definefont pop
%%IncludeResource: font Helvetica-Bold
/Helvetica-Bold findfont
dup length dict begin
  {1 index /FID ne {def} {pop pop} ifelse} forall
  /Encoding ISOLatin1Encoding def
  currentdict
  end
/Font2 exch definefont pop
%%IncludeResource: font Helvetica-Oblique
/Helvetica-Oblique findfont
dup length dict begin
  {1 index /FID ne {def} {pop pop} ifelse} forall
  /Encoding ISOLatin1Encoding def
  currentdict
  end
/Font3 exch definefont pop
%%IncludeResource: font Helvetica-BoldOblique
/Helvetica-BoldOblique findfont
dup length dict begin
  {1 index /FID ne {def} {pop pop} ifelse} forall
  /Encoding ISOLatin1Encoding def
  currentdict
  end
/Font4 exch definefont pop
%%IncludeResource: font Symbol
/Symbol findfont
dup length dict begin
  {1 index /FID ne {def} {pop pop} ifelse} forall
  currentdict
  end
/Font5 exch definefont pop
%%EndProlog
%%Page: 1 1
bp
0.00 0.00 1026.00 683.00 cl
0.00 0.00 1026.00 683.00 cl
0.00 0.00 1026.00 683.00 cl
/bg { 1 1 1 srgb } def
1 1 1 srgb
1.06 setlinewidth
[] 0 setdash
1 setlinecap
1 setlinejoin
10.00 setmiterlimit
-0.00 0.00 1026.00 683.00 r p3
0.00 0.00 1026.00 683.00 cl
0.00 0.00 1026.00 683.00 cl
0.00 0.00 1026.00 683.00 cl
44.81 40.87 1011.60 668.60 cl
/bg { 0.8980 0.8980 0.8980 srgb } def
44.81 40.87 966.79 627.73 r p2
0.9490 0.9490 0.9490 srgb
0.53 setlinewidth
[] 0 setdash
0 setlinecap
1 setlinejoin
10.00 setmiterlimit
np
44.81 121.13 m
966.79 0 l
o
np
44.81 292.46 m
966.79 0 l
o
np
44.81 463.79 m
966.79 0 l
o
np
44.81 635.12 m
966.79 0 l
o
np
235.24 40.87 m
0 627.73 l
o
np
528.21 40.87 m
0 627.73 l
o
np
821.17 40.87 m
0 627.73 l
o
1 1 1 srgb
1.06 setlinewidth
[] 0 setdash
np
44.81 206.79 m
966.79 0 l
o
np
44.81 378.12 m
966.79 0 l
o
np
44.81 549.45 m
966.79 0 l
o
np
88.76 40.87 m
0 627.73 l
o
np
381.72 40.87 m
0 627.73 l
o
np
674.69 40.87 m
0 627.73 l
o
np
967.66 40.87 m
0 627.73 l
o
0 0 0 srgb
1.00 setmiterlimit
np
88.76 164.38 m
58.59 107.06 l
58.59 -202.03 l
58.60 72.73 l
58.59 0 l
58.59 40.41 l
58.60 51.18 l
58.59 -55.22 l
58.59 83.24 l
58.60 -22.63 l
58.59 44.81 l
58.59 55.28 l
58.60 149.08 l
58.59 82.86 l
58.59 49.80 l
58.60 19.12 l
o
/bg { 0 0 0 srgb } def
88.76 164.38 2.13 c p2
147.35 271.44 2.13 c p2
205.94 69.41 2.13 c p2
264.54 142.14 2.13 c p2
323.13 142.14 2.13 c p2
381.72 182.55 2.13 c p2
440.32 233.73 2.13 c p2
498.91 178.51 2.13 c p2
557.50 261.75 2.13 c p2
616.10 239.12 2.13 c p2
674.69 283.93 2.13 c p2
733.28 339.21 2.13 c p2
791.88 488.29 2.13 c p2
850.47 571.15 2.13 c p2
909.06 620.95 2.13 c p2
967.66 640.07 2.13 c p2
0.00 0.00 1026.00 683.00 cl
0.00 0.00 1026.00 683.00 cl
0.00 0.00 1026.00 683.00 cl
/Font1 findfont 10 s
0.4980 0.4980 0.4980 srgb
37.73 203.20 (50) 1 0 t
37.73 374.53 (60) 1 0 t
37.73 545.86 (70) 1 0 t
0.00 0.00 1026.00 683.00 cl
0.00 0.00 1026.00 683.00 cl
0.4980 0.4980 0.4980 srgb
1.06 setlinewidth
[] 0 setdash
0 setlinecap
1 setlinejoin
10.00 setmiterlimit
np
40.56 206.79 m
4.25 0 l
o
np
40.56 378.12 m
4.25 0 l
o
np
40.56 549.45 m
4.25 0 l
o
0.00 0.00 1026.00 683.00 cl
0.00 0.00 1026.00 683.00 cl
0.00 0.00 1026.00 683.00 cl
0.00 0.00 1026.00 683.00 cl
0.00 0.00 1026.00 683.00 cl
0.00 0.00 1026.00 683.00 cl
0.4980 0.4980 0.4980 srgb
1.06 setlinewidth
[] 0 setdash
0 setlinecap
1 setlinejoin
10.00 setmiterlimit
np
88.76 36.62 m
0 4.25 l
o
np
381.72 36.62 m
0 4.25 l
o
np
674.69 36.62 m
0 4.25 l
o
np
967.66 36.62 m
0 4.25 l
o
0.00 0.00 1026.00 683.00 cl
0.00 0.00 1026.00 683.00 cl
/Font1 findfont 10 s
0.4980 0.4980 0.4980 srgb
88.76 26.61 (0) .5 0 t
381.72 26.61 (5) .5 0 t
674.69 26.61 (10) .5 0 t
967.66 26.61 (15) .5 0 t
0.00 0.00 1026.00 683.00 cl
0.00 0.00 1026.00 683.00 cl
0.00 0.00 1026.00 683.00 cl
0.00 0.00 1026.00 683.00 cl
0.00 0.00 1026.00 683.00 cl
/Font1 findfont 17 s
0 0 0 srgb
430.42 10.80 (K) 0 ta
-0.680 (olejne iter) tb
-0.170 (acje algor) tb
0.510 (ytm) tb
-0.170 (u) tb gr
0.00 0.00 1026.00 683.00 cl
0.00 0.00 1026.00 683.00 cl
/Font1 findfont 17 s
0 0 0 srgb
23.01 354.74 (Skutecznosc \(%\)) .5 90 t
0.00 0.00 1026.00 683.00 cl
0.00 0.00 1026.00 683.00 cl
0.00 0.00 1026.00 683.00 cl
0.00 0.00 1026.00 683.00 cl
ep
%%Trailer
%%Pages: 1
%%EOF
