%!PS-Adobe-3.0 EPSF-3.0
%%DocumentNeededResources: font Helvetica
%%+ font Helvetica-Bold
%%+ font Helvetica-Oblique
%%+ font Helvetica-BoldOblique
%%+ font Symbol
%%Title: R Graphics Output
%%Creator: R Software
%%Pages: (atend)
%%BoundingBox: 0 0 1026 683
%%EndComments
%%BeginProlog
/bp  { gs sRGB gs } def
% begin .ps.prolog
/gs  { gsave } bind def
/gr  { grestore } bind def
/ep  { showpage gr gr } bind def
/m   { moveto } bind def
/l  { rlineto } bind def
/np  { newpath } bind def
/cp  { closepath } bind def
/f   { fill } bind def
/o   { stroke } bind def
/c   { newpath 0 360 arc } bind def
/r   { 4 2 roll moveto 1 copy 3 -1 roll exch 0 exch rlineto 0 rlineto -1 mul 0 exch rlineto closepath } bind def
/p1  { stroke } bind def
/p2  { gsave bg fill grestore newpath } bind def
/p3  { gsave bg fill grestore stroke } bind def
/p6  { gsave bg eofill grestore newpath } bind def
/p7  { gsave bg eofill grestore stroke } bind def
/t   { 5 -2 roll moveto gsave rotate
       1 index stringwidth pop
       mul neg 0 rmoveto show grestore } bind def
/ta  { 4 -2 roll moveto gsave rotate show } bind def
/tb  { 2 -1 roll 0 rmoveto show } bind def
/cl  { grestore gsave newpath 3 index 3 index moveto 1 index
       4 -1 roll lineto  exch 1 index lineto lineto
       closepath clip newpath } bind def
/rgb { setrgbcolor } bind def
/s   { scalefont setfont } bind def
% end   .ps.prolog
/sRGB { [ /CIEBasedABC
          << /DecodeLMN
               [ { dup 0.03928 le
                        {12.92321 div}
                        {0.055 add 1.055 div 2.4 exp }
                     ifelse
                 } bind dup dup
               ]
             /MatrixLMN [0.412457 0.212673 0.019334
                         0.357576 0.715152 0.119192
                         0.180437 0.072175 0.950301]
             /WhitePoint [0.9505 1.0 1.0890]
           >>
         ] setcolorspace } bind def
/srgb { setcolor } bind def
%%IncludeResource: font Helvetica
/Helvetica findfont
dup length dict begin
  {1 index /FID ne {def} {pop pop} ifelse} forall
  /Encoding ISOLatin1Encoding def
  currentdict
  end
/Font1 exch definefont pop
%%IncludeResource: font Helvetica-Bold
/Helvetica-Bold findfont
dup length dict begin
  {1 index /FID ne {def} {pop pop} ifelse} forall
  /Encoding ISOLatin1Encoding def
  currentdict
  end
/Font2 exch definefont pop
%%IncludeResource: font Helvetica-Oblique
/Helvetica-Oblique findfont
dup length dict begin
  {1 index /FID ne {def} {pop pop} ifelse} forall
  /Encoding ISOLatin1Encoding def
  currentdict
  end
/Font3 exch definefont pop
%%IncludeResource: font Helvetica-BoldOblique
/Helvetica-BoldOblique findfont
dup length dict begin
  {1 index /FID ne {def} {pop pop} ifelse} forall
  /Encoding ISOLatin1Encoding def
  currentdict
  end
/Font4 exch definefont pop
%%IncludeResource: font Symbol
/Symbol findfont
dup length dict begin
  {1 index /FID ne {def} {pop pop} ifelse} forall
  currentdict
  end
/Font5 exch definefont pop
%%EndProlog
%%Page: 1 1
bp
0.00 0.00 1026.00 683.00 cl
0.00 0.00 1026.00 683.00 cl
0.00 0.00 1026.00 683.00 cl
/bg { 1 1 1 srgb } def
1 1 1 srgb
1.06 setlinewidth
[] 0 setdash
1 setlinecap
1 setlinejoin
10.00 setmiterlimit
-0.00 0.00 1026.00 683.00 r p3
0.00 0.00 1026.00 683.00 cl
0.00 0.00 1026.00 683.00 cl
0.00 0.00 1026.00 683.00 cl
49.56 37.28 1011.60 668.60 cl
/bg { 0.8980 0.8980 0.8980 srgb } def
49.56 37.28 962.04 631.32 r p2
0.9490 0.9490 0.9490 srgb
0.53 setlinewidth
[] 0 setdash
0 setlinecap
1 setlinejoin
10.00 setmiterlimit
np
49.56 121.10 m
962.04 0 l
o
np
49.56 231.34 m
962.04 0 l
o
np
49.56 341.58 m
962.04 0 l
o
np
49.56 451.82 m
962.04 0 l
o
np
49.56 562.06 m
962.04 0 l
o
np
114.11 37.28 m
0 631.32 l
o
np
322.35 37.28 m
0 631.32 l
o
np
530.58 37.28 m
0 631.32 l
o
np
738.81 37.28 m
0 631.32 l
o
np
947.05 37.28 m
0 631.32 l
o
1 1 1 srgb
1.06 setlinewidth
[] 0 setdash
np
49.56 65.98 m
962.04 0 l
o
np
49.56 176.22 m
962.04 0 l
o
np
49.56 286.46 m
962.04 0 l
o
np
49.56 396.70 m
962.04 0 l
o
np
49.56 506.94 m
962.04 0 l
o
np
49.56 617.18 m
962.04 0 l
o
np
218.23 37.28 m
0 631.32 l
o
np
426.46 37.28 m
0 631.32 l
o
np
634.70 37.28 m
0 631.32 l
o
np
842.93 37.28 m
0 631.32 l
o
0 0 0 srgb
1 setlinecap
np
93.29 353.28 m
1.71 4.76 l
1.71 4.65 l
1.72 4.55 l
1.71 4.35 l
1.71 4.24 l
1.71 4.12 l
1.71 3.95 l
1.71 3.81 l
1.72 3.70 l
1.71 3.54 l
1.71 3.39 l
1.71 3.28 l
1.71 3.15 l
1.71 2.99 l
1.71 2.89 l
1.72 2.78 l
1.71 2.63 l
1.71 2.53 l
1.71 2.44 l
1.71 2.32 l
1.71 2.23 l
1.71 2.15 l
1.72 2.07 l
1.71 1.98 l
1.71 1.92 l
1.71 1.87 l
1.71 1.79 l
1.71 1.75 l
1.72 1.72 l
1.71 1.67 l
1.71 1.65 l
1.71 1.62 l
1.71 1.62 l
1.71 1.60 l
1.71 1.60 l
1.72 1.60 l
1.71 1.61 l
1.71 1.63 l
1.71 1.64 l
1.71 1.67 l
1.71 1.71 l
1.71 1.72 l
1.72 1.78 l
1.71 1.82 l
1.71 1.85 l
1.71 1.91 l
1.71 1.96 l
1.71 2.02 l
1.72 2.06 l
1.71 2.14 l
1.71 2.19 l
1.71 2.24 l
1.71 2.33 l
1.71 2.38 l
1.71 2.44 l
1.72 2.52 l
1.71 2.58 l
1.71 2.64 l
1.71 2.71 l
1.71 2.78 l
1.71 2.84 l
1.71 2.89 l
1.72 2.97 l
1.71 3.03 l
1.71 3.07 l
1.71 3.15 l
1.71 3.19 l
1.71 3.24 l
1.72 3.29 l
1.71 3.34 l
1.71 3.38 l
1.71 3.41 l
1.71 3.46 l
1.71 3.49 l
1.71 3.50 l
1.72 3.54 l
1.71 3.55 l
1.71 3.56 l
1.71 3.57 l
1.71 3.57 l
1.71 3.57 l
1.72 3.56 l
1.71 3.54 l
1.71 3.51 l
1.71 3.50 l
1.71 3.44 l
1.71 3.41 l
1.71 3.36 l
1.72 3.29 l
1.71 3.22 l
1.71 3.16 l
1.71 3.06 l
1.71 2.96 l
1.71 2.88 l
1.71 2.77 l
1.72 2.62 l
1.71 2.52 l
1.71 2.40 l
1.71 2.20 l
264.44 629.60 lineto
1.71 1.93 l
1.72 1.73 l
1.71 1.53 l
1.71 1.38 l
1.71 1.18 l
1.71 0.93 l
1.71 0.75 l
1.71 0.57 l
1.72 0.25 l
1.71 0.05 l
1.71 -0.13 l
1.71 -0.46 l
1.71 -0.70 l
1.71 -0.90 l
1.71 -1.20 l
1.72 -1.49 l
1.71 -1.70 l
1.71 -1.96 l
1.71 -2.31 l
1.71 -2.52 l
1.71 -2.74 l
1.72 -3.12 l
1.71 -3.34 l
1.71 -3.55 l
1.71 -3.88 l
1.71 -4.13 l
1.71 -4.33 l
1.71 -4.60 l
1.72 -4.88 l
1.71 -5.06 l
1.71 -5.27 l
1.71 -5.56 l
1.71 -5.72 l
1.71 -5.89 l
1.71 -6.14 l
1.72 -6.30 l
1.71 -6.43 l
1.71 -6.62 l
1.71 -6.78 l
1.71 -6.88 l
1.71 -7.00 l
1.72 -7.14 l
1.71 -7.22 l
1.71 -7.30 l
1.71 -7.39 l
1.71 -7.45 l
1.71 -7.48 l
1.71 -7.54 l
1.72 -7.55 l
1.71 -7.57 l
1.71 -7.58 l
1.71 -7.56 l
1.71 -7.55 l
1.71 -7.53 l
1.71 -7.47 l
1.72 -7.44 l
1.71 -7.39 l
1.71 -7.30 l
1.71 -7.23 l
1.71 -7.18 l
1.71 -7.06 l
1.72 -6.97 l
1.71 -6.89 l
1.71 -6.78 l
1.71 -6.64 l
1.71 -6.55 l
1.71 -6.45 l
1.71 -6.27 l
1.72 -6.18 l
1.71 -6.06 l
1.71 -5.90 l
1.71 -5.77 l
1.71 -5.66 l
1.71 -5.51 l
1.72 -5.35 l
1.71 -5.24 l
1.71 -5.12 l
1.71 -4.93 l
1.71 -4.81 l
1.71 -4.71 l
1.71 -4.52 l
1.72 -4.40 l
1.71 -4.29 l
1.71 -4.13 l
1.71 -3.99 l
1.71 -3.89 l
1.71 -3.75 l
1.71 -3.60 l
1.72 -3.50 l
1.71 -3.39 l
1.71 -3.23 l
1.71 -3.13 l
1.71 -3.03 l
1.71 -2.88 l
1.72 -2.78 l
1.71 -2.69 l
1.71 -2.57 l
1.71 -2.44 l
1.71 -2.37 l
435.59 191.75 lineto
1.71 -2.14 l
1.72 -2.06 l
1.71 -1.99 l
1.71 -1.85 l
1.71 -1.78 l
1.71 -1.70 l
1.71 -1.60 l
1.71 -1.52 l
1.72 -1.45 l
1.71 -1.36 l
1.71 -1.28 l
1.71 -1.21 l
1.71 -1.15 l
1.71 -1.06 l
1.72 -0.99 l
1.71 -0.95 l
1.71 -0.85 l
1.71 -0.80 l
1.71 -0.75 l
1.71 -0.68 l
1.71 -0.62 l
1.72 -0.58 l
1.71 -0.51 l
1.71 -0.46 l
1.71 -0.41 l
1.71 -0.37 l
1.71 -0.30 l
1.71 -0.26 l
1.72 -0.22 l
1.71 -0.17 l
1.71 -0.12 l
1.71 -0.09 l
1.71 -0.04 l
1.71 0.01 l
1.72 0.04 l
1.71 0.08 l
1.71 0.13 l
1.71 0.17 l
1.71 0.20 l
1.71 0.25 l
1.71 0.30 l
1.72 0.32 l
1.71 0.38 l
1.71 0.41 l
1.71 0.46 l
1.71 0.49 l
1.71 0.55 l
1.72 0.59 l
1.71 0.62 l
1.71 0.69 l
1.71 0.72 l
1.71 0.77 l
1.71 0.82 l
1.71 0.88 l
1.72 0.91 l
1.71 0.98 l
1.71 1.03 l
1.71 1.08 l
1.71 1.12 l
1.71 1.21 l
1.71 1.24 l
1.72 1.30 l
1.71 1.37 l
1.71 1.43 l
1.71 1.48 l
1.71 1.55 l
1.71 1.61 l
1.72 1.67 l
1.71 1.73 l
1.71 1.80 l
1.71 1.86 l
1.71 1.91 l
1.71 2.00 l
1.71 2.04 l
1.72 2.10 l
1.71 2.18 l
1.71 2.24 l
1.71 2.28 l
1.71 2.35 l
1.71 2.42 l
1.71 2.46 l
1.72 2.52 l
1.71 2.58 l
1.71 2.63 l
1.71 2.67 l
1.71 2.74 l
1.71 2.77 l
1.72 2.81 l
1.71 2.86 l
1.71 2.90 l
1.71 2.93 l
1.71 2.97 l
1.71 3.00 l
1.71 3.03 l
1.72 3.04 l
1.71 3.08 l
1.71 3.09 l
1.71 3.11 l
1.71 3.12 l
606.74 269.64 lineto
1.71 3.14 l
1.72 3.13 l
1.71 3.14 l
1.71 3.13 l
1.71 3.13 l
1.71 3.11 l
1.71 3.10 l
1.72 3.09 l
1.71 3.06 l
1.71 3.03 l
1.71 3.02 l
1.71 2.98 l
1.71 2.94 l
1.71 2.91 l
1.72 2.87 l
1.71 2.82 l
1.71 2.78 l
1.71 2.73 l
1.71 2.67 l
1.71 2.61 l
1.71 2.57 l
1.72 2.49 l
1.71 2.43 l
1.71 2.37 l
1.71 2.29 l
1.71 2.21 l
1.71 2.15 l
1.72 2.06 l
1.71 1.97 l
1.71 1.89 l
1.71 1.82 l
1.71 1.70 l
1.71 1.61 l
1.71 1.53 l
1.72 1.41 l
1.71 1.31 l
1.71 1.22 l
1.71 1.09 l
1.71 0.97 l
1.71 0.88 l
1.72 0.77 l
1.71 0.61 l
1.71 0.51 l
1.71 0.41 l
1.71 0.23 l
1.71 0.13 l
1.71 0.01 l
1.72 -0.15 l
1.71 -0.29 l
1.71 -0.40 l
1.71 -0.54 l
1.71 -0.71 l
1.71 -0.83 l
1.71 -0.95 l
1.72 -1.15 l
1.71 -1.26 l
1.71 -1.38 l
1.71 -1.57 l
1.71 -1.70 l
1.71 -1.81 l
1.72 -1.98 l
1.71 -2.13 l
1.71 -2.24 l
1.71 -2.37 l
1.71 -2.54 l
1.71 -2.64 l
1.71 -2.75 l
1.72 -2.93 l
1.71 -3.02 l
1.71 -3.12 l
1.71 -3.25 l
1.71 -3.37 l
1.71 -3.44 l
1.71 -3.55 l
1.72 -3.66 l
1.71 -3.73 l
1.71 -3.80 l
1.71 -3.91 l
1.71 -3.95 l
1.71 -4.01 l
1.72 -4.08 l
1.71 -4.13 l
1.71 -4.16 l
1.71 -4.20 l
1.71 -4.24 l
1.71 -4.25 l
1.71 -4.27 l
1.72 -4.28 l
1.71 -4.28 l
1.71 -4.28 l
1.71 -4.26 l
1.71 -4.25 l
1.71 -4.22 l
1.71 -4.20 l
1.72 -4.15 l
1.71 -4.13 l
1.71 -4.07 l
1.71 -4.01 l
1.71 -3.97 l
777.89 209.20 lineto
1.72 -3.82 l
1.71 -3.76 l
1.71 -3.71 l
1.71 -3.59 l
1.71 -3.53 l
1.71 -3.45 l
1.71 -3.35 l
1.72 -3.25 l
1.71 -3.18 l
1.71 -3.08 l
1.71 -2.96 l
1.71 -2.89 l
1.71 -2.79 l
1.71 -2.66 l
1.72 -2.57 l
1.71 -2.49 l
1.71 -2.35 l
1.71 -2.26 l
1.71 -2.18 l
1.71 -2.06 l
1.72 -1.94 l
1.71 -1.87 l
1.71 -1.77 l
1.71 -1.64 l
1.71 -1.56 l
1.71 -1.49 l
1.71 -1.35 l
1.72 -1.28 l
1.71 -1.20 l
1.71 -1.10 l
1.71 -1.00 l
1.71 -0.94 l
1.71 -0.85 l
1.72 -0.76 l
1.71 -0.70 l
1.71 -0.63 l
1.71 -0.54 l
1.71 -0.48 l
1.71 -0.42 l
1.71 -0.34 l
1.72 -0.29 l
1.71 -0.24 l
1.71 -0.18 l
1.71 -0.12 l
1.71 -0.09 l
1.71 -0.04 l
1.71 0.02 l
1.72 0.04 l
1.71 0.08 l
1.71 0.13 l
1.71 0.14 l
1.71 0.18 l
1.71 0.20 l
1.72 0.22 l
1.71 0.24 l
1.71 0.26 l
1.71 0.28 l
1.71 0.28 l
1.71 0.29 l
1.71 0.29 l
1.72 0.30 l
1.71 0.30 l
1.71 0.29 l
1.71 0.29 l
1.71 0.28 l
1.71 0.27 l
1.71 0.26 l
1.72 0.24 l
1.71 0.23 l
1.71 0.20 l
1.71 0.19 l
1.71 0.17 l
1.71 0.13 l
1.72 0.10 l
1.71 0.09 l
1.71 0.04 l
1.71 0.02 l
1.71 -0.02 l
1.71 -0.05 l
1.71 -0.09 l
1.72 -0.13 l
1.71 -0.16 l
1.71 -0.21 l
1.71 -0.25 l
1.71 -0.28 l
1.71 -0.33 l
1.71 -0.38 l
1.72 -0.40 l
1.71 -0.46 l
1.71 -0.50 l
1.71 -0.53 l
1.71 -0.58 l
1.71 -0.63 l
1.72 -0.66 l
1.71 -0.69 l
1.71 -0.75 l
1.71 -0.78 l
1.71 -0.81 l
1.71 -0.85 l
949.04 122.07 lineto
1.72 -0.92 l
1.71 -0.95 l
1.71 -0.98 l
1.71 -1.00 l
1.71 -1.03 l
1.71 -1.06 l
1.72 -1.08 l
1.71 -1.10 l
1.71 -1.12 l
1.71 -1.13 l
1.71 -1.15 l
0 -44.57 l
-1.71 0 l
-1.71 0 l
-1.71 0 l
-1.71 0 l
-1.72 0 l
-1.71 0 l
-1.71 0 l
-1.71 0 l
-1.71 0 l
-1.71 0 l
-1.72 0 l
-1.71 0 l
-1.71 0 l
-1.71 0 l
-1.71 0 l
-1.71 0 l
-1.71 0 l
-1.72 0 l
-1.71 0 l
-1.71 0 l
-1.71 0 l
-1.71 0 l
-1.71 0 l
-1.72 0 l
-1.71 0 l
-1.71 0 l
-1.71 0 l
-1.71 0 l
-1.71 0 l
-1.71 0 l
-1.72 0 l
-1.71 0 l
-1.71 0 l
-1.71 0 l
-1.71 0 l
-1.71 0 l
-1.71 0 l
-1.72 0 l
-1.71 0 l
-1.71 0 l
-1.71 0 l
-1.71 0 l
-1.71 0 l
-1.72 0 l
-1.71 0 l
-1.71 0 l
-1.71 0 l
-1.71 0 l
-1.71 0 l
-1.71 0 l
-1.72 0 l
-1.71 0 l
-1.71 0 l
-1.71 0 l
-1.71 0 l
-1.71 0 l
-1.71 0 l
-1.72 0 l
-1.71 0 l
-1.71 0 l
-1.71 0 l
-1.71 0 l
-1.71 0 l
-1.72 0 l
-1.71 0 l
-1.71 0 l
-1.71 0 l
-1.71 0 l
-1.71 0 l
-1.71 0 l
-1.72 0 l
-1.71 0 l
-1.71 0 l
-1.71 0 l
-1.71 0 l
-1.71 0 l
-1.71 0 l
-1.72 0 l
-1.71 0 l
-1.71 0 l
-1.71 0 l
-1.71 0 l
-1.71 0 l
-1.72 0 l
-1.71 0 l
-1.71 0 l
-1.71 0 l
817.26 65.98 lineto
-1.71 0 l
-1.71 0 l
-1.72 0 l
-1.71 0 l
-1.71 0 l
-1.71 0 l
-1.71 0 l
-1.71 0 l
-1.72 0 l
-1.71 0 l
-1.71 0 l
-1.71 0 l
-1.71 0 l
-1.71 0 l
-1.71 0 l
-1.72 0 l
-1.71 0 l
-1.71 0 l
-1.71 0 l
-1.71 0 l
-1.71 0 l
-1.71 0 l
-1.72 0 l
-1.71 0 l
-1.71 0 l
-1.71 0 l
-1.71 0 l
-1.71 0 l
-1.72 0 l
-1.71 0 l
-1.71 0 l
-1.71 0 l
-1.71 0 l
-1.71 0 l
-1.71 0 l
-1.72 0 l
-1.71 0 l
-1.71 0 l
-1.71 0 l
-1.71 0 l
-1.71 0 l
-1.71 0 l
-1.72 0 l
-1.71 0 l
-1.71 0 l
-1.71 0 l
-1.71 0 l
-1.71 0 l
-1.72 0 l
-1.71 0 l
-1.71 0 l
-1.71 0 l
-1.71 0 l
-1.71 0 l
-1.71 0 l
-1.72 0 l
-1.71 0 l
-1.71 0 l
-1.71 0 l
-1.71 0 l
-1.71 0 l
-1.71 0 l
-1.72 0 l
-1.71 0 l
-1.71 0 l
-1.71 0 l
-1.71 0 l
-1.71 0 l
-1.72 0 l
-1.71 0 l
-1.71 0 l
-1.71 0 l
-1.71 0 l
-1.71 0 l
-1.71 0 l
-1.72 0 l
-1.71 0 l
-1.71 0 l
-1.71 0 l
-1.71 0 l
-1.71 0 l
-1.71 0 l
-1.72 0 l
-1.71 0 l
-1.71 0 l
-1.71 0 l
-1.71 0 l
-1.71 0 l
-1.72 0 l
-1.71 0 l
-1.71 0 l
-1.71 0 l
-1.71 0 l
-1.71 0 l
-1.71 0 l
-1.72 0 l
-1.71 0 l
-1.71 0 l
-1.71 0 l
646.11 65.98 lineto
-1.71 0 l
-1.72 0 l
-1.71 0 l
-1.71 0 l
-1.71 0 l
-1.71 0 l
-1.71 0 l
-1.71 0 l
-1.72 0 l
-1.71 0 l
-1.71 0 l
-1.71 0 l
-1.71 0 l
-1.71 0 l
-1.71 0 l
-1.72 0 l
-1.71 0 l
-1.71 0 l
-1.71 0 l
-1.71 0 l
-1.71 0 l
-1.72 0 l
-1.71 0 l
-1.71 0 l
-1.71 0 l
-1.71 0 l
-1.71 0 l
-1.71 0 l
-1.72 0 l
-1.71 0 l
-1.71 0 l
-1.71 0 l
-1.71 0 l
-1.71 0 l
-1.71 0 l
-1.72 0 l
-1.71 0 l
-1.71 0 l
-1.71 0 l
-1.71 0 l
-1.71 0 l
-1.72 0 l
-1.71 0 l
-1.71 0 l
-1.71 0 l
-1.71 0 l
-1.71 0 l
-1.71 0 l
-1.72 0 l
-1.71 0 l
-1.71 0 l
-1.71 0 l
-1.71 0 l
-1.71 0 l
-1.71 0 l
-1.72 0 l
-1.71 0 l
-1.71 0 l
-1.71 0 l
-1.71 0 l
-1.71 0 l
-1.72 0 l
-1.71 0 l
-1.71 0 l
-1.71 0 l
-1.71 0 l
-1.71 0 l
-1.71 0 l
-1.72 0 l
-1.71 0 l
-1.71 0 l
-1.71 0 l
-1.71 0 l
-1.71 0 l
-1.71 0 l
-1.72 0 l
-1.71 0 l
-1.71 0 l
-1.71 0 l
-1.71 0 l
-1.71 0 l
-1.72 0 l
-1.71 0 l
-1.71 0 l
-1.71 0 l
-1.71 0 l
-1.71 0 l
-1.71 0 l
-1.72 0 l
-1.71 0 l
-1.71 0 l
-1.71 0 l
-1.71 0 l
-1.71 0 l
-1.72 0 l
-1.71 0 l
-1.71 0 l
-1.71 0 l
-1.71 0 l
474.96 65.98 lineto
-1.71 0 l
-1.72 0 l
-1.71 0 l
-1.71 0 l
-1.71 0 l
-1.71 0 l
-1.71 0 l
-1.71 0 l
-1.72 0 l
-1.71 0 l
-1.71 0 l
-1.71 0 l
-1.71 0 l
-1.71 0 l
-1.72 0 l
-1.71 0 l
-1.71 0 l
-1.71 0 l
-1.71 0 l
-1.71 0 l
-1.71 0 l
-1.72 0 l
-1.71 0 l
-1.71 0 l
-1.71 0 l
-1.71 0 l
-1.71 0 l
-1.71 0 l
-1.72 0 l
-1.71 0 l
-1.71 0 l
-1.71 0 l
-1.71 0 l
-1.71 0 l
-1.72 0 l
-1.71 0 l
-1.71 0 l
-1.71 0 l
-1.71 0 l
-1.71 0 l
-1.71 0 l
-1.72 0 l
-1.71 0 l
-1.71 0 l
-1.71 0 l
-1.71 0 l
-1.71 0 l
-1.71 0 l
-1.72 0 l
-1.71 0 l
-1.71 0 l
-1.71 0 l
-1.71 0 l
-1.71 0 l
-1.72 0 l
-1.71 0 l
-1.71 0 l
-1.71 0 l
-1.71 0 l
-1.71 0 l
-1.71 0 l
-1.72 0 l
-1.71 0 l
-1.71 0 l
-1.71 0 l
-1.71 0 l
-1.71 0 l
-1.72 0 l
-1.71 0 l
-1.71 0 l
-1.71 0 l
-1.71 0 l
-1.71 0 l
-1.71 0 l
-1.72 0 l
-1.71 0 l
-1.71 0 l
-1.71 0 l
-1.71 0 l
-1.71 0 l
-1.71 0 l
-1.72 0 l
-1.71 0 l
-1.71 0 l
-1.71 0 l
-1.71 0 l
-1.71 0 l
-1.72 0 l
-1.71 0 l
-1.71 0 l
-1.71 0 l
-1.71 0 l
-1.71 0 l
-1.71 0 l
-1.72 0 l
-1.71 0 l
-1.71 0 l
-1.71 0 l
-1.71 0 l
303.81 65.98 lineto
-1.71 0 l
-1.72 0 l
-1.71 0 l
-1.71 0 l
-1.71 0 l
-1.71 0 l
-1.71 0 l
-1.72 0 l
-1.71 0 l
-1.71 0 l
-1.71 0 l
-1.71 0 l
-1.71 0 l
-1.71 0 l
-1.72 0 l
-1.71 0 l
-1.71 0 l
-1.71 0 l
-1.71 0 l
-1.71 0 l
-1.71 0 l
-1.72 0 l
-1.71 0 l
-1.71 0 l
-1.71 0 l
-1.71 0 l
-1.71 0 l
-1.72 0 l
-1.71 0 l
-1.71 0 l
-1.71 0 l
-1.71 0 l
-1.71 0 l
-1.71 0 l
-1.72 0 l
-1.71 0 l
-1.71 0 l
-1.71 0 l
-1.71 0 l
-1.71 0 l
-1.71 0 l
-1.72 0 l
-1.71 0 l
-1.71 0 l
-1.71 0 l
-1.71 0 l
-1.71 0 l
-1.72 0 l
-1.71 0 l
-1.71 0 l
-1.71 0 l
-1.71 0 l
-1.71 0 l
-1.71 0 l
-1.72 0 l
-1.71 0 l
-1.71 0 l
-1.71 0 l
-1.71 0 l
-1.71 0 l
-1.72 0 l
-1.71 0 l
-1.71 0 l
-1.71 0 l
-1.71 0 l
-1.71 0 l
-1.71 0 l
-1.72 0 l
-1.71 0 l
-1.71 0 l
-1.71 0 l
-1.71 0 l
-1.71 0 l
-1.71 0 l
-1.72 0 l
-1.71 0 l
-1.71 0 l
-1.71 0 l
-1.71 0 l
-1.71 0 l
-1.72 0 l
-1.71 0 l
-1.71 0 l
-1.71 0 l
-1.71 0 l
-1.71 0 l
-1.71 0 l
-1.72 0 l
-1.71 0 l
-1.71 0 l
-1.71 0 l
-1.71 0 l
-1.71 0 l
-1.71 0 l
-1.72 0 l
-1.71 0 l
-1.71 0 l
-1.71 0 l
-1.71 0 l
currentpoint o m
132.66 65.98 lineto
-1.72 0 l
-1.71 0 l
-1.71 0 l
-1.71 0 l
-1.71 0 l
-1.71 0 l
-1.71 0 l
-1.72 0 l
-1.71 0 l
-1.71 0 l
-1.71 0 l
-1.71 0 l
-1.71 0 l
-1.71 0 l
-1.72 0 l
-1.71 0 l
-1.71 0 l
-1.71 0 l
-1.71 0 l
-1.71 0 l
-1.72 0 l
-1.71 0 l
-1.71 0 l
0 287.30 l
o
0.00 0.00 1026.00 683.00 cl
0.00 0.00 1026.00 683.00 cl
0.00 0.00 1026.00 683.00 cl
/Font1 findfont 10 s
0.4980 0.4980 0.4980 srgb
42.48 62.39 (0.00) 1 0 t
42.48 172.63 (0.01) 1 0 t
42.48 282.87 (0.02) 1 0 t
42.48 393.11 (0.03) 1 0 t
42.48 503.35 (0.04) 1 0 t
42.48 613.59 (0.05) 1 0 t
0.00 0.00 1026.00 683.00 cl
0.00 0.00 1026.00 683.00 cl
0.4980 0.4980 0.4980 srgb
1.06 setlinewidth
[] 0 setdash
0 setlinecap
1 setlinejoin
10.00 setmiterlimit
np
45.31 65.98 m
4.25 0 l
o
np
45.31 176.22 m
4.25 0 l
o
np
45.31 286.46 m
4.25 0 l
o
np
45.31 396.70 m
4.25 0 l
o
np
45.31 506.94 m
4.25 0 l
o
np
45.31 617.18 m
4.25 0 l
o
0.00 0.00 1026.00 683.00 cl
0.00 0.00 1026.00 683.00 cl
0.00 0.00 1026.00 683.00 cl
0.00 0.00 1026.00 683.00 cl
0.00 0.00 1026.00 683.00 cl
0.00 0.00 1026.00 683.00 cl
0.4980 0.4980 0.4980 srgb
1.06 setlinewidth
[] 0 setdash
0 setlinecap
1 setlinejoin
10.00 setmiterlimit
np
218.23 33.03 m
0 4.25 l
o
np
426.46 33.03 m
0 4.25 l
o
np
634.70 33.03 m
0 4.25 l
o
np
842.93 33.03 m
0 4.25 l
o
0.00 0.00 1026.00 683.00 cl
0.00 0.00 1026.00 683.00 cl
/Font1 findfont 10 s
0.4980 0.4980 0.4980 srgb
218.23 23.02 (-90) .5 0 t
426.46 23.02 (-80) .5 0 t
634.70 23.02 (-70) .5 0 t
842.93 23.02 (-60) .5 0 t
0.00 0.00 1026.00 683.00 cl
0.00 0.00 1026.00 683.00 cl
0.00 0.00 1026.00 683.00 cl
0.00 0.00 1026.00 683.00 cl
0.00 0.00 1026.00 683.00 cl
0.00 0.00 1026.00 683.00 cl
0.00 0.00 1026.00 683.00 cl
0.00 0.00 1026.00 683.00 cl
0.00 0.00 1026.00 683.00 cl
0.00 0.00 1026.00 683.00 cl
0.00 0.00 1026.00 683.00 cl
ep
%%Trailer
%%Pages: 1
%%EOF
