%!PS-Adobe-3.0 EPSF-3.0
%%DocumentNeededResources: font Helvetica
%%+ font Helvetica-Bold
%%+ font Helvetica-Oblique
%%+ font Helvetica-BoldOblique
%%+ font Symbol
%%Title: R Graphics Output
%%Creator: R Software
%%Pages: (atend)
%%BoundingBox: 0 0 1026 683
%%EndComments
%%BeginProlog
/bp  { gs sRGB gs } def
% begin .ps.prolog
/gs  { gsave } bind def
/gr  { grestore } bind def
/ep  { showpage gr gr } bind def
/m   { moveto } bind def
/l  { rlineto } bind def
/np  { newpath } bind def
/cp  { closepath } bind def
/f   { fill } bind def
/o   { stroke } bind def
/c   { newpath 0 360 arc } bind def
/r   { 4 2 roll moveto 1 copy 3 -1 roll exch 0 exch rlineto 0 rlineto -1 mul 0 exch rlineto closepath } bind def
/p1  { stroke } bind def
/p2  { gsave bg fill grestore newpath } bind def
/p3  { gsave bg fill grestore stroke } bind def
/p6  { gsave bg eofill grestore newpath } bind def
/p7  { gsave bg eofill grestore stroke } bind def
/t   { 5 -2 roll moveto gsave rotate
       1 index stringwidth pop
       mul neg 0 rmoveto show grestore } bind def
/ta  { 4 -2 roll moveto gsave rotate show } bind def
/tb  { 2 -1 roll 0 rmoveto show } bind def
/cl  { grestore gsave newpath 3 index 3 index moveto 1 index
       4 -1 roll lineto  exch 1 index lineto lineto
       closepath clip newpath } bind def
/rgb { setrgbcolor } bind def
/s   { scalefont setfont } bind def
% end   .ps.prolog
/sRGB { [ /CIEBasedABC
          << /DecodeLMN
               [ { dup 0.03928 le
                        {12.92321 div}
                        {0.055 add 1.055 div 2.4 exp }
                     ifelse
                 } bind dup dup
               ]
             /MatrixLMN [0.412457 0.212673 0.019334
                         0.357576 0.715152 0.119192
                         0.180437 0.072175 0.950301]
             /WhitePoint [0.9505 1.0 1.0890]
           >>
         ] setcolorspace } bind def
/srgb { setcolor } bind def
%%IncludeResource: font Helvetica
/Helvetica findfont
dup length dict begin
  {1 index /FID ne {def} {pop pop} ifelse} forall
  /Encoding ISOLatin1Encoding def
  currentdict
  end
/Font1 exch definefont pop
%%IncludeResource: font Helvetica-Bold
/Helvetica-Bold findfont
dup length dict begin
  {1 index /FID ne {def} {pop pop} ifelse} forall
  /Encoding ISOLatin1Encoding def
  currentdict
  end
/Font2 exch definefont pop
%%IncludeResource: font Helvetica-Oblique
/Helvetica-Oblique findfont
dup length dict begin
  {1 index /FID ne {def} {pop pop} ifelse} forall
  /Encoding ISOLatin1Encoding def
  currentdict
  end
/Font3 exch definefont pop
%%IncludeResource: font Helvetica-BoldOblique
/Helvetica-BoldOblique findfont
dup length dict begin
  {1 index /FID ne {def} {pop pop} ifelse} forall
  /Encoding ISOLatin1Encoding def
  currentdict
  end
/Font4 exch definefont pop
%%IncludeResource: font Symbol
/Symbol findfont
dup length dict begin
  {1 index /FID ne {def} {pop pop} ifelse} forall
  currentdict
  end
/Font5 exch definefont pop
%%EndProlog
%%Page: 1 1
bp
0.00 0.00 1026.00 683.00 cl
0.00 0.00 1026.00 683.00 cl
0.00 0.00 1026.00 683.00 cl
/bg { 1 1 1 srgb } def
1 1 1 srgb
1.06 setlinewidth
[] 0 setdash
1 setlinecap
1 setlinejoin
10.00 setmiterlimit
-0.00 0.00 1026.00 683.00 r p3
0.00 0.00 1026.00 683.00 cl
0.00 0.00 1026.00 683.00 cl
0.00 0.00 1026.00 683.00 cl
49.56 37.28 1011.60 668.60 cl
/bg { 0.8980 0.8980 0.8980 srgb } def
49.56 37.28 962.04 631.32 r p2
0.9490 0.9490 0.9490 srgb
0.53 setlinewidth
[] 0 setdash
0 setlinecap
1 setlinejoin
10.00 setmiterlimit
np
49.56 123.96 m
962.04 0 l
o
np
49.56 239.91 m
962.04 0 l
o
np
49.56 355.86 m
962.04 0 l
o
np
49.56 471.82 m
962.04 0 l
o
np
49.56 587.77 m
962.04 0 l
o
np
112.73 37.28 m
0 631.32 l
o
np
307.08 37.28 m
0 631.32 l
o
np
501.43 37.28 m
0 631.32 l
o
np
695.78 37.28 m
0 631.32 l
o
np
890.13 37.28 m
0 631.32 l
o
1 1 1 srgb
1.06 setlinewidth
[] 0 setdash
np
49.56 65.98 m
962.04 0 l
o
np
49.56 181.93 m
962.04 0 l
o
np
49.56 297.89 m
962.04 0 l
o
np
49.56 413.84 m
962.04 0 l
o
np
49.56 529.80 m
962.04 0 l
o
np
49.56 645.75 m
962.04 0 l
o
np
209.90 37.28 m
0 631.32 l
o
np
404.25 37.28 m
0 631.32 l
o
np
598.60 37.28 m
0 631.32 l
o
np
792.96 37.28 m
0 631.32 l
o
np
987.31 37.28 m
0 631.32 l
o
0 0 0 srgb
1 setlinecap
np
93.29 364.74 m
1.71 5.74 l
1.71 5.50 l
1.72 5.30 l
1.71 5.11 l
1.71 4.92 l
1.71 4.63 l
1.71 4.44 l
1.71 4.25 l
1.72 4.01 l
1.71 3.76 l
1.71 3.57 l
1.71 3.39 l
1.71 3.11 l
1.71 2.93 l
1.71 2.74 l
1.72 2.57 l
1.71 2.32 l
1.71 2.17 l
1.71 2.02 l
1.71 1.83 l
1.71 1.66 l
1.71 1.55 l
1.72 1.42 l
1.71 1.25 l
1.71 1.15 l
1.71 1.06 l
1.71 0.96 l
1.71 0.85 l
1.72 0.78 l
1.71 0.73 l
1.71 0.65 l
1.71 0.60 l
1.71 0.57 l
1.71 0.54 l
1.71 0.50 l
1.72 0.49 l
1.71 0.48 l
1.71 0.48 l
1.71 0.48 l
1.71 0.50 l
1.71 0.52 l
1.71 0.54 l
1.72 0.59 l
1.71 0.61 l
1.71 0.66 l
1.71 0.73 l
1.71 0.78 l
1.71 0.83 l
1.72 0.91 l
1.71 1.00 l
1.71 1.07 l
1.71 1.14 l
1.71 1.26 l
1.71 1.35 l
1.71 1.44 l
1.72 1.55 l
1.71 1.69 l
1.71 1.79 l
1.71 1.90 l
1.71 2.04 l
1.71 2.18 l
1.71 2.30 l
1.72 2.41 l
1.71 2.61 l
1.71 2.72 l
1.71 2.85 l
1.71 3.00 l
1.71 3.17 l
1.72 3.30 l
1.71 3.41 l
1.71 3.59 l
1.71 3.72 l
1.71 3.84 l
1.71 3.95 l
1.71 4.11 l
1.72 4.21 l
1.71 4.30 l
1.71 4.40 l
1.71 4.51 l
1.71 4.56 l
1.71 4.62 l
1.72 4.68 l
1.71 4.71 l
1.71 4.73 l
1.71 4.74 l
1.71 4.71 l
1.71 4.69 l
1.71 4.64 l
1.72 4.57 l
1.71 4.48 l
1.71 4.38 l
1.71 4.28 l
1.71 4.09 l
1.71 3.93 l
1.71 3.79 l
1.72 3.58 l
1.71 3.32 l
1.71 3.12 l
1.71 2.91 l
264.44 629.85 lineto
1.71 2.31 l
1.72 2.05 l
1.71 1.80 l
1.71 1.38 l
1.71 1.10 l
1.71 0.83 l
1.71 0.49 l
1.71 0.09 l
1.72 -0.18 l
1.71 -0.46 l
1.71 -0.88 l
1.71 -1.18 l
1.71 -1.44 l
1.71 -1.74 l
1.71 -2.11 l
1.72 -2.35 l
1.71 -2.58 l
1.71 -2.86 l
1.71 -3.12 l
1.71 -3.30 l
1.71 -3.47 l
1.72 -3.71 l
1.71 -3.85 l
1.71 -3.96 l
1.71 -4.09 l
1.71 -4.20 l
1.71 -4.25 l
1.71 -4.31 l
1.72 -4.35 l
1.71 -4.35 l
1.71 -4.34 l
1.71 -4.33 l
1.71 -4.28 l
1.71 -4.21 l
1.71 -4.16 l
1.72 -4.07 l
1.71 -3.95 l
1.71 -3.87 l
1.71 -3.76 l
1.71 -3.62 l
1.71 -3.50 l
1.72 -3.39 l
1.71 -3.28 l
1.71 -3.10 l
1.71 -3.01 l
1.71 -2.91 l
1.71 -2.78 l
1.71 -2.66 l
1.72 -2.59 l
1.71 -2.51 l
1.71 -2.42 l
1.71 -2.36 l
1.71 -2.32 l
1.71 -2.28 l
1.71 -2.26 l
1.72 -2.26 l
1.71 -2.26 l
1.71 -2.29 l
1.71 -2.33 l
1.71 -2.37 l
1.71 -2.43 l
1.72 -2.53 l
1.71 -2.61 l
1.71 -2.70 l
1.71 -2.81 l
1.71 -2.95 l
1.71 -3.07 l
1.71 -3.18 l
1.72 -3.35 l
1.71 -3.50 l
1.71 -3.63 l
1.71 -3.75 l
1.71 -3.97 l
1.71 -4.08 l
1.72 -4.22 l
1.71 -4.37 l
1.71 -4.53 l
1.71 -4.64 l
1.71 -4.75 l
1.71 -4.90 l
1.71 -5.01 l
1.72 -5.10 l
1.71 -5.18 l
1.71 -5.29 l
1.71 -5.35 l
1.71 -5.39 l
1.71 -5.46 l
1.71 -5.49 l
1.72 -5.50 l
1.71 -5.52 l
1.71 -5.52 l
1.71 -5.51 l
1.71 -5.48 l
1.71 -5.45 l
1.72 -5.40 l
1.71 -5.34 l
1.71 -5.29 l
1.71 -5.20 l
1.71 -5.11 l
435.59 305.10 lineto
1.71 -4.95 l
1.72 -4.80 l
1.71 -4.71 l
1.71 -4.60 l
1.71 -4.47 l
1.71 -4.32 l
1.71 -4.21 l
1.71 -4.09 l
1.72 -3.92 l
1.71 -3.79 l
1.71 -3.66 l
1.71 -3.54 l
1.71 -3.35 l
1.71 -3.23 l
1.72 -3.11 l
1.71 -2.96 l
1.71 -2.81 l
1.71 -2.69 l
1.71 -2.58 l
1.71 -2.41 l
1.71 -2.29 l
1.72 -2.19 l
1.71 -2.08 l
1.71 -1.93 l
1.71 -1.84 l
1.71 -1.75 l
1.71 -1.63 l
1.71 -1.52 l
1.72 -1.45 l
1.71 -1.37 l
1.71 -1.27 l
1.71 -1.19 l
1.71 -1.14 l
1.71 -1.06 l
1.72 -0.99 l
1.71 -0.94 l
1.71 -0.89 l
1.71 -0.84 l
1.71 -0.79 l
1.71 -0.76 l
1.71 -0.73 l
1.72 -0.68 l
1.71 -0.67 l
1.71 -0.64 l
1.71 -0.63 l
1.71 -0.60 l
1.71 -0.60 l
1.72 -0.59 l
1.71 -0.58 l
1.71 -0.58 l
1.71 -0.58 l
1.71 -0.58 l
1.71 -0.58 l
1.71 -0.59 l
1.72 -0.60 l
1.71 -0.61 l
1.71 -0.61 l
1.71 -0.63 l
1.71 -0.63 l
1.71 -0.65 l
1.71 -0.66 l
1.72 -0.67 l
1.71 -0.69 l
1.71 -0.70 l
1.71 -0.71 l
1.71 -0.71 l
1.71 -0.74 l
1.72 -0.74 l
1.71 -0.74 l
1.71 -0.76 l
1.71 -0.76 l
1.71 -0.77 l
1.71 -0.77 l
1.71 -0.78 l
1.72 -0.77 l
1.71 -0.77 l
1.71 -0.78 l
1.71 -0.77 l
1.71 -0.76 l
1.71 -0.75 l
1.71 -0.75 l
1.72 -0.74 l
1.71 -0.72 l
1.71 -0.72 l
1.71 -0.69 l
1.71 -0.68 l
1.71 -0.66 l
1.72 -0.65 l
1.71 -0.61 l
1.71 -0.60 l
1.71 -0.57 l
1.71 -0.55 l
1.71 -0.52 l
1.71 -0.49 l
1.72 -0.47 l
1.71 -0.44 l
1.71 -0.40 l
1.71 -0.37 l
1.71 -0.35 l
606.74 164.53 lineto
1.71 -0.27 l
1.72 -0.25 l
1.71 -0.22 l
1.71 -0.17 l
1.71 -0.15 l
1.71 -0.13 l
1.71 -0.08 l
1.72 -0.06 l
1.71 -0.02 l
1.71 -0.01 l
1.71 0.03 l
1.71 0.06 l
1.71 0.07 l
1.71 0.10 l
1.72 0.13 l
1.71 0.14 l
1.71 0.15 l
1.71 0.18 l
1.71 0.19 l
1.71 0.19 l
1.71 0.21 l
1.72 0.22 l
1.71 0.22 l
1.71 0.22 l
1.71 0.23 l
1.71 0.22 l
1.71 0.22 l
1.72 0.22 l
1.71 0.21 l
1.71 0.21 l
1.71 0.19 l
1.71 0.19 l
1.71 0.17 l
1.71 0.17 l
1.72 0.15 l
1.71 0.13 l
1.71 0.12 l
1.71 0.11 l
1.71 0.10 l
1.71 0.08 l
1.72 0.07 l
1.71 0.06 l
1.71 0.05 l
1.71 0.04 l
1.71 0.03 l
1.71 0.03 l
1.71 0.02 l
1.72 0.02 l
1.71 0.02 l
1.71 0.01 l
1.71 0.03 l
1.71 0.03 l
1.71 0.03 l
1.71 0.05 l
1.72 0.07 l
1.71 0.08 l
1.71 0.09 l
1.71 0.12 l
1.71 0.14 l
1.71 0.17 l
1.72 0.19 l
1.71 0.23 l
1.71 0.25 l
1.71 0.29 l
1.71 0.33 l
1.71 0.36 l
1.71 0.40 l
1.72 0.43 l
1.71 0.49 l
1.71 0.53 l
1.71 0.56 l
1.71 0.60 l
1.71 0.65 l
1.71 0.69 l
1.72 0.73 l
1.71 0.78 l
1.71 0.82 l
1.71 0.86 l
1.71 0.89 l
1.71 0.94 l
1.72 0.98 l
1.71 1.01 l
1.71 1.04 l
1.71 1.09 l
1.71 1.11 l
1.71 1.14 l
1.71 1.17 l
1.72 1.19 l
1.71 1.22 l
1.71 1.24 l
1.71 1.26 l
1.71 1.28 l
1.71 1.29 l
1.71 1.30 l
1.72 1.31 l
1.71 1.33 l
1.71 1.32 l
1.71 1.33 l
1.71 1.32 l
777.89 204.44 lineto
1.72 1.32 l
1.71 1.31 l
1.71 1.30 l
1.71 1.29 l
1.71 1.27 l
1.71 1.25 l
1.71 1.23 l
1.72 1.22 l
1.71 1.17 l
1.71 1.15 l
1.71 1.13 l
1.71 1.09 l
1.71 1.05 l
1.71 1.01 l
1.72 0.98 l
1.71 0.92 l
1.71 0.88 l
1.71 0.84 l
1.71 0.80 l
1.71 0.72 l
1.72 0.68 l
1.71 0.63 l
1.71 0.56 l
1.71 0.50 l
1.71 0.45 l
1.71 0.39 l
1.71 0.32 l
1.72 0.24 l
1.71 0.20 l
1.71 0.13 l
1.71 0.04 l
1.71 -0.02 l
1.71 -0.07 l
1.72 -0.16 l
1.71 -0.23 l
1.71 -0.29 l
1.71 -0.35 l
1.71 -0.45 l
1.71 -0.51 l
1.71 -0.57 l
1.72 -0.63 l
1.71 -0.72 l
1.71 -0.78 l
1.71 -0.84 l
1.71 -0.92 l
1.71 -0.98 l
1.71 -1.04 l
1.72 -1.09 l
1.71 -1.18 l
1.71 -1.23 l
1.71 -1.28 l
1.71 -1.34 l
1.71 -1.41 l
1.72 -1.46 l
1.71 -1.50 l
1.71 -1.57 l
1.71 -1.62 l
1.71 -1.65 l
1.71 -1.71 l
1.71 -1.76 l
1.72 -1.80 l
1.71 -1.84 l
1.71 -1.88 l
1.71 -1.92 l
1.71 -1.96 l
1.71 -1.98 l
1.71 -2.03 l
1.72 -2.06 l
1.71 -2.08 l
1.71 -2.11 l
1.71 -2.14 l
1.71 -2.16 l
1.71 -2.18 l
1.72 -2.20 l
1.71 -2.22 l
1.71 -2.23 l
1.71 -2.24 l
1.71 -2.26 l
1.71 -2.26 l
1.71 -2.27 l
1.72 -2.27 l
1.71 -2.28 l
1.71 -2.27 l
1.71 -2.27 l
1.71 -2.27 l
1.71 -2.26 l
1.71 -2.25 l
1.72 -2.24 l
1.71 -2.23 l
1.71 -2.21 l
1.71 -2.19 l
1.71 -2.18 l
1.71 -2.15 l
1.72 -2.13 l
1.71 -2.11 l
1.71 -2.08 l
1.71 -2.05 l
1.71 -2.02 l
1.71 -2.00 l
949.04 117.92 lineto
1.72 -1.93 l
1.71 -1.89 l
1.71 -1.86 l
1.71 -1.81 l
1.71 -1.78 l
1.71 -1.75 l
1.72 -1.69 l
1.71 -1.66 l
1.71 -1.63 l
1.71 -1.58 l
1.71 -1.53 l
0 -32.83 l
-1.71 0 l
-1.71 0 l
-1.71 0 l
-1.71 0 l
-1.72 0 l
-1.71 0 l
-1.71 0 l
-1.71 0 l
-1.71 0 l
-1.71 0 l
-1.72 0 l
-1.71 0 l
-1.71 0 l
-1.71 0 l
-1.71 0 l
-1.71 0 l
-1.71 0 l
-1.72 0 l
-1.71 0 l
-1.71 0 l
-1.71 0 l
-1.71 0 l
-1.71 0 l
-1.72 0 l
-1.71 0 l
-1.71 0 l
-1.71 0 l
-1.71 0 l
-1.71 0 l
-1.71 0 l
-1.72 0 l
-1.71 0 l
-1.71 0 l
-1.71 0 l
-1.71 0 l
-1.71 0 l
-1.71 0 l
-1.72 0 l
-1.71 0 l
-1.71 0 l
-1.71 0 l
-1.71 0 l
-1.71 0 l
-1.72 0 l
-1.71 0 l
-1.71 0 l
-1.71 0 l
-1.71 0 l
-1.71 0 l
-1.71 0 l
-1.72 0 l
-1.71 0 l
-1.71 0 l
-1.71 0 l
-1.71 0 l
-1.71 0 l
-1.71 0 l
-1.72 0 l
-1.71 0 l
-1.71 0 l
-1.71 0 l
-1.71 0 l
-1.71 0 l
-1.72 0 l
-1.71 0 l
-1.71 0 l
-1.71 0 l
-1.71 0 l
-1.71 0 l
-1.71 0 l
-1.72 0 l
-1.71 0 l
-1.71 0 l
-1.71 0 l
-1.71 0 l
-1.71 0 l
-1.71 0 l
-1.72 0 l
-1.71 0 l
-1.71 0 l
-1.71 0 l
-1.71 0 l
-1.71 0 l
-1.72 0 l
-1.71 0 l
-1.71 0 l
-1.71 0 l
817.26 65.98 lineto
-1.71 0 l
-1.71 0 l
-1.72 0 l
-1.71 0 l
-1.71 0 l
-1.71 0 l
-1.71 0 l
-1.71 0 l
-1.72 0 l
-1.71 0 l
-1.71 0 l
-1.71 0 l
-1.71 0 l
-1.71 0 l
-1.71 0 l
-1.72 0 l
-1.71 0 l
-1.71 0 l
-1.71 0 l
-1.71 0 l
-1.71 0 l
-1.71 0 l
-1.72 0 l
-1.71 0 l
-1.71 0 l
-1.71 0 l
-1.71 0 l
-1.71 0 l
-1.72 0 l
-1.71 0 l
-1.71 0 l
-1.71 0 l
-1.71 0 l
-1.71 0 l
-1.71 0 l
-1.72 0 l
-1.71 0 l
-1.71 0 l
-1.71 0 l
-1.71 0 l
-1.71 0 l
-1.71 0 l
-1.72 0 l
-1.71 0 l
-1.71 0 l
-1.71 0 l
-1.71 0 l
-1.71 0 l
-1.72 0 l
-1.71 0 l
-1.71 0 l
-1.71 0 l
-1.71 0 l
-1.71 0 l
-1.71 0 l
-1.72 0 l
-1.71 0 l
-1.71 0 l
-1.71 0 l
-1.71 0 l
-1.71 0 l
-1.71 0 l
-1.72 0 l
-1.71 0 l
-1.71 0 l
-1.71 0 l
-1.71 0 l
-1.71 0 l
-1.72 0 l
-1.71 0 l
-1.71 0 l
-1.71 0 l
-1.71 0 l
-1.71 0 l
-1.71 0 l
-1.72 0 l
-1.71 0 l
-1.71 0 l
-1.71 0 l
-1.71 0 l
-1.71 0 l
-1.71 0 l
-1.72 0 l
-1.71 0 l
-1.71 0 l
-1.71 0 l
-1.71 0 l
-1.71 0 l
-1.72 0 l
-1.71 0 l
-1.71 0 l
-1.71 0 l
-1.71 0 l
-1.71 0 l
-1.71 0 l
-1.72 0 l
-1.71 0 l
-1.71 0 l
-1.71 0 l
646.11 65.98 lineto
-1.71 0 l
-1.72 0 l
-1.71 0 l
-1.71 0 l
-1.71 0 l
-1.71 0 l
-1.71 0 l
-1.71 0 l
-1.72 0 l
-1.71 0 l
-1.71 0 l
-1.71 0 l
-1.71 0 l
-1.71 0 l
-1.71 0 l
-1.72 0 l
-1.71 0 l
-1.71 0 l
-1.71 0 l
-1.71 0 l
-1.71 0 l
-1.72 0 l
-1.71 0 l
-1.71 0 l
-1.71 0 l
-1.71 0 l
-1.71 0 l
-1.71 0 l
-1.72 0 l
-1.71 0 l
-1.71 0 l
-1.71 0 l
-1.71 0 l
-1.71 0 l
-1.71 0 l
-1.72 0 l
-1.71 0 l
-1.71 0 l
-1.71 0 l
-1.71 0 l
-1.71 0 l
-1.72 0 l
-1.71 0 l
-1.71 0 l
-1.71 0 l
-1.71 0 l
-1.71 0 l
-1.71 0 l
-1.72 0 l
-1.71 0 l
-1.71 0 l
-1.71 0 l
-1.71 0 l
-1.71 0 l
-1.71 0 l
-1.72 0 l
-1.71 0 l
-1.71 0 l
-1.71 0 l
-1.71 0 l
-1.71 0 l
-1.72 0 l
-1.71 0 l
-1.71 0 l
-1.71 0 l
-1.71 0 l
-1.71 0 l
-1.71 0 l
-1.72 0 l
-1.71 0 l
-1.71 0 l
-1.71 0 l
-1.71 0 l
-1.71 0 l
-1.71 0 l
-1.72 0 l
-1.71 0 l
-1.71 0 l
-1.71 0 l
-1.71 0 l
-1.71 0 l
-1.72 0 l
-1.71 0 l
-1.71 0 l
-1.71 0 l
-1.71 0 l
-1.71 0 l
-1.71 0 l
-1.72 0 l
-1.71 0 l
-1.71 0 l
-1.71 0 l
-1.71 0 l
-1.71 0 l
-1.72 0 l
-1.71 0 l
-1.71 0 l
-1.71 0 l
-1.71 0 l
474.96 65.98 lineto
-1.71 0 l
-1.72 0 l
-1.71 0 l
-1.71 0 l
-1.71 0 l
-1.71 0 l
-1.71 0 l
-1.71 0 l
-1.72 0 l
-1.71 0 l
-1.71 0 l
-1.71 0 l
-1.71 0 l
-1.71 0 l
-1.72 0 l
-1.71 0 l
-1.71 0 l
-1.71 0 l
-1.71 0 l
-1.71 0 l
-1.71 0 l
-1.72 0 l
-1.71 0 l
-1.71 0 l
-1.71 0 l
-1.71 0 l
-1.71 0 l
-1.71 0 l
-1.72 0 l
-1.71 0 l
-1.71 0 l
-1.71 0 l
-1.71 0 l
-1.71 0 l
-1.72 0 l
-1.71 0 l
-1.71 0 l
-1.71 0 l
-1.71 0 l
-1.71 0 l
-1.71 0 l
-1.72 0 l
-1.71 0 l
-1.71 0 l
-1.71 0 l
-1.71 0 l
-1.71 0 l
-1.71 0 l
-1.72 0 l
-1.71 0 l
-1.71 0 l
-1.71 0 l
-1.71 0 l
-1.71 0 l
-1.72 0 l
-1.71 0 l
-1.71 0 l
-1.71 0 l
-1.71 0 l
-1.71 0 l
-1.71 0 l
-1.72 0 l
-1.71 0 l
-1.71 0 l
-1.71 0 l
-1.71 0 l
-1.71 0 l
-1.72 0 l
-1.71 0 l
-1.71 0 l
-1.71 0 l
-1.71 0 l
-1.71 0 l
-1.71 0 l
-1.72 0 l
-1.71 0 l
-1.71 0 l
-1.71 0 l
-1.71 0 l
-1.71 0 l
-1.71 0 l
-1.72 0 l
-1.71 0 l
-1.71 0 l
-1.71 0 l
-1.71 0 l
-1.71 0 l
-1.72 0 l
-1.71 0 l
-1.71 0 l
-1.71 0 l
-1.71 0 l
-1.71 0 l
-1.71 0 l
-1.72 0 l
-1.71 0 l
-1.71 0 l
-1.71 0 l
-1.71 0 l
303.81 65.98 lineto
-1.71 0 l
-1.72 0 l
-1.71 0 l
-1.71 0 l
-1.71 0 l
-1.71 0 l
-1.71 0 l
-1.72 0 l
-1.71 0 l
-1.71 0 l
-1.71 0 l
-1.71 0 l
-1.71 0 l
-1.71 0 l
-1.72 0 l
-1.71 0 l
-1.71 0 l
-1.71 0 l
-1.71 0 l
-1.71 0 l
-1.71 0 l
-1.72 0 l
-1.71 0 l
-1.71 0 l
-1.71 0 l
-1.71 0 l
-1.71 0 l
-1.72 0 l
-1.71 0 l
-1.71 0 l
-1.71 0 l
-1.71 0 l
-1.71 0 l
-1.71 0 l
-1.72 0 l
-1.71 0 l
-1.71 0 l
-1.71 0 l
-1.71 0 l
-1.71 0 l
-1.71 0 l
-1.72 0 l
-1.71 0 l
-1.71 0 l
-1.71 0 l
-1.71 0 l
-1.71 0 l
-1.72 0 l
-1.71 0 l
-1.71 0 l
-1.71 0 l
-1.71 0 l
-1.71 0 l
-1.71 0 l
-1.72 0 l
-1.71 0 l
-1.71 0 l
-1.71 0 l
-1.71 0 l
-1.71 0 l
-1.72 0 l
-1.71 0 l
-1.71 0 l
-1.71 0 l
-1.71 0 l
-1.71 0 l
-1.71 0 l
-1.72 0 l
-1.71 0 l
-1.71 0 l
-1.71 0 l
-1.71 0 l
-1.71 0 l
-1.71 0 l
-1.72 0 l
-1.71 0 l
-1.71 0 l
-1.71 0 l
-1.71 0 l
-1.71 0 l
-1.72 0 l
-1.71 0 l
-1.71 0 l
-1.71 0 l
-1.71 0 l
-1.71 0 l
-1.71 0 l
-1.72 0 l
-1.71 0 l
-1.71 0 l
-1.71 0 l
-1.71 0 l
-1.71 0 l
-1.71 0 l
-1.72 0 l
-1.71 0 l
-1.71 0 l
-1.71 0 l
-1.71 0 l
currentpoint o m
132.66 65.98 lineto
-1.72 0 l
-1.71 0 l
-1.71 0 l
-1.71 0 l
-1.71 0 l
-1.71 0 l
-1.71 0 l
-1.72 0 l
-1.71 0 l
-1.71 0 l
-1.71 0 l
-1.71 0 l
-1.71 0 l
-1.71 0 l
-1.72 0 l
-1.71 0 l
-1.71 0 l
-1.71 0 l
-1.71 0 l
-1.71 0 l
-1.72 0 l
-1.71 0 l
-1.71 0 l
0 298.76 l
o
0.00 0.00 1026.00 683.00 cl
0.00 0.00 1026.00 683.00 cl
0.00 0.00 1026.00 683.00 cl
/Font1 findfont 10 s
0.4980 0.4980 0.4980 srgb
42.48 62.39 (0.00) 1 0 t
42.48 178.34 (0.01) 1 0 t
42.48 294.30 (0.02) 1 0 t
42.48 410.25 (0.03) 1 0 t
42.48 526.21 (0.04) 1 0 t
42.48 642.16 (0.05) 1 0 t
0.00 0.00 1026.00 683.00 cl
0.00 0.00 1026.00 683.00 cl
0.4980 0.4980 0.4980 srgb
1.06 setlinewidth
[] 0 setdash
0 setlinecap
1 setlinejoin
10.00 setmiterlimit
np
45.31 65.98 m
4.25 0 l
o
np
45.31 181.93 m
4.25 0 l
o
np
45.31 297.89 m
4.25 0 l
o
np
45.31 413.84 m
4.25 0 l
o
np
45.31 529.80 m
4.25 0 l
o
np
45.31 645.75 m
4.25 0 l
o
0.00 0.00 1026.00 683.00 cl
0.00 0.00 1026.00 683.00 cl
0.00 0.00 1026.00 683.00 cl
0.00 0.00 1026.00 683.00 cl
0.00 0.00 1026.00 683.00 cl
0.00 0.00 1026.00 683.00 cl
0.4980 0.4980 0.4980 srgb
1.06 setlinewidth
[] 0 setdash
0 setlinecap
1 setlinejoin
10.00 setmiterlimit
np
209.90 33.03 m
0 4.25 l
o
np
404.25 33.03 m
0 4.25 l
o
np
598.60 33.03 m
0 4.25 l
o
np
792.96 33.03 m
0 4.25 l
o
np
987.31 33.03 m
0 4.25 l
o
0.00 0.00 1026.00 683.00 cl
0.00 0.00 1026.00 683.00 cl
/Font1 findfont 10 s
0.4980 0.4980 0.4980 srgb
209.90 23.02 (-90) .5 0 t
404.25 23.02 (-80) .5 0 t
598.60 23.02 (-70) .5 0 t
792.96 23.02 (-60) .5 0 t
987.31 23.02 (-50) .5 0 t
0.00 0.00 1026.00 683.00 cl
0.00 0.00 1026.00 683.00 cl
0.00 0.00 1026.00 683.00 cl
0.00 0.00 1026.00 683.00 cl
0.00 0.00 1026.00 683.00 cl
0.00 0.00 1026.00 683.00 cl
0.00 0.00 1026.00 683.00 cl
0.00 0.00 1026.00 683.00 cl
0.00 0.00 1026.00 683.00 cl
0.00 0.00 1026.00 683.00 cl
0.00 0.00 1026.00 683.00 cl
ep
%%Trailer
%%Pages: 1
%%EOF
