%!PS-Adobe-3.0 EPSF-3.0
%%DocumentNeededResources: font Helvetica
%%+ font Helvetica-Bold
%%+ font Helvetica-Oblique
%%+ font Helvetica-BoldOblique
%%+ font Symbol
%%Title: R Graphics Output
%%Creator: R Software
%%Pages: (atend)
%%BoundingBox: 0 0 1026 683
%%EndComments
%%BeginProlog
/bp  { gs sRGB gs } def
% begin .ps.prolog
/gs  { gsave } bind def
/gr  { grestore } bind def
/ep  { showpage gr gr } bind def
/m   { moveto } bind def
/l  { rlineto } bind def
/np  { newpath } bind def
/cp  { closepath } bind def
/f   { fill } bind def
/o   { stroke } bind def
/c   { newpath 0 360 arc } bind def
/r   { 4 2 roll moveto 1 copy 3 -1 roll exch 0 exch rlineto 0 rlineto -1 mul 0 exch rlineto closepath } bind def
/p1  { stroke } bind def
/p2  { gsave bg fill grestore newpath } bind def
/p3  { gsave bg fill grestore stroke } bind def
/p6  { gsave bg eofill grestore newpath } bind def
/p7  { gsave bg eofill grestore stroke } bind def
/t   { 5 -2 roll moveto gsave rotate
       1 index stringwidth pop
       mul neg 0 rmoveto show grestore } bind def
/ta  { 4 -2 roll moveto gsave rotate show } bind def
/tb  { 2 -1 roll 0 rmoveto show } bind def
/cl  { grestore gsave newpath 3 index 3 index moveto 1 index
       4 -1 roll lineto  exch 1 index lineto lineto
       closepath clip newpath } bind def
/rgb { setrgbcolor } bind def
/s   { scalefont setfont } bind def
% end   .ps.prolog
/sRGB { [ /CIEBasedABC
          << /DecodeLMN
               [ { dup 0.03928 le
                        {12.92321 div}
                        {0.055 add 1.055 div 2.4 exp }
                     ifelse
                 } bind dup dup
               ]
             /MatrixLMN [0.412457 0.212673 0.019334
                         0.357576 0.715152 0.119192
                         0.180437 0.072175 0.950301]
             /WhitePoint [0.9505 1.0 1.0890]
           >>
         ] setcolorspace } bind def
/srgb { setcolor } bind def
%%IncludeResource: font Helvetica
/Helvetica findfont
dup length dict begin
  {1 index /FID ne {def} {pop pop} ifelse} forall
  /Encoding ISOLatin1Encoding def
  currentdict
  end
/Font1 exch definefont pop
%%IncludeResource: font Helvetica-Bold
/Helvetica-Bold findfont
dup length dict begin
  {1 index /FID ne {def} {pop pop} ifelse} forall
  /Encoding ISOLatin1Encoding def
  currentdict
  end
/Font2 exch definefont pop
%%IncludeResource: font Helvetica-Oblique
/Helvetica-Oblique findfont
dup length dict begin
  {1 index /FID ne {def} {pop pop} ifelse} forall
  /Encoding ISOLatin1Encoding def
  currentdict
  end
/Font3 exch definefont pop
%%IncludeResource: font Helvetica-BoldOblique
/Helvetica-BoldOblique findfont
dup length dict begin
  {1 index /FID ne {def} {pop pop} ifelse} forall
  /Encoding ISOLatin1Encoding def
  currentdict
  end
/Font4 exch definefont pop
%%IncludeResource: font Symbol
/Symbol findfont
dup length dict begin
  {1 index /FID ne {def} {pop pop} ifelse} forall
  currentdict
  end
/Font5 exch definefont pop
%%EndProlog
%%Page: 1 1
bp
0.00 0.00 1026.00 683.00 cl
0.00 0.00 1026.00 683.00 cl
0.00 0.00 1026.00 683.00 cl
/bg { 1 1 1 srgb } def
1 1 1 srgb
1.06 setlinewidth
[] 0 setdash
1 setlinecap
1 setlinejoin
10.00 setmiterlimit
-0.00 0.00 1026.00 683.00 r p3
0.00 0.00 1026.00 683.00 cl
0.00 0.00 1026.00 683.00 cl
0.00 0.00 1026.00 683.00 cl
49.56 37.28 1011.60 668.60 cl
/bg { 0.8980 0.8980 0.8980 srgb } def
49.56 37.28 962.04 631.32 r p2
0.9490 0.9490 0.9490 srgb
0.53 setlinewidth
[] 0 setdash
0 setlinecap
1 setlinejoin
10.00 setmiterlimit
np
49.56 140.61 m
962.04 0 l
o
np
49.56 289.87 m
962.04 0 l
o
np
49.56 439.13 m
962.04 0 l
o
np
49.56 588.39 m
962.04 0 l
o
np
115.16 37.28 m
0 631.32 l
o
np
333.80 37.28 m
0 631.32 l
o
np
552.45 37.28 m
0 631.32 l
o
np
771.09 37.28 m
0 631.32 l
o
np
989.74 37.28 m
0 631.32 l
o
1 1 1 srgb
1.06 setlinewidth
[] 0 setdash
np
49.56 65.98 m
962.04 0 l
o
np
49.56 215.24 m
962.04 0 l
o
np
49.56 364.50 m
962.04 0 l
o
np
49.56 513.76 m
962.04 0 l
o
np
49.56 663.02 m
962.04 0 l
o
np
224.48 37.28 m
0 631.32 l
o
np
443.12 37.28 m
0 631.32 l
o
np
661.77 37.28 m
0 631.32 l
o
np
880.41 37.28 m
0 631.32 l
o
0 0 0 srgb
1 setlinecap
np
93.29 303.16 m
1.71 4.90 l
1.71 4.66 l
1.72 4.43 l
1.71 4.10 l
1.71 3.82 l
1.71 3.57 l
1.71 3.34 l
1.71 3.04 l
1.72 2.76 l
1.71 2.54 l
1.71 2.31 l
1.71 2.10 l
1.71 1.82 l
1.71 1.64 l
1.71 1.47 l
1.72 1.31 l
1.71 1.09 l
1.71 0.95 l
1.71 0.84 l
1.71 0.71 l
1.71 0.58 l
1.71 0.48 l
1.72 0.40 l
1.71 0.32 l
1.71 0.26 l
1.71 0.18 l
1.71 0.13 l
1.71 0.09 l
1.72 0.05 l
1.71 0.01 l
1.71 -0.02 l
1.71 -0.04 l
1.71 -0.07 l
1.71 -0.09 l
1.71 -0.11 l
1.72 -0.13 l
1.71 -0.14 l
1.71 -0.16 l
1.71 -0.19 l
1.71 -0.19 l
1.71 -0.22 l
1.71 -0.23 l
1.72 -0.25 l
1.71 -0.26 l
1.71 -0.28 l
1.71 -0.30 l
1.71 -0.31 l
1.71 -0.33 l
1.72 -0.34 l
1.71 -0.35 l
1.71 -0.37 l
1.71 -0.37 l
1.71 -0.37 l
1.71 -0.38 l
1.71 -0.38 l
1.72 -0.38 l
1.71 -0.37 l
1.71 -0.36 l
1.71 -0.35 l
1.71 -0.32 l
1.71 -0.29 l
1.71 -0.27 l
1.72 -0.24 l
1.71 -0.19 l
1.71 -0.14 l
1.71 -0.10 l
1.71 -0.04 l
1.71 0.04 l
1.72 0.12 l
1.71 0.19 l
1.71 0.27 l
1.71 0.38 l
1.71 0.50 l
1.71 0.60 l
1.71 0.72 l
1.72 0.85 l
1.71 1.02 l
1.71 1.17 l
1.71 1.32 l
1.71 1.48 l
1.71 1.71 l
1.72 1.90 l
1.71 2.09 l
1.71 2.30 l
1.71 2.54 l
1.71 2.82 l
1.71 3.05 l
1.71 3.28 l
1.72 3.56 l
1.71 3.90 l
1.71 4.16 l
1.71 4.43 l
1.71 4.70 l
1.71 5.09 l
1.71 5.38 l
1.72 5.66 l
1.71 5.94 l
1.71 6.29 l
1.71 6.60 l
264.44 439.05 lineto
1.71 7.12 l
1.72 7.39 l
1.71 7.68 l
1.71 7.87 l
1.71 8.06 l
1.71 8.24 l
1.71 8.43 l
1.71 8.52 l
1.72 8.60 l
1.71 8.65 l
1.71 8.67 l
1.71 8.63 l
1.71 8.56 l
1.71 8.47 l
1.71 8.29 l
1.72 8.06 l
1.71 7.84 l
1.71 7.57 l
1.71 7.24 l
1.71 6.79 l
1.71 6.40 l
1.72 5.98 l
1.71 5.53 l
1.71 4.85 l
1.71 4.33 l
1.71 3.79 l
1.71 3.23 l
1.71 2.47 l
1.72 1.81 l
1.71 1.20 l
1.71 0.58 l
1.71 -0.16 l
1.71 -0.92 l
1.71 -1.55 l
1.71 -2.15 l
1.72 -2.81 l
1.71 -3.60 l
1.71 -4.17 l
1.71 -4.72 l
1.71 -5.25 l
1.71 -5.97 l
1.72 -6.45 l
1.71 -6.91 l
1.71 -7.33 l
1.71 -7.84 l
1.71 -8.24 l
1.71 -8.57 l
1.71 -8.86 l
1.72 -9.18 l
1.71 -9.47 l
1.71 -9.65 l
1.71 -9.82 l
1.71 -9.97 l
1.71 -10.12 l
1.71 -10.18 l
1.72 -10.23 l
1.71 -10.26 l
1.71 -10.25 l
1.71 -10.23 l
1.71 -10.17 l
1.71 -10.11 l
1.72 -10.01 l
1.71 -9.88 l
1.71 -9.76 l
1.71 -9.62 l
1.71 -9.47 l
1.71 -9.26 l
1.71 -9.09 l
1.72 -8.92 l
1.71 -8.74 l
1.71 -8.47 l
1.71 -8.28 l
1.71 -8.09 l
1.71 -7.89 l
1.72 -7.63 l
1.71 -7.41 l
1.71 -7.21 l
1.71 -7.02 l
1.71 -6.78 l
1.71 -6.55 l
1.71 -6.36 l
1.72 -6.18 l
1.71 -5.98 l
1.71 -5.75 l
1.71 -5.57 l
1.71 -5.41 l
1.71 -5.25 l
1.71 -5.03 l
1.72 -4.88 l
1.71 -4.73 l
1.71 -4.59 l
1.71 -4.41 l
1.71 -4.27 l
1.71 -4.14 l
1.72 -4.01 l
1.71 -3.88 l
1.71 -3.73 l
1.71 -3.62 l
1.71 -3.50 l
435.59 169.99 lineto
1.71 -3.25 l
1.72 -3.15 l
1.71 -3.05 l
1.71 -2.95 l
1.71 -2.82 l
1.71 -2.71 l
1.71 -2.62 l
1.71 -2.52 l
1.72 -2.41 l
1.71 -2.29 l
1.71 -2.21 l
1.71 -2.11 l
1.71 -2.02 l
1.71 -1.89 l
1.72 -1.81 l
1.71 -1.72 l
1.71 -1.64 l
1.71 -1.52 l
1.71 -1.43 l
1.71 -1.36 l
1.71 -1.28 l
1.72 -1.18 l
1.71 -1.10 l
1.71 -1.03 l
1.71 -0.97 l
1.71 -0.89 l
1.71 -0.81 l
1.71 -0.76 l
1.72 -0.70 l
1.71 -0.65 l
1.71 -0.58 l
1.71 -0.54 l
1.71 -0.51 l
1.71 -0.46 l
1.72 -0.42 l
1.71 -0.38 l
1.71 -0.36 l
1.71 -0.33 l
1.71 -0.31 l
1.71 -0.28 l
1.71 -0.26 l
1.72 -0.25 l
1.71 -0.24 l
1.71 -0.21 l
1.71 -0.21 l
1.71 -0.20 l
1.71 -0.19 l
1.72 -0.17 l
1.71 -0.17 l
1.71 -0.16 l
1.71 -0.15 l
1.71 -0.13 l
1.71 -0.13 l
1.71 -0.11 l
1.72 -0.10 l
1.71 -0.08 l
1.71 -0.06 l
1.71 -0.05 l
1.71 -0.02 l
1.71 0 l
1.71 0.03 l
1.72 0.05 l
1.71 0.08 l
1.71 0.11 l
1.71 0.16 l
1.71 0.19 l
1.71 0.22 l
1.72 0.25 l
1.71 0.31 l
1.71 0.35 l
1.71 0.39 l
1.71 0.43 l
1.71 0.48 l
1.71 0.54 l
1.72 0.58 l
1.71 0.62 l
1.71 0.68 l
1.71 0.73 l
1.71 0.79 l
1.71 0.83 l
1.71 0.88 l
1.72 0.95 l
1.71 1.00 l
1.71 1.06 l
1.71 1.10 l
1.71 1.17 l
1.71 1.24 l
1.72 1.29 l
1.71 1.35 l
1.71 1.41 l
1.71 1.49 l
1.71 1.56 l
1.71 1.62 l
1.71 1.69 l
1.72 1.78 l
1.71 1.86 l
1.71 1.93 l
1.71 2.01 l
1.71 2.11 l
606.74 145.60 lineto
1.71 2.28 l
1.72 2.37 l
1.71 2.46 l
1.71 2.57 l
1.71 2.66 l
1.71 2.74 l
1.71 2.83 l
1.72 2.95 l
1.71 3.03 l
1.71 3.10 l
1.71 3.18 l
1.71 3.28 l
1.71 3.35 l
1.71 3.41 l
1.72 3.47 l
1.71 3.53 l
1.71 3.57 l
1.71 3.60 l
1.71 3.62 l
1.71 3.63 l
1.71 3.64 l
1.72 3.62 l
1.71 3.60 l
1.71 3.57 l
1.71 3.50 l
1.71 3.44 l
1.71 3.37 l
1.72 3.28 l
1.71 3.16 l
1.71 3.03 l
1.71 2.91 l
1.71 2.77 l
1.71 2.60 l
1.71 2.40 l
1.72 2.24 l
1.71 2.06 l
1.71 1.85 l
1.71 1.59 l
1.71 1.39 l
1.71 1.18 l
1.72 0.96 l
1.71 0.64 l
1.71 0.42 l
1.71 0.19 l
1.71 -0.03 l
1.71 -0.34 l
1.71 -0.60 l
1.72 -0.83 l
1.71 -1.06 l
1.71 -1.32 l
1.71 -1.60 l
1.71 -1.81 l
1.71 -2.01 l
1.71 -2.23 l
1.72 -2.50 l
1.71 -2.68 l
1.71 -2.85 l
1.71 -3.01 l
1.71 -3.24 l
1.71 -3.37 l
1.72 -3.51 l
1.71 -3.62 l
1.71 -3.76 l
1.71 -3.87 l
1.71 -3.94 l
1.71 -4.02 l
1.71 -4.07 l
1.72 -4.13 l
1.71 -4.15 l
1.71 -4.17 l
1.71 -4.17 l
1.71 -4.16 l
1.71 -4.14 l
1.71 -4.11 l
1.72 -4.06 l
1.71 -4.00 l
1.71 -3.93 l
1.71 -3.86 l
1.71 -3.78 l
1.71 -3.69 l
1.72 -3.57 l
1.71 -3.48 l
1.71 -3.38 l
1.71 -3.26 l
1.71 -3.13 l
1.71 -3.01 l
1.71 -2.91 l
1.72 -2.80 l
1.71 -2.63 l
1.71 -2.53 l
1.71 -2.42 l
1.71 -2.30 l
1.71 -2.17 l
1.71 -2.06 l
1.72 -1.95 l
1.71 -1.86 l
1.71 -1.74 l
1.71 -1.64 l
1.71 -1.54 l
777.89 106.17 lineto
1.72 -1.38 l
1.71 -1.28 l
1.71 -1.21 l
1.71 -1.15 l
1.71 -1.08 l
1.71 -1.00 l
1.71 -0.95 l
1.72 -0.89 l
1.71 -0.85 l
1.71 -0.79 l
1.71 -0.74 l
1.71 -0.70 l
1.71 -0.66 l
1.71 -0.62 l
1.72 -0.57 l
1.71 -0.54 l
1.71 -0.51 l
1.71 -0.47 l
1.71 -0.42 l
1.71 -0.40 l
1.72 -0.36 l
1.71 -0.32 l
1.71 -0.28 l
1.71 -0.24 l
1.71 -0.21 l
1.71 -0.16 l
1.71 -0.12 l
1.72 -0.07 l
1.71 -0.02 l
1.71 0.02 l
1.71 0.07 l
1.71 0.14 l
1.71 0.18 l
1.72 0.23 l
1.71 0.29 l
1.71 0.36 l
1.71 0.41 l
1.71 0.46 l
1.71 0.52 l
1.71 0.59 l
1.72 0.64 l
1.71 0.70 l
1.71 0.74 l
1.71 0.81 l
1.71 0.86 l
1.71 0.90 l
1.71 0.95 l
1.72 0.98 l
1.71 1.04 l
1.71 1.06 l
1.71 1.09 l
1.71 1.12 l
1.71 1.14 l
1.72 1.15 l
1.71 1.16 l
1.71 1.17 l
1.71 1.17 l
1.71 1.15 l
1.71 1.15 l
1.71 1.13 l
1.72 1.10 l
1.71 1.07 l
1.71 1.04 l
1.71 1.01 l
1.71 0.96 l
1.71 0.90 l
1.71 0.85 l
1.72 0.79 l
1.71 0.74 l
1.71 0.67 l
1.71 0.59 l
1.71 0.53 l
1.71 0.46 l
1.72 0.38 l
1.71 0.29 l
1.71 0.22 l
1.71 0.15 l
1.71 0.07 l
1.71 -0.03 l
1.71 -0.10 l
1.72 -0.17 l
1.71 -0.25 l
1.71 -0.34 l
1.71 -0.41 l
1.71 -0.49 l
1.71 -0.55 l
1.71 -0.63 l
1.72 -0.70 l
1.71 -0.76 l
1.71 -0.82 l
1.71 -0.88 l
1.71 -0.95 l
1.71 -0.99 l
1.72 -1.04 l
1.71 -1.08 l
1.71 -1.13 l
1.71 -1.17 l
1.71 -1.20 l
1.71 -1.22 l
949.04 107.21 lineto
1.72 -1.28 l
1.71 -1.30 l
1.71 -1.31 l
1.71 -1.32 l
1.71 -1.33 l
1.71 -1.33 l
1.72 -1.33 l
1.71 -1.33 l
1.71 -1.31 l
1.71 -1.31 l
1.71 -1.29 l
0 -26.79 l
-1.71 0 l
-1.71 0 l
-1.71 0 l
-1.71 0 l
-1.72 0 l
-1.71 0 l
-1.71 0 l
-1.71 0 l
-1.71 0 l
-1.71 0 l
-1.72 0 l
-1.71 0 l
-1.71 0 l
-1.71 0 l
-1.71 0 l
-1.71 0 l
-1.71 0 l
-1.72 0 l
-1.71 0 l
-1.71 0 l
-1.71 0 l
-1.71 0 l
-1.71 0 l
-1.72 0 l
-1.71 0 l
-1.71 0 l
-1.71 0 l
-1.71 0 l
-1.71 0 l
-1.71 0 l
-1.72 0 l
-1.71 0 l
-1.71 0 l
-1.71 0 l
-1.71 0 l
-1.71 0 l
-1.71 0 l
-1.72 0 l
-1.71 0 l
-1.71 0 l
-1.71 0 l
-1.71 0 l
-1.71 0 l
-1.72 0 l
-1.71 0 l
-1.71 0 l
-1.71 0 l
-1.71 0 l
-1.71 0 l
-1.71 0 l
-1.72 0 l
-1.71 0 l
-1.71 0 l
-1.71 0 l
-1.71 0 l
-1.71 0 l
-1.71 0 l
-1.72 0 l
-1.71 0 l
-1.71 0 l
-1.71 0 l
-1.71 0 l
-1.71 0 l
-1.72 0 l
-1.71 0 l
-1.71 0 l
-1.71 0 l
-1.71 0 l
-1.71 0 l
-1.71 0 l
-1.72 0 l
-1.71 0 l
-1.71 0 l
-1.71 0 l
-1.71 0 l
-1.71 0 l
-1.71 0 l
-1.72 0 l
-1.71 0 l
-1.71 0 l
-1.71 0 l
-1.71 0 l
-1.71 0 l
-1.72 0 l
-1.71 0 l
-1.71 0 l
-1.71 0 l
817.26 65.98 lineto
-1.71 0 l
-1.71 0 l
-1.72 0 l
-1.71 0 l
-1.71 0 l
-1.71 0 l
-1.71 0 l
-1.71 0 l
-1.72 0 l
-1.71 0 l
-1.71 0 l
-1.71 0 l
-1.71 0 l
-1.71 0 l
-1.71 0 l
-1.72 0 l
-1.71 0 l
-1.71 0 l
-1.71 0 l
-1.71 0 l
-1.71 0 l
-1.71 0 l
-1.72 0 l
-1.71 0 l
-1.71 0 l
-1.71 0 l
-1.71 0 l
-1.71 0 l
-1.72 0 l
-1.71 0 l
-1.71 0 l
-1.71 0 l
-1.71 0 l
-1.71 0 l
-1.71 0 l
-1.72 0 l
-1.71 0 l
-1.71 0 l
-1.71 0 l
-1.71 0 l
-1.71 0 l
-1.71 0 l
-1.72 0 l
-1.71 0 l
-1.71 0 l
-1.71 0 l
-1.71 0 l
-1.71 0 l
-1.72 0 l
-1.71 0 l
-1.71 0 l
-1.71 0 l
-1.71 0 l
-1.71 0 l
-1.71 0 l
-1.72 0 l
-1.71 0 l
-1.71 0 l
-1.71 0 l
-1.71 0 l
-1.71 0 l
-1.71 0 l
-1.72 0 l
-1.71 0 l
-1.71 0 l
-1.71 0 l
-1.71 0 l
-1.71 0 l
-1.72 0 l
-1.71 0 l
-1.71 0 l
-1.71 0 l
-1.71 0 l
-1.71 0 l
-1.71 0 l
-1.72 0 l
-1.71 0 l
-1.71 0 l
-1.71 0 l
-1.71 0 l
-1.71 0 l
-1.71 0 l
-1.72 0 l
-1.71 0 l
-1.71 0 l
-1.71 0 l
-1.71 0 l
-1.71 0 l
-1.72 0 l
-1.71 0 l
-1.71 0 l
-1.71 0 l
-1.71 0 l
-1.71 0 l
-1.71 0 l
-1.72 0 l
-1.71 0 l
-1.71 0 l
-1.71 0 l
646.11 65.98 lineto
-1.71 0 l
-1.72 0 l
-1.71 0 l
-1.71 0 l
-1.71 0 l
-1.71 0 l
-1.71 0 l
-1.71 0 l
-1.72 0 l
-1.71 0 l
-1.71 0 l
-1.71 0 l
-1.71 0 l
-1.71 0 l
-1.71 0 l
-1.72 0 l
-1.71 0 l
-1.71 0 l
-1.71 0 l
-1.71 0 l
-1.71 0 l
-1.72 0 l
-1.71 0 l
-1.71 0 l
-1.71 0 l
-1.71 0 l
-1.71 0 l
-1.71 0 l
-1.72 0 l
-1.71 0 l
-1.71 0 l
-1.71 0 l
-1.71 0 l
-1.71 0 l
-1.71 0 l
-1.72 0 l
-1.71 0 l
-1.71 0 l
-1.71 0 l
-1.71 0 l
-1.71 0 l
-1.72 0 l
-1.71 0 l
-1.71 0 l
-1.71 0 l
-1.71 0 l
-1.71 0 l
-1.71 0 l
-1.72 0 l
-1.71 0 l
-1.71 0 l
-1.71 0 l
-1.71 0 l
-1.71 0 l
-1.71 0 l
-1.72 0 l
-1.71 0 l
-1.71 0 l
-1.71 0 l
-1.71 0 l
-1.71 0 l
-1.72 0 l
-1.71 0 l
-1.71 0 l
-1.71 0 l
-1.71 0 l
-1.71 0 l
-1.71 0 l
-1.72 0 l
-1.71 0 l
-1.71 0 l
-1.71 0 l
-1.71 0 l
-1.71 0 l
-1.71 0 l
-1.72 0 l
-1.71 0 l
-1.71 0 l
-1.71 0 l
-1.71 0 l
-1.71 0 l
-1.72 0 l
-1.71 0 l
-1.71 0 l
-1.71 0 l
-1.71 0 l
-1.71 0 l
-1.71 0 l
-1.72 0 l
-1.71 0 l
-1.71 0 l
-1.71 0 l
-1.71 0 l
-1.71 0 l
-1.72 0 l
-1.71 0 l
-1.71 0 l
-1.71 0 l
-1.71 0 l
474.96 65.98 lineto
-1.71 0 l
-1.72 0 l
-1.71 0 l
-1.71 0 l
-1.71 0 l
-1.71 0 l
-1.71 0 l
-1.71 0 l
-1.72 0 l
-1.71 0 l
-1.71 0 l
-1.71 0 l
-1.71 0 l
-1.71 0 l
-1.72 0 l
-1.71 0 l
-1.71 0 l
-1.71 0 l
-1.71 0 l
-1.71 0 l
-1.71 0 l
-1.72 0 l
-1.71 0 l
-1.71 0 l
-1.71 0 l
-1.71 0 l
-1.71 0 l
-1.71 0 l
-1.72 0 l
-1.71 0 l
-1.71 0 l
-1.71 0 l
-1.71 0 l
-1.71 0 l
-1.72 0 l
-1.71 0 l
-1.71 0 l
-1.71 0 l
-1.71 0 l
-1.71 0 l
-1.71 0 l
-1.72 0 l
-1.71 0 l
-1.71 0 l
-1.71 0 l
-1.71 0 l
-1.71 0 l
-1.71 0 l
-1.72 0 l
-1.71 0 l
-1.71 0 l
-1.71 0 l
-1.71 0 l
-1.71 0 l
-1.72 0 l
-1.71 0 l
-1.71 0 l
-1.71 0 l
-1.71 0 l
-1.71 0 l
-1.71 0 l
-1.72 0 l
-1.71 0 l
-1.71 0 l
-1.71 0 l
-1.71 0 l
-1.71 0 l
-1.72 0 l
-1.71 0 l
-1.71 0 l
-1.71 0 l
-1.71 0 l
-1.71 0 l
-1.71 0 l
-1.72 0 l
-1.71 0 l
-1.71 0 l
-1.71 0 l
-1.71 0 l
-1.71 0 l
-1.71 0 l
-1.72 0 l
-1.71 0 l
-1.71 0 l
-1.71 0 l
-1.71 0 l
-1.71 0 l
-1.72 0 l
-1.71 0 l
-1.71 0 l
-1.71 0 l
-1.71 0 l
-1.71 0 l
-1.71 0 l
-1.72 0 l
-1.71 0 l
-1.71 0 l
-1.71 0 l
-1.71 0 l
303.81 65.98 lineto
-1.71 0 l
-1.72 0 l
-1.71 0 l
-1.71 0 l
-1.71 0 l
-1.71 0 l
-1.71 0 l
-1.72 0 l
-1.71 0 l
-1.71 0 l
-1.71 0 l
-1.71 0 l
-1.71 0 l
-1.71 0 l
-1.72 0 l
-1.71 0 l
-1.71 0 l
-1.71 0 l
-1.71 0 l
-1.71 0 l
-1.71 0 l
-1.72 0 l
-1.71 0 l
-1.71 0 l
-1.71 0 l
-1.71 0 l
-1.71 0 l
-1.72 0 l
-1.71 0 l
-1.71 0 l
-1.71 0 l
-1.71 0 l
-1.71 0 l
-1.71 0 l
-1.72 0 l
-1.71 0 l
-1.71 0 l
-1.71 0 l
-1.71 0 l
-1.71 0 l
-1.71 0 l
-1.72 0 l
-1.71 0 l
-1.71 0 l
-1.71 0 l
-1.71 0 l
-1.71 0 l
-1.72 0 l
-1.71 0 l
-1.71 0 l
-1.71 0 l
-1.71 0 l
-1.71 0 l
-1.71 0 l
-1.72 0 l
-1.71 0 l
-1.71 0 l
-1.71 0 l
-1.71 0 l
-1.71 0 l
-1.72 0 l
-1.71 0 l
-1.71 0 l
-1.71 0 l
-1.71 0 l
-1.71 0 l
-1.71 0 l
-1.72 0 l
-1.71 0 l
-1.71 0 l
-1.71 0 l
-1.71 0 l
-1.71 0 l
-1.71 0 l
-1.72 0 l
-1.71 0 l
-1.71 0 l
-1.71 0 l
-1.71 0 l
-1.71 0 l
-1.72 0 l
-1.71 0 l
-1.71 0 l
-1.71 0 l
-1.71 0 l
-1.71 0 l
-1.71 0 l
-1.72 0 l
-1.71 0 l
-1.71 0 l
-1.71 0 l
-1.71 0 l
-1.71 0 l
-1.71 0 l
-1.72 0 l
-1.71 0 l
-1.71 0 l
-1.71 0 l
-1.71 0 l
currentpoint o m
132.66 65.98 lineto
-1.72 0 l
-1.71 0 l
-1.71 0 l
-1.71 0 l
-1.71 0 l
-1.71 0 l
-1.71 0 l
-1.72 0 l
-1.71 0 l
-1.71 0 l
-1.71 0 l
-1.71 0 l
-1.71 0 l
-1.71 0 l
-1.72 0 l
-1.71 0 l
-1.71 0 l
-1.71 0 l
-1.71 0 l
-1.71 0 l
-1.72 0 l
-1.71 0 l
-1.71 0 l
0 237.18 l
o
0.00 0.00 1026.00 683.00 cl
0.00 0.00 1026.00 683.00 cl
0.00 0.00 1026.00 683.00 cl
/Font1 findfont 10 s
0.4980 0.4980 0.4980 srgb
42.48 62.39 (0.00) 1 0 t
42.48 211.65 (0.02) 1 0 t
42.48 360.91 (0.04) 1 0 t
42.48 510.17 (0.06) 1 0 t
42.48 659.43 (0.08) 1 0 t
0.00 0.00 1026.00 683.00 cl
0.00 0.00 1026.00 683.00 cl
0.4980 0.4980 0.4980 srgb
1.06 setlinewidth
[] 0 setdash
0 setlinecap
1 setlinejoin
10.00 setmiterlimit
np
45.31 65.98 m
4.25 0 l
o
np
45.31 215.24 m
4.25 0 l
o
np
45.31 364.50 m
4.25 0 l
o
np
45.31 513.76 m
4.25 0 l
o
np
45.31 663.02 m
4.25 0 l
o
0.00 0.00 1026.00 683.00 cl
0.00 0.00 1026.00 683.00 cl
0.00 0.00 1026.00 683.00 cl
0.00 0.00 1026.00 683.00 cl
0.00 0.00 1026.00 683.00 cl
0.00 0.00 1026.00 683.00 cl
0.4980 0.4980 0.4980 srgb
1.06 setlinewidth
[] 0 setdash
0 setlinecap
1 setlinejoin
10.00 setmiterlimit
np
224.48 33.03 m
0 4.25 l
o
np
443.12 33.03 m
0 4.25 l
o
np
661.77 33.03 m
0 4.25 l
o
np
880.41 33.03 m
0 4.25 l
o
0.00 0.00 1026.00 683.00 cl
0.00 0.00 1026.00 683.00 cl
/Font1 findfont 10 s
0.4980 0.4980 0.4980 srgb
224.48 23.02 (-90) .5 0 t
443.12 23.02 (-80) .5 0 t
661.77 23.02 (-70) .5 0 t
880.41 23.02 (-60) .5 0 t
0.00 0.00 1026.00 683.00 cl
0.00 0.00 1026.00 683.00 cl
0.00 0.00 1026.00 683.00 cl
0.00 0.00 1026.00 683.00 cl
0.00 0.00 1026.00 683.00 cl
0.00 0.00 1026.00 683.00 cl
0.00 0.00 1026.00 683.00 cl
0.00 0.00 1026.00 683.00 cl
0.00 0.00 1026.00 683.00 cl
0.00 0.00 1026.00 683.00 cl
0.00 0.00 1026.00 683.00 cl
ep
%%Trailer
%%Pages: 1
%%EOF
