%!PS-Adobe-3.0 EPSF-3.0
%%DocumentNeededResources: font Helvetica
%%+ font Helvetica-Bold
%%+ font Helvetica-Oblique
%%+ font Helvetica-BoldOblique
%%+ font Symbol
%%Title: R Graphics Output
%%Creator: R Software
%%Pages: (atend)
%%BoundingBox: 0 0 1026 683
%%EndComments
%%BeginProlog
/bp  { gs sRGB gs } def
% begin .ps.prolog
/gs  { gsave } bind def
/gr  { grestore } bind def
/ep  { showpage gr gr } bind def
/m   { moveto } bind def
/l  { rlineto } bind def
/np  { newpath } bind def
/cp  { closepath } bind def
/f   { fill } bind def
/o   { stroke } bind def
/c   { newpath 0 360 arc } bind def
/r   { 4 2 roll moveto 1 copy 3 -1 roll exch 0 exch rlineto 0 rlineto -1 mul 0 exch rlineto closepath } bind def
/p1  { stroke } bind def
/p2  { gsave bg fill grestore newpath } bind def
/p3  { gsave bg fill grestore stroke } bind def
/p6  { gsave bg eofill grestore newpath } bind def
/p7  { gsave bg eofill grestore stroke } bind def
/t   { 5 -2 roll moveto gsave rotate
       1 index stringwidth pop
       mul neg 0 rmoveto show grestore } bind def
/ta  { 4 -2 roll moveto gsave rotate show } bind def
/tb  { 2 -1 roll 0 rmoveto show } bind def
/cl  { grestore gsave newpath 3 index 3 index moveto 1 index
       4 -1 roll lineto  exch 1 index lineto lineto
       closepath clip newpath } bind def
/rgb { setrgbcolor } bind def
/s   { scalefont setfont } bind def
% end   .ps.prolog
/sRGB { [ /CIEBasedABC
          << /DecodeLMN
               [ { dup 0.03928 le
                        {12.92321 div}
                        {0.055 add 1.055 div 2.4 exp }
                     ifelse
                 } bind dup dup
               ]
             /MatrixLMN [0.412457 0.212673 0.019334
                         0.357576 0.715152 0.119192
                         0.180437 0.072175 0.950301]
             /WhitePoint [0.9505 1.0 1.0890]
           >>
         ] setcolorspace } bind def
/srgb { setcolor } bind def
%%IncludeResource: font Helvetica
/Helvetica findfont
dup length dict begin
  {1 index /FID ne {def} {pop pop} ifelse} forall
  /Encoding ISOLatin1Encoding def
  currentdict
  end
/Font1 exch definefont pop
%%IncludeResource: font Helvetica-Bold
/Helvetica-Bold findfont
dup length dict begin
  {1 index /FID ne {def} {pop pop} ifelse} forall
  /Encoding ISOLatin1Encoding def
  currentdict
  end
/Font2 exch definefont pop
%%IncludeResource: font Helvetica-Oblique
/Helvetica-Oblique findfont
dup length dict begin
  {1 index /FID ne {def} {pop pop} ifelse} forall
  /Encoding ISOLatin1Encoding def
  currentdict
  end
/Font3 exch definefont pop
%%IncludeResource: font Helvetica-BoldOblique
/Helvetica-BoldOblique findfont
dup length dict begin
  {1 index /FID ne {def} {pop pop} ifelse} forall
  /Encoding ISOLatin1Encoding def
  currentdict
  end
/Font4 exch definefont pop
%%IncludeResource: font Symbol
/Symbol findfont
dup length dict begin
  {1 index /FID ne {def} {pop pop} ifelse} forall
  currentdict
  end
/Font5 exch definefont pop
%%EndProlog
%%Page: 1 1
bp
0.00 0.00 1026.00 683.00 cl
0.00 0.00 1026.00 683.00 cl
0.00 0.00 1026.00 683.00 cl
/bg { 1 1 1 srgb } def
1 1 1 srgb
1.06 setlinewidth
[] 0 setdash
1 setlinecap
1 setlinejoin
10.00 setmiterlimit
-0.00 0.00 1026.00 683.00 r p3
0.00 0.00 1026.00 683.00 cl
0.00 0.00 1026.00 683.00 cl
0.00 0.00 1026.00 683.00 cl
49.56 37.28 1011.60 668.60 cl
/bg { 0.8980 0.8980 0.8980 srgb } def
49.56 37.28 962.04 631.32 r p2
0.9490 0.9490 0.9490 srgb
0.53 setlinewidth
[] 0 setdash
0 setlinecap
1 setlinejoin
10.00 setmiterlimit
np
49.56 142.84 m
962.04 0 l
o
np
49.56 296.57 m
962.04 0 l
o
np
49.56 450.29 m
962.04 0 l
o
np
49.56 604.01 m
962.04 0 l
o
np
169.93 37.28 m
0 631.32 l
o
np
395.34 37.28 m
0 631.32 l
o
np
620.74 37.28 m
0 631.32 l
o
np
846.15 37.28 m
0 631.32 l
o
1 1 1 srgb
1.06 setlinewidth
[] 0 setdash
np
49.56 65.98 m
962.04 0 l
o
np
49.56 219.70 m
962.04 0 l
o
np
49.56 373.43 m
962.04 0 l
o
np
49.56 527.15 m
962.04 0 l
o
np
57.23 37.28 m
0 631.32 l
o
np
282.63 37.28 m
0 631.32 l
o
np
508.04 37.28 m
0 631.32 l
o
np
733.45 37.28 m
0 631.32 l
o
np
958.85 37.28 m
0 631.32 l
o
0 0 0 srgb
1 setlinecap
np
93.29 291.73 m
1.71 11.07 l
1.71 9.71 l
1.72 8.37 l
1.71 7.12 l
1.71 6.00 l
1.71 4.99 l
1.71 4.33 l
1.71 3.88 l
1.72 3.63 l
1.71 3.52 l
1.71 3.55 l
1.71 3.65 l
1.71 3.77 l
1.71 3.87 l
1.71 3.91 l
1.72 3.83 l
1.71 3.62 l
1.71 3.28 l
1.71 2.84 l
1.71 2.28 l
1.71 1.64 l
1.71 0.95 l
1.72 0.24 l
1.71 -0.53 l
1.71 -1.11 l
1.71 -1.56 l
1.71 -1.85 l
1.71 -1.94 l
1.72 -1.80 l
1.71 -1.40 l
1.71 -0.74 l
1.71 0.20 l
1.71 1.63 l
1.71 3.20 l
1.71 4.96 l
1.72 6.93 l
1.71 9.01 l
1.71 11.17 l
1.71 13.30 l
1.71 15.36 l
1.71 17.25 l
1.71 18.99 l
1.72 20.05 l
1.71 20.64 l
1.71 20.68 l
1.71 20.12 l
1.71 18.94 l
1.71 17.15 l
1.72 14.79 l
1.71 11.81 l
1.71 8.03 l
1.71 4.33 l
1.71 0.51 l
1.71 -3.30 l
1.71 -7.00 l
1.72 -10.44 l
1.71 -13.54 l
1.71 -16.23 l
1.71 -18.50 l
1.71 -20.33 l
1.71 -21.43 l
1.71 -22.13 l
1.72 -22.43 l
1.71 -22.44 l
1.71 -22.19 l
1.71 -21.75 l
1.71 -21.18 l
1.71 -20.49 l
1.72 -19.70 l
1.71 -18.97 l
1.71 -18.25 l
1.71 -17.51 l
1.71 -16.79 l
1.71 -16.07 l
1.71 -15.35 l
1.72 -14.63 l
1.71 -13.85 l
1.71 -13.02 l
1.71 -12.27 l
1.71 -11.51 l
1.71 -10.74 l
1.72 -9.97 l
1.71 -9.23 l
1.71 -8.48 l
1.71 -7.77 l
1.71 -7.03 l
1.71 -6.32 l
1.71 -5.69 l
1.72 -5.10 l
1.71 -4.53 l
1.71 -4.01 l
1.71 -3.50 l
1.71 -3.04 l
1.71 -2.59 l
1.71 -2.15 l
1.72 -1.74 l
1.71 -1.39 l
1.71 -1.07 l
1.71 -0.78 l
264.44 92.96 lineto
1.71 -0.28 l
1.72 -0.08 l
1.71 0.10 l
1.71 0.25 l
1.71 0.37 l
1.71 0.46 l
1.71 0.52 l
1.71 0.58 l
1.72 0.62 l
1.71 0.64 l
1.71 0.68 l
1.71 0.71 l
1.71 0.75 l
1.71 0.81 l
1.71 0.89 l
1.72 1.01 l
1.71 1.14 l
1.71 1.34 l
1.71 1.58 l
1.71 1.87 l
1.71 2.23 l
1.72 2.70 l
1.71 3.23 l
1.71 3.79 l
1.71 4.40 l
1.71 5.07 l
1.71 5.75 l
1.71 6.44 l
1.72 7.12 l
1.71 7.77 l
1.71 8.42 l
1.71 8.93 l
1.71 9.31 l
1.71 9.55 l
1.71 9.65 l
1.72 9.61 l
1.71 9.40 l
1.71 9.03 l
1.71 8.51 l
1.71 7.74 l
1.71 6.86 l
1.72 5.90 l
1.71 4.84 l
1.71 3.72 l
1.71 2.54 l
1.71 1.32 l
1.71 0.11 l
1.71 -1.09 l
1.72 -2.40 l
1.71 -3.53 l
1.71 -4.56 l
1.71 -5.48 l
1.71 -6.29 l
1.71 -7.00 l
1.71 -7.56 l
1.72 -8.00 l
1.71 -8.29 l
1.71 -8.43 l
1.71 -8.41 l
1.71 -8.26 l
1.71 -8.01 l
1.72 -7.66 l
1.71 -7.24 l
1.71 -6.78 l
1.71 -6.27 l
1.71 -5.77 l
1.71 -5.20 l
1.71 -4.72 l
1.72 -4.30 l
1.71 -3.92 l
1.71 -3.59 l
1.71 -3.31 l
1.71 -3.09 l
1.71 -2.90 l
1.72 -2.77 l
1.71 -2.64 l
1.71 -2.56 l
1.71 -2.50 l
1.71 -2.44 l
1.71 -2.38 l
1.71 -2.31 l
1.72 -2.25 l
1.71 -2.16 l
1.71 -2.07 l
1.71 -1.96 l
1.71 -1.84 l
1.71 -1.72 l
1.71 -1.59 l
1.72 -1.48 l
1.71 -1.34 l
1.71 -1.23 l
1.71 -1.10 l
1.71 -0.97 l
1.71 -0.85 l
1.72 -0.73 l
1.71 -0.60 l
1.71 -0.49 l
1.71 -0.35 l
1.71 -0.22 l
435.59 78.18 lineto
1.71 0.09 l
1.72 0.26 l
1.71 0.46 l
1.71 0.65 l
1.71 0.85 l
1.71 1.04 l
1.71 1.24 l
1.71 1.43 l
1.72 1.61 l
1.71 1.76 l
1.71 1.89 l
1.71 2.00 l
1.71 2.04 l
1.71 2.04 l
1.72 1.99 l
1.71 1.89 l
1.71 1.74 l
1.71 1.54 l
1.71 1.30 l
1.71 1.02 l
1.71 0.66 l
1.72 0.34 l
1.71 0 l
1.71 -0.33 l
1.71 -0.65 l
1.71 -0.95 l
1.71 -1.21 l
1.71 -1.44 l
1.72 -1.65 l
1.71 -1.82 l
1.71 -1.92 l
1.71 -2.01 l
1.71 -2.04 l
1.71 -2.06 l
1.72 -2.05 l
1.71 -2.01 l
1.71 -1.96 l
1.71 -1.89 l
1.71 -1.79 l
1.71 -1.69 l
1.71 -1.58 l
1.72 -1.47 l
1.71 -1.35 l
1.71 -1.23 l
1.71 -1.11 l
1.71 -0.98 l
1.71 -0.86 l
1.72 -0.74 l
1.71 -0.63 l
1.71 -0.53 l
1.71 -0.45 l
1.71 -0.37 l
1.71 -0.30 l
1.71 -0.23 l
1.72 -0.19 l
1.71 -0.15 l
1.71 -0.11 l
1.71 -0.08 l
1.71 -0.06 l
1.71 -0.05 l
1.71 -0.03 l
1.72 -0.02 l
1.71 -0.02 l
1.71 -0.01 l
1.71 -0.01 l
1.71 0 l
1.71 -0.01 l
1.72 0 l
1.71 0 l
1.71 0 l
1.71 0 l
1.71 0 l
1.71 0 l
1.71 0 l
1.72 0 l
1.71 0 l
1.71 0 l
1.71 0 l
1.71 0 l
1.71 0 l
1.71 0 l
1.72 0 l
1.71 0 l
1.71 0 l
1.71 0 l
1.71 0 l
1.71 0 l
1.72 0 l
1.71 0 l
1.71 0 l
1.71 0 l
1.71 0 l
1.71 0 l
1.71 0 l
1.72 0 l
1.71 0 l
1.71 0 l
1.71 0 l
1.71 0 l
606.74 65.98 lineto
1.71 0 l
1.72 0 l
1.71 0 l
1.71 0 l
1.71 0 l
1.71 0 l
1.71 0 l
1.72 0 l
1.71 0 l
1.71 0 l
1.71 0 l
1.71 0 l
1.71 0 l
1.71 0 l
1.72 0 l
1.71 0 l
1.71 0 l
1.71 0 l
1.71 0 l
1.71 0 l
1.71 0 l
1.72 0 l
1.71 0 l
1.71 0 l
1.71 0 l
1.71 0 l
1.71 0 l
1.72 0 l
1.71 0 l
1.71 0 l
1.71 0 l
1.71 0 l
1.71 0 l
1.71 0 l
1.72 0 l
1.71 0 l
1.71 0 l
1.71 0 l
1.71 0 l
1.71 0 l
1.72 0 l
1.71 0 l
1.71 0 l
1.71 0 l
1.71 0 l
1.71 0 l
1.71 0 l
1.72 0 l
1.71 0 l
1.71 0 l
1.71 0 l
1.71 0 l
1.71 0 l
1.71 0 l
1.72 0 l
1.71 0 l
1.71 0 l
1.71 0 l
1.71 0 l
1.71 0 l
1.72 0 l
1.71 0 l
1.71 0 l
1.71 0 l
1.71 0 l
1.71 0 l
1.71 0 l
1.72 0 l
1.71 0 l
1.71 0 l
1.71 0 l
1.71 0 l
1.71 0 l
1.71 0 l
1.72 0 l
1.71 0 l
1.71 0 l
1.71 0 l
1.71 0 l
1.71 0 l
1.72 0 l
1.71 0 l
1.71 0 l
1.71 0 l
1.71 0 l
1.71 0 l
1.71 0 l
1.72 0 l
1.71 0 l
1.71 0 l
1.71 0 l
1.71 0 l
1.71 0 l
1.71 0 l
1.72 0 l
1.71 0 l
1.71 0 l
1.71 0 l
1.71 0 l
777.89 65.98 lineto
1.72 0 l
1.71 0 l
1.71 0 l
1.71 0 l
1.71 0 l
1.71 0 l
1.71 0 l
1.72 0 l
1.71 0 l
1.71 0 l
1.71 0 l
1.71 0 l
1.71 0 l
1.71 0 l
1.72 0 l
1.71 0 l
1.71 0 l
1.71 0 l
1.71 0 l
1.71 0 l
1.72 0 l
1.71 0 l
1.71 0 l
1.71 0 l
1.71 0 l
1.71 0 l
1.71 0 l
1.72 0 l
1.71 0 l
1.71 0 l
1.71 0 l
1.71 0 l
1.71 0 l
1.72 0 l
1.71 0 l
1.71 0 l
1.71 0 l
1.71 0 l
1.71 0 l
1.71 0 l
1.72 0 l
1.71 0 l
1.71 0 l
1.71 0 l
1.71 0 l
1.71 0 l
1.71 0 l
1.72 0 l
1.71 0 l
1.71 0 l
1.71 0 l
1.71 0 l
1.71 0 l
1.72 0 l
1.71 0 l
1.71 0 l
1.71 0 l
1.71 0 l
1.71 0 l
1.71 0 l
1.72 0 l
1.71 0 l
1.71 0 l
1.71 0 l
1.71 0 l
1.71 0 l
1.71 0 l
1.72 0 l
1.71 0 l
1.71 0 l
1.71 0 l
1.71 0 l
1.71 0 l
1.72 0 l
1.71 0 l
1.71 0 l
1.71 0 l
1.71 0 l
1.71 0.01 l
1.71 0 l
1.72 0.01 l
1.71 0 l
1.71 0.02 l
1.71 0.01 l
1.71 0.03 l
1.71 0.03 l
1.71 0.04 l
1.72 0.06 l
1.71 0.08 l
1.71 0.10 l
1.71 0.12 l
1.71 0.16 l
1.71 0.19 l
1.72 0.23 l
1.71 0.27 l
1.71 0.31 l
1.71 0.36 l
1.71 0.40 l
1.71 0.44 l
949.04 69.33 lineto
1.72 0.50 l
1.71 0.51 l
1.71 0.50 l
1.71 0.50 l
1.71 0.46 l
1.71 0.41 l
1.72 0.34 l
1.71 0.26 l
1.71 0.17 l
1.71 0.07 l
1.71 -0.02 l
0 -7.05 l
-1.71 0 l
-1.71 0 l
-1.71 0 l
-1.71 0 l
-1.72 0 l
-1.71 0 l
-1.71 0 l
-1.71 0 l
-1.71 0 l
-1.71 0 l
-1.72 0 l
-1.71 0 l
-1.71 0 l
-1.71 0 l
-1.71 0 l
-1.71 0 l
-1.71 0 l
-1.72 0 l
-1.71 0 l
-1.71 0 l
-1.71 0 l
-1.71 0 l
-1.71 0 l
-1.72 0 l
-1.71 0 l
-1.71 0 l
-1.71 0 l
-1.71 0 l
-1.71 0 l
-1.71 0 l
-1.72 0 l
-1.71 0 l
-1.71 0 l
-1.71 0 l
-1.71 0 l
-1.71 0 l
-1.71 0 l
-1.72 0 l
-1.71 0 l
-1.71 0 l
-1.71 0 l
-1.71 0 l
-1.71 0 l
-1.72 0 l
-1.71 0 l
-1.71 0 l
-1.71 0 l
-1.71 0 l
-1.71 0 l
-1.71 0 l
-1.72 0 l
-1.71 0 l
-1.71 0 l
-1.71 0 l
-1.71 0 l
-1.71 0 l
-1.71 0 l
-1.72 0 l
-1.71 0 l
-1.71 0 l
-1.71 0 l
-1.71 0 l
-1.71 0 l
-1.72 0 l
-1.71 0 l
-1.71 0 l
-1.71 0 l
-1.71 0 l
-1.71 0 l
-1.71 0 l
-1.72 0 l
-1.71 0 l
-1.71 0 l
-1.71 0 l
-1.71 0 l
-1.71 0 l
-1.71 0 l
-1.72 0 l
-1.71 0 l
-1.71 0 l
-1.71 0 l
-1.71 0 l
-1.71 0 l
-1.72 0 l
-1.71 0 l
-1.71 0 l
-1.71 0 l
817.26 65.98 lineto
-1.71 0 l
-1.71 0 l
-1.72 0 l
-1.71 0 l
-1.71 0 l
-1.71 0 l
-1.71 0 l
-1.71 0 l
-1.72 0 l
-1.71 0 l
-1.71 0 l
-1.71 0 l
-1.71 0 l
-1.71 0 l
-1.71 0 l
-1.72 0 l
-1.71 0 l
-1.71 0 l
-1.71 0 l
-1.71 0 l
-1.71 0 l
-1.71 0 l
-1.72 0 l
-1.71 0 l
-1.71 0 l
-1.71 0 l
-1.71 0 l
-1.71 0 l
-1.72 0 l
-1.71 0 l
-1.71 0 l
-1.71 0 l
-1.71 0 l
-1.71 0 l
-1.71 0 l
-1.72 0 l
-1.71 0 l
-1.71 0 l
-1.71 0 l
-1.71 0 l
-1.71 0 l
-1.71 0 l
-1.72 0 l
-1.71 0 l
-1.71 0 l
-1.71 0 l
-1.71 0 l
-1.71 0 l
-1.72 0 l
-1.71 0 l
-1.71 0 l
-1.71 0 l
-1.71 0 l
-1.71 0 l
-1.71 0 l
-1.72 0 l
-1.71 0 l
-1.71 0 l
-1.71 0 l
-1.71 0 l
-1.71 0 l
-1.71 0 l
-1.72 0 l
-1.71 0 l
-1.71 0 l
-1.71 0 l
-1.71 0 l
-1.71 0 l
-1.72 0 l
-1.71 0 l
-1.71 0 l
-1.71 0 l
-1.71 0 l
-1.71 0 l
-1.71 0 l
-1.72 0 l
-1.71 0 l
-1.71 0 l
-1.71 0 l
-1.71 0 l
-1.71 0 l
-1.71 0 l
-1.72 0 l
-1.71 0 l
-1.71 0 l
-1.71 0 l
-1.71 0 l
-1.71 0 l
-1.72 0 l
-1.71 0 l
-1.71 0 l
-1.71 0 l
-1.71 0 l
-1.71 0 l
-1.71 0 l
-1.72 0 l
-1.71 0 l
-1.71 0 l
-1.71 0 l
646.11 65.98 lineto
-1.71 0 l
-1.72 0 l
-1.71 0 l
-1.71 0 l
-1.71 0 l
-1.71 0 l
-1.71 0 l
-1.71 0 l
-1.72 0 l
-1.71 0 l
-1.71 0 l
-1.71 0 l
-1.71 0 l
-1.71 0 l
-1.71 0 l
-1.72 0 l
-1.71 0 l
-1.71 0 l
-1.71 0 l
-1.71 0 l
-1.71 0 l
-1.72 0 l
-1.71 0 l
-1.71 0 l
-1.71 0 l
-1.71 0 l
-1.71 0 l
-1.71 0 l
-1.72 0 l
-1.71 0 l
-1.71 0 l
-1.71 0 l
-1.71 0 l
-1.71 0 l
-1.71 0 l
-1.72 0 l
-1.71 0 l
-1.71 0 l
-1.71 0 l
-1.71 0 l
-1.71 0 l
-1.72 0 l
-1.71 0 l
-1.71 0 l
-1.71 0 l
-1.71 0 l
-1.71 0 l
-1.71 0 l
-1.72 0 l
-1.71 0 l
-1.71 0 l
-1.71 0 l
-1.71 0 l
-1.71 0 l
-1.71 0 l
-1.72 0 l
-1.71 0 l
-1.71 0 l
-1.71 0 l
-1.71 0 l
-1.71 0 l
-1.72 0 l
-1.71 0 l
-1.71 0 l
-1.71 0 l
-1.71 0 l
-1.71 0 l
-1.71 0 l
-1.72 0 l
-1.71 0 l
-1.71 0 l
-1.71 0 l
-1.71 0 l
-1.71 0 l
-1.71 0 l
-1.72 0 l
-1.71 0 l
-1.71 0 l
-1.71 0 l
-1.71 0 l
-1.71 0 l
-1.72 0 l
-1.71 0 l
-1.71 0 l
-1.71 0 l
-1.71 0 l
-1.71 0 l
-1.71 0 l
-1.72 0 l
-1.71 0 l
-1.71 0 l
-1.71 0 l
-1.71 0 l
-1.71 0 l
-1.72 0 l
-1.71 0 l
-1.71 0 l
-1.71 0 l
-1.71 0 l
474.96 65.98 lineto
-1.71 0 l
-1.72 0 l
-1.71 0 l
-1.71 0 l
-1.71 0 l
-1.71 0 l
-1.71 0 l
-1.71 0 l
-1.72 0 l
-1.71 0 l
-1.71 0 l
-1.71 0 l
-1.71 0 l
-1.71 0 l
-1.72 0 l
-1.71 0 l
-1.71 0 l
-1.71 0 l
-1.71 0 l
-1.71 0 l
-1.71 0 l
-1.72 0 l
-1.71 0 l
-1.71 0 l
-1.71 0 l
-1.71 0 l
-1.71 0 l
-1.71 0 l
-1.72 0 l
-1.71 0 l
-1.71 0 l
-1.71 0 l
-1.71 0 l
-1.71 0 l
-1.72 0 l
-1.71 0 l
-1.71 0 l
-1.71 0 l
-1.71 0 l
-1.71 0 l
-1.71 0 l
-1.72 0 l
-1.71 0 l
-1.71 0 l
-1.71 0 l
-1.71 0 l
-1.71 0 l
-1.71 0 l
-1.72 0 l
-1.71 0 l
-1.71 0 l
-1.71 0 l
-1.71 0 l
-1.71 0 l
-1.72 0 l
-1.71 0 l
-1.71 0 l
-1.71 0 l
-1.71 0 l
-1.71 0 l
-1.71 0 l
-1.72 0 l
-1.71 0 l
-1.71 0 l
-1.71 0 l
-1.71 0 l
-1.71 0 l
-1.72 0 l
-1.71 0 l
-1.71 0 l
-1.71 0 l
-1.71 0 l
-1.71 0 l
-1.71 0 l
-1.72 0 l
-1.71 0 l
-1.71 0 l
-1.71 0 l
-1.71 0 l
-1.71 0 l
-1.71 0 l
-1.72 0 l
-1.71 0 l
-1.71 0 l
-1.71 0 l
-1.71 0 l
-1.71 0 l
-1.72 0 l
-1.71 0 l
-1.71 0 l
-1.71 0 l
-1.71 0 l
-1.71 0 l
-1.71 0 l
-1.72 0 l
-1.71 0 l
-1.71 0 l
-1.71 0 l
-1.71 0 l
303.81 65.98 lineto
-1.71 0 l
-1.72 0 l
-1.71 0 l
-1.71 0 l
-1.71 0 l
-1.71 0 l
-1.71 0 l
-1.72 0 l
-1.71 0 l
-1.71 0 l
-1.71 0 l
-1.71 0 l
-1.71 0 l
-1.71 0 l
-1.72 0 l
-1.71 0 l
-1.71 0 l
-1.71 0 l
-1.71 0 l
-1.71 0 l
-1.71 0 l
-1.72 0 l
-1.71 0 l
-1.71 0 l
-1.71 0 l
-1.71 0 l
-1.71 0 l
-1.72 0 l
-1.71 0 l
-1.71 0 l
-1.71 0 l
-1.71 0 l
-1.71 0 l
-1.71 0 l
-1.72 0 l
-1.71 0 l
-1.71 0 l
-1.71 0 l
-1.71 0 l
-1.71 0 l
-1.71 0 l
-1.72 0 l
-1.71 0 l
-1.71 0 l
-1.71 0 l
-1.71 0 l
-1.71 0 l
-1.72 0 l
-1.71 0 l
-1.71 0 l
-1.71 0 l
-1.71 0 l
-1.71 0 l
-1.71 0 l
-1.72 0 l
-1.71 0 l
-1.71 0 l
-1.71 0 l
-1.71 0 l
-1.71 0 l
-1.72 0 l
-1.71 0 l
-1.71 0 l
-1.71 0 l
-1.71 0 l
-1.71 0 l
-1.71 0 l
-1.72 0 l
-1.71 0 l
-1.71 0 l
-1.71 0 l
-1.71 0 l
-1.71 0 l
-1.71 0 l
-1.72 0 l
-1.71 0 l
-1.71 0 l
-1.71 0 l
-1.71 0 l
-1.71 0 l
-1.72 0 l
-1.71 0 l
-1.71 0 l
-1.71 0 l
-1.71 0 l
-1.71 0 l
-1.71 0 l
-1.72 0 l
-1.71 0 l
-1.71 0 l
-1.71 0 l
-1.71 0 l
-1.71 0 l
-1.71 0 l
-1.72 0 l
-1.71 0 l
-1.71 0 l
-1.71 0 l
-1.71 0 l
currentpoint o m
132.66 65.98 lineto
-1.72 0 l
-1.71 0 l
-1.71 0 l
-1.71 0 l
-1.71 0 l
-1.71 0 l
-1.71 0 l
-1.72 0 l
-1.71 0 l
-1.71 0 l
-1.71 0 l
-1.71 0 l
-1.71 0 l
-1.71 0 l
-1.72 0 l
-1.71 0 l
-1.71 0 l
-1.71 0 l
-1.71 0 l
-1.71 0 l
-1.72 0 l
-1.71 0 l
-1.71 0 l
0 225.75 l
o
0.00 0.00 1026.00 683.00 cl
0.00 0.00 1026.00 683.00 cl
0.00 0.00 1026.00 683.00 cl
/Font1 findfont 10 s
0.4980 0.4980 0.4980 srgb
42.48 62.39 (0.00) 1 0 t
42.48 216.11 (0.02) 1 0 t
42.48 369.84 (0.04) 1 0 t
42.48 523.56 (0.06) 1 0 t
0.00 0.00 1026.00 683.00 cl
0.00 0.00 1026.00 683.00 cl
0.4980 0.4980 0.4980 srgb
1.06 setlinewidth
[] 0 setdash
0 setlinecap
1 setlinejoin
10.00 setmiterlimit
np
45.31 65.98 m
4.25 0 l
o
np
45.31 219.70 m
4.25 0 l
o
np
45.31 373.43 m
4.25 0 l
o
np
45.31 527.15 m
4.25 0 l
o
0.00 0.00 1026.00 683.00 cl
0.00 0.00 1026.00 683.00 cl
0.00 0.00 1026.00 683.00 cl
0.00 0.00 1026.00 683.00 cl
0.00 0.00 1026.00 683.00 cl
0.00 0.00 1026.00 683.00 cl
0.4980 0.4980 0.4980 srgb
1.06 setlinewidth
[] 0 setdash
0 setlinecap
1 setlinejoin
10.00 setmiterlimit
np
57.23 33.03 m
0 4.25 l
o
np
282.63 33.03 m
0 4.25 l
o
np
508.04 33.03 m
0 4.25 l
o
np
733.45 33.03 m
0 4.25 l
o
np
958.85 33.03 m
0 4.25 l
o
0.00 0.00 1026.00 683.00 cl
0.00 0.00 1026.00 683.00 cl
/Font1 findfont 10 s
0.4980 0.4980 0.4980 srgb
57.23 23.02 (-100) .5 0 t
282.63 23.02 (-75) .5 0 t
508.04 23.02 (-50) .5 0 t
733.45 23.02 (-25) .5 0 t
958.85 23.02 (0) .5 0 t
0.00 0.00 1026.00 683.00 cl
0.00 0.00 1026.00 683.00 cl
0.00 0.00 1026.00 683.00 cl
0.00 0.00 1026.00 683.00 cl
0.00 0.00 1026.00 683.00 cl
0.00 0.00 1026.00 683.00 cl
0.00 0.00 1026.00 683.00 cl
0.00 0.00 1026.00 683.00 cl
0.00 0.00 1026.00 683.00 cl
0.00 0.00 1026.00 683.00 cl
0.00 0.00 1026.00 683.00 cl
ep
%%Trailer
%%Pages: 1
%%EOF
