%!PS-Adobe-3.0 EPSF-3.0
%%DocumentNeededResources: font Helvetica
%%+ font Helvetica-Bold
%%+ font Helvetica-Oblique
%%+ font Helvetica-BoldOblique
%%+ font Symbol
%%Title: R Graphics Output
%%Creator: R Software
%%Pages: (atend)
%%BoundingBox: 0 0 433 193
%%EndComments
%%BeginProlog
/bp  { gs sRGB gs } def
% begin .ps.prolog
/gs  { gsave } bind def
/gr  { grestore } bind def
/ep  { showpage gr gr } bind def
/m   { moveto } bind def
/l  { rlineto } bind def
/np  { newpath } bind def
/cp  { closepath } bind def
/f   { fill } bind def
/o   { stroke } bind def
/c   { newpath 0 360 arc } bind def
/r   { 4 2 roll moveto 1 copy 3 -1 roll exch 0 exch rlineto 0 rlineto -1 mul 0 exch rlineto closepath } bind def
/p1  { stroke } bind def
/p2  { gsave bg fill grestore newpath } bind def
/p3  { gsave bg fill grestore stroke } bind def
/p6  { gsave bg eofill grestore newpath } bind def
/p7  { gsave bg eofill grestore stroke } bind def
/t   { 5 -2 roll moveto gsave rotate
       1 index stringwidth pop
       mul neg 0 rmoveto show grestore } bind def
/ta  { 4 -2 roll moveto gsave rotate show } bind def
/tb  { 2 -1 roll 0 rmoveto show } bind def
/cl  { grestore gsave newpath 3 index 3 index moveto 1 index
       4 -1 roll lineto  exch 1 index lineto lineto
       closepath clip newpath } bind def
/rgb { setrgbcolor } bind def
/s   { scalefont setfont } bind def
% end   .ps.prolog
/sRGB { [ /CIEBasedABC
          << /DecodeLMN
               [ { dup 0.03928 le
                        {12.92321 div}
                        {0.055 add 1.055 div 2.4 exp }
                     ifelse
                 } bind dup dup
               ]
             /MatrixLMN [0.412457 0.212673 0.019334
                         0.357576 0.715152 0.119192
                         0.180437 0.072175 0.950301]
             /WhitePoint [0.9505 1.0 1.0890]
           >>
         ] setcolorspace } bind def
/srgb { setcolor } bind def
%%IncludeResource: font Helvetica
/Helvetica findfont
dup length dict begin
  {1 index /FID ne {def} {pop pop} ifelse} forall
  /Encoding ISOLatin1Encoding def
  currentdict
  end
/Font1 exch definefont pop
%%IncludeResource: font Helvetica-Bold
/Helvetica-Bold findfont
dup length dict begin
  {1 index /FID ne {def} {pop pop} ifelse} forall
  /Encoding ISOLatin1Encoding def
  currentdict
  end
/Font2 exch definefont pop
%%IncludeResource: font Helvetica-Oblique
/Helvetica-Oblique findfont
dup length dict begin
  {1 index /FID ne {def} {pop pop} ifelse} forall
  /Encoding ISOLatin1Encoding def
  currentdict
  end
/Font3 exch definefont pop
%%IncludeResource: font Helvetica-BoldOblique
/Helvetica-BoldOblique findfont
dup length dict begin
  {1 index /FID ne {def} {pop pop} ifelse} forall
  /Encoding ISOLatin1Encoding def
  currentdict
  end
/Font4 exch definefont pop
%%IncludeResource: font Symbol
/Symbol findfont
dup length dict begin
  {1 index /FID ne {def} {pop pop} ifelse} forall
  currentdict
  end
/Font5 exch definefont pop
%%EndProlog
%%Page: 1 1
bp
0.00 0.00 433.00 193.00 cl
0.00 0.00 433.00 193.00 cl
0.00 0.00 433.00 193.00 cl
/bg { 1 1 1 srgb } def
1 1 1 srgb
1.06 setlinewidth
[] 0 setdash
1 setlinecap
1 setlinejoin
10.00 setmiterlimit
0.00 0.00 433.00 193.00 r p3
0.00 0.00 433.00 193.00 cl
0.00 0.00 433.00 193.00 cl
0.00 0.00 433.00 193.00 cl
44.00 37.28 418.60 178.60 cl
/bg { 0.8980 0.8980 0.8980 srgb } def
44.00 37.28 374.60 141.32 r p2
0.9490 0.9490 0.9490 srgb
0.53 setlinewidth
[] 0 setdash
0 setlinecap
1 setlinejoin
10.00 setmiterlimit
np
44.00 62.81 m
374.60 0 l
o
np
44.00 101.02 m
374.60 0 l
o
np
44.00 139.23 m
374.60 0 l
o
np
44.00 177.44 m
374.60 0 l
o
np
102.05 37.28 m
0 141.32 l
o
np
191.04 37.28 m
0 141.32 l
o
np
280.02 37.28 m
0 141.32 l
o
np
369.00 37.28 m
0 141.32 l
o
1 1 1 srgb
1.06 setlinewidth
[] 0 setdash
np
44.00 43.71 m
374.60 0 l
o
np
44.00 81.91 m
374.60 0 l
o
np
44.00 120.12 m
374.60 0 l
o
np
44.00 158.33 m
374.60 0 l
o
np
57.56 37.28 m
0 141.32 l
o
np
146.54 37.28 m
0 141.32 l
o
np
235.53 37.28 m
0 141.32 l
o
np
324.51 37.28 m
0 141.32 l
o
np
413.50 37.28 m
0 141.32 l
o
0 0 0 srgb
1 setlinecap
np
61.03 43.74 m
0.67 0 l
0.66 0 l
0.67 0 l
0.67 0 l
0.66 0 l
0.67 0 l
0.66 -0.01 l
0.67 0 l
0.67 0 l
0.66 0 l
0.67 -0.01 l
0.67 0 l
0.66 0 l
0.67 0 l
0.67 0 l
0.66 -0.01 l
0.67 0 l
0.67 0 l
0.66 0 l
0.67 0 l
0.66 0 l
0.67 0 l
0.67 0 l
0.66 0 l
0.67 0 l
0.67 0 l
0.66 0 l
0.67 0 l
0.67 0 l
0.66 0 l
0.67 0 l
0.67 0 l
0.66 0 l
0.67 0 l
0.66 0 l
0.67 0 l
0.67 0 l
0.66 0 l
0.67 0 l
0.67 0 l
0.66 0 l
0.67 0 l
0.67 0 l
0.66 0 l
0.67 0 l
0.67 0 l
0.66 0 l
0.67 0 l
0.66 0 l
0.67 0 l
0.67 0 l
0.66 0 l
0.67 0 l
0.67 0 l
0.66 0 l
0.67 0 l
0.67 0 l
0.66 0 l
0.67 0 l
0.67 0 l
0.66 0 l
0.67 0 l
0.66 0 l
0.67 0 l
0.67 0 l
0.66 0 l
0.67 0 l
0.67 0 l
0.66 0 l
0.67 0 l
0.67 0.01 l
0.66 0 l
0.67 0 l
0.67 0 l
0.66 0 l
0.67 0.01 l
0.66 0 l
0.67 0 l
0.67 0 l
0.66 0.01 l
0.67 0 l
0.67 0 l
0.66 0 l
0.67 0 l
0.67 0 l
0.66 0 l
0.67 0 l
0.67 0 l
0.66 0 l
0.67 0 l
0.66 0 l
0.67 0 l
0.67 -0.01 l
0.66 0 l
0.67 0 l
0.67 0 l
0.66 -0.01 l
0.67 0 l
0.67 0 l
127.67 43.72 lineto
0.67 0 l
0.67 0 l
0.66 0 l
0.67 0 l
0.66 0 l
0.67 0 l
0.67 0.01 l
0.66 0 l
0.67 0.01 l
0.67 0 l
0.66 0.01 l
0.67 0.01 l
0.67 0.01 l
0.66 0.01 l
0.67 0.01 l
0.67 0.01 l
0.66 0.02 l
0.67 0.01 l
0.66 0.02 l
0.67 0.02 l
0.67 0.02 l
0.66 0.02 l
0.67 0.02 l
0.67 0.02 l
0.66 0.02 l
0.67 0.02 l
0.67 0.03 l
0.66 0.02 l
0.67 0.03 l
0.66 0.02 l
0.67 0.02 l
0.67 0.02 l
0.66 0.02 l
0.67 0.02 l
0.67 0.01 l
0.66 0.01 l
0.67 0.01 l
0.67 0.01 l
0.66 0 l
0.67 0 l
0.67 -0.01 l
0.66 0 l
0.67 -0.01 l
0.66 -0.01 l
0.67 -0.02 l
0.67 -0.01 l
0.66 -0.02 l
0.67 -0.01 l
0.67 -0.02 l
0.66 -0.02 l
0.67 -0.02 l
0.67 -0.02 l
0.66 -0.01 l
0.67 -0.02 l
0.67 -0.01 l
0.66 -0.02 l
0.67 -0.01 l
0.66 -0.01 l
0.67 -0.02 l
0.67 -0.01 l
0.66 -0.01 l
0.67 -0.01 l
0.67 -0.01 l
0.66 0 l
0.67 -0.01 l
0.67 -0.01 l
0.66 0 l
0.67 -0.01 l
0.67 0 l
0.66 -0.01 l
0.67 0 l
0.66 0 l
0.67 0 l
0.67 0 l
0.66 0 l
0.67 0 l
0.67 0.01 l
0.66 0.01 l
0.67 0 l
0.67 0.01 l
0.66 0.01 l
0.67 0.01 l
0.67 0.02 l
0.66 0.01 l
0.67 0.01 l
0.66 0.02 l
0.67 0.01 l
0.67 0.01 l
0.66 0.02 l
0.67 0.01 l
0.67 0.02 l
0.66 0.01 l
0.67 0.02 l
0.67 0.01 l
0.66 0.01 l
0.67 0.02 l
0.67 0.02 l
0.66 0.01 l
0.67 0.02 l
194.31 44.18 lineto
0.67 0.02 l
0.67 0.02 l
0.66 0.03 l
0.67 0.03 l
0.67 0.03 l
0.66 0.03 l
0.67 0.04 l
0.67 0.04 l
0.66 0.05 l
0.67 0.05 l
0.67 0.06 l
0.66 0.07 l
0.67 0.07 l
0.66 0.09 l
0.67 0.10 l
0.67 0.12 l
0.66 0.13 l
0.67 0.15 l
0.67 0.17 l
0.66 0.19 l
0.67 0.22 l
0.67 0.25 l
0.66 0.28 l
0.67 0.31 l
0.67 0.36 l
0.66 0.41 l
0.67 0.45 l
0.66 0.52 l
0.67 0.58 l
0.67 0.66 l
0.66 0.75 l
0.67 0.89 l
0.67 1.01 l
0.66 1.18 l
0.67 1.38 l
0.67 1.59 l
0.66 1.86 l
0.67 2.15 l
0.67 2.50 l
0.66 2.95 l
0.67 3.41 l
0.66 3.88 l
0.67 4.40 l
0.67 4.93 l
0.66 5.47 l
0.67 5.99 l
0.67 6.48 l
0.66 6.97 l
0.67 7.31 l
0.67 7.52 l
0.66 7.59 l
0.67 7.49 l
0.67 7.23 l
0.66 6.78 l
0.67 6.16 l
0.66 5.25 l
0.67 4.16 l
0.67 3.00 l
0.66 1.75 l
0.67 0.44 l
0.67 -0.89 l
0.66 -2.19 l
0.67 -3.42 l
0.67 -4.60 l
0.66 -5.66 l
0.67 -6.43 l
0.67 -7.00 l
0.66 -7.40 l
0.67 -7.59 l
0.66 -7.63 l
0.67 -7.50 l
0.67 -7.22 l
0.66 -6.77 l
0.67 -6.28 l
0.67 -5.74 l
0.66 -5.18 l
0.67 -4.62 l
0.67 -4.06 l
0.66 -3.55 l
0.67 -3.05 l
0.67 -2.56 l
0.66 -2.18 l
0.67 -1.85 l
0.66 -1.57 l
0.67 -1.34 l
0.67 -1.13 l
0.66 -0.97 l
0.67 -0.83 l
0.67 -0.71 l
0.66 -0.61 l
0.67 -0.54 l
0.67 -0.48 l
0.66 -0.42 l
0.67 -0.37 l
0.67 -0.33 l
0.66 -0.28 l
0.67 -0.25 l
0.66 -0.21 l
0.67 -0.19 l
260.96 48.43 lineto
0.66 -0.13 l
0.67 -0.11 l
0.67 -0.09 l
0.66 -0.07 l
0.67 -0.06 l
0.67 -0.05 l
0.66 -0.04 l
0.67 -0.03 l
0.67 -0.03 l
0.66 -0.03 l
0.67 -0.03 l
0.66 -0.03 l
0.67 -0.03 l
0.67 -0.03 l
0.66 -0.04 l
0.67 -0.04 l
0.67 -0.04 l
0.66 -0.05 l
0.67 -0.04 l
0.67 -0.05 l
0.66 -0.04 l
0.67 -0.05 l
0.66 -0.04 l
0.67 -0.03 l
0.67 -0.04 l
0.66 -0.02 l
0.67 -0.02 l
0.67 0 l
0.66 0 l
0.67 0.01 l
0.67 0.02 l
0.66 0.04 l
0.67 0.04 l
0.67 0.05 l
0.66 0.06 l
0.67 0.07 l
0.66 0.08 l
0.67 0.09 l
0.67 0.10 l
0.66 0.11 l
0.67 0.12 l
0.67 0.13 l
0.66 0.15 l
0.67 0.15 l
0.67 0.17 l
0.66 0.18 l
0.67 0.20 l
0.67 0.23 l
0.66 0.24 l
0.67 0.27 l
0.66 0.29 l
0.67 0.32 l
0.67 0.36 l
0.66 0.39 l
0.67 0.43 l
0.67 0.48 l
0.66 0.52 l
0.67 0.59 l
0.67 0.64 l
0.66 0.72 l
0.67 0.80 l
0.67 0.89 l
0.66 1.01 l
0.67 1.12 l
0.66 1.25 l
0.67 1.37 l
0.67 1.52 l
0.66 1.65 l
0.67 1.79 l
0.67 1.92 l
0.66 2.07 l
0.67 2.16 l
0.67 2.24 l
0.66 2.28 l
0.67 2.29 l
0.67 2.24 l
0.66 2.16 l
0.67 2.02 l
0.66 1.81 l
0.67 1.54 l
0.67 1.24 l
0.66 0.90 l
0.67 0.52 l
0.67 0.12 l
0.66 -0.28 l
0.67 -0.70 l
0.67 -1.13 l
0.66 -1.53 l
0.67 -1.86 l
0.67 -2.15 l
0.66 -2.38 l
0.67 -2.57 l
0.66 -2.68 l
0.67 -2.76 l
0.67 -2.77 l
0.66 -2.71 l
0.67 -2.61 l
0.67 -2.49 l
0.66 -2.33 l
327.60 58.23 lineto
0.67 -1.97 l
0.66 -1.77 l
0.67 -1.58 l
0.67 -1.36 l
0.66 -1.19 l
0.67 -1.03 l
0.66 -0.88 l
0.67 -0.75 l
0.67 -0.63 l
0.66 -0.53 l
0.67 -0.44 l
0.67 -0.37 l
0.66 -0.30 l
0.67 -0.25 l
0.67 -0.21 l
0.66 -0.18 l
0.67 -0.14 l
0.67 -0.13 l
0.66 -0.10 l
0.67 -0.09 l
0.66 -0.07 l
0.67 -0.07 l
0.67 -0.05 l
0.66 -0.05 l
0.67 -0.04 l
0.67 -0.03 l
0.66 -0.03 l
0.67 -0.02 l
0.67 -0.03 l
0.66 -0.01 l
0.67 -0.02 l
0.67 -0.01 l
0.66 -0.02 l
0.67 -0.01 l
0.66 -0.01 l
0.67 -0.01 l
0.67 -0.01 l
0.66 -0.01 l
0.67 -0.01 l
0.67 -0.01 l
0.66 0 l
0.67 -0.01 l
0.67 -0.01 l
0.66 -0.01 l
0.67 -0.01 l
0.67 0 l
0.66 -0.01 l
0.67 -0.01 l
0.66 0 l
0.67 -0.01 l
0.67 0 l
0.66 -0.01 l
0.67 0 l
0.67 -0.01 l
0.66 0 l
0.67 0 l
0.67 0 l
0.66 -0.01 l
0.67 0 l
0.67 0 l
0.66 0 l
0.67 0 l
0.66 0 l
0.67 0 l
0.67 0 l
0.66 0 l
0.67 0 l
0.67 0 l
0.66 0 l
0.67 0 l
0.67 0 l
0.66 0 l
0.67 0 l
0.67 0 l
0.66 0 l
0.67 0 l
0.66 0 l
0.67 0 l
0.67 0 l
0.66 0 l
0.67 0 l
0.67 0 l
0.66 0 l
0.67 0 l
0.67 0 l
0.66 0 l
0.67 0 l
0.67 0 l
0.66 0 l
0.67 0 l
0.66 0 l
0.67 0 l
0.67 0 l
0.66 0 l
0.67 0 l
0.67 0.01 l
0.66 0 l
0.67 0 l
0.67 0 l
394.24 43.72 lineto
0.67 0.01 l
0.67 0 l
0.66 0 l
0.67 0 l
0.66 0.01 l
0.67 0 l
0.67 0 l
0.66 0 l
0.67 0 l
0.67 0 l
0.66 0 l
0 -0.03 l
-0.66 0 l
-0.67 0 l
-0.67 0 l
-0.66 0 l
-0.67 0 l
-0.67 0 l
-0.66 0 l
-0.67 0 l
-0.66 0 l
-0.67 0 l
-0.67 0 l
-0.66 0 l
-0.67 0 l
-0.67 0 l
-0.66 0 l
-0.67 0 l
-0.67 0 l
-0.66 0 l
-0.67 0 l
-0.67 0 l
-0.66 0 l
-0.67 0 l
-0.66 0 l
-0.67 0 l
-0.67 0 l
-0.66 0 l
-0.67 0 l
-0.67 0 l
-0.66 0 l
-0.67 0 l
-0.67 0 l
-0.66 0 l
-0.67 0 l
-0.67 0 l
-0.66 0 l
-0.67 0 l
-0.66 0 l
-0.67 0 l
-0.67 0 l
-0.66 0 l
-0.67 0 l
-0.67 0 l
-0.66 0 l
-0.67 0 l
-0.67 0 l
-0.66 0 l
-0.67 0 l
-0.67 0 l
-0.66 0 l
-0.67 0 l
-0.66 0 l
-0.67 0 l
-0.67 0 l
-0.66 0 l
-0.67 0 l
-0.67 0 l
-0.66 0 l
-0.67 0 l
-0.67 0 l
-0.66 0 l
-0.67 0 l
-0.67 0 l
-0.66 0 l
-0.67 0 l
-0.66 0 l
-0.67 0 l
-0.67 0 l
-0.66 0 l
-0.67 0 l
-0.67 0 l
-0.66 0 l
-0.67 0 l
-0.67 0 l
-0.66 0 l
-0.67 0 l
-0.67 0 l
-0.66 0 l
-0.67 0 l
-0.66 0 l
-0.67 0 l
-0.67 0 l
-0.66 0 l
-0.67 0 l
-0.67 0 l
-0.66 0 l
-0.67 0 l
-0.67 0 l
342.93 43.71 lineto
-0.67 0 l
-0.67 0 l
-0.66 0 l
-0.67 0 l
-0.66 0 l
-0.67 0 l
-0.67 0 l
-0.66 0 l
-0.67 0 l
-0.67 0 l
-0.66 0 l
-0.67 0 l
-0.67 0 l
-0.66 0 l
-0.67 0 l
-0.67 0 l
-0.66 0 l
-0.67 0 l
-0.66 0 l
-0.67 0 l
-0.67 0 l
-0.66 0 l
-0.67 0 l
-0.67 0 l
-0.66 0 l
-0.67 0 l
-0.67 0 l
-0.66 0 l
-0.67 0 l
-0.67 0 l
-0.66 0 l
-0.67 0 l
-0.66 0 l
-0.67 0 l
-0.67 0 l
-0.66 0 l
-0.67 0 l
-0.67 0 l
-0.66 0 l
-0.67 0 l
-0.67 0 l
-0.66 0 l
-0.67 0 l
-0.67 0 l
-0.66 0 l
-0.67 0 l
-0.66 0 l
-0.67 0 l
-0.67 0 l
-0.66 0 l
-0.67 0 l
-0.67 0 l
-0.66 0 l
-0.67 0 l
-0.67 0 l
-0.66 0 l
-0.67 0 l
-0.67 0 l
-0.66 0 l
-0.67 0 l
-0.66 0 l
-0.67 0 l
-0.67 0 l
-0.66 0 l
-0.67 0 l
-0.67 0 l
-0.66 0 l
-0.67 0 l
-0.67 0 l
-0.66 0 l
-0.67 0 l
-0.67 0 l
-0.66 0 l
-0.67 0 l
-0.66 0 l
-0.67 0 l
-0.67 0 l
-0.66 0 l
-0.67 0 l
-0.67 0 l
-0.66 0 l
-0.67 0 l
-0.67 0 l
-0.66 0 l
-0.67 0 l
-0.67 0 l
-0.66 0 l
-0.67 0 l
-0.66 0 l
-0.67 0 l
-0.67 0 l
-0.66 0 l
-0.67 0 l
-0.67 0 l
-0.66 0 l
-0.67 0 l
-0.67 0 l
-0.66 0 l
-0.67 0 l
276.28 43.71 lineto
-0.66 0 l
-0.67 0 l
-0.66 0 l
-0.67 0 l
-0.67 0 l
-0.66 0 l
-0.67 0 l
-0.67 0 l
-0.66 0 l
-0.67 0 l
-0.67 0 l
-0.66 0 l
-0.67 0 l
-0.66 0 l
-0.67 0 l
-0.67 0 l
-0.66 0 l
-0.67 0 l
-0.67 0 l
-0.66 0 l
-0.67 0 l
-0.67 0 l
-0.66 0 l
-0.67 0 l
-0.67 0 l
-0.66 0 l
-0.67 0 l
-0.66 0 l
-0.67 0 l
-0.67 0 l
-0.66 0 l
-0.67 0 l
-0.67 0 l
-0.66 0 l
-0.67 0 l
-0.67 0 l
-0.66 0 l
-0.67 0 l
-0.67 0 l
-0.66 0 l
-0.67 0 l
-0.66 0 l
-0.67 0 l
-0.67 0 l
-0.66 0 l
-0.67 0 l
-0.67 0 l
-0.66 0 l
-0.67 0 l
-0.67 0 l
-0.66 0 l
-0.67 0 l
-0.67 0 l
-0.66 0 l
-0.67 0 l
-0.66 0 l
-0.67 0 l
-0.67 0 l
-0.66 0 l
-0.67 0 l
-0.67 0 l
-0.66 0 l
-0.67 0 l
-0.67 0 l
-0.66 0 l
-0.67 0 l
-0.67 0 l
-0.66 0 l
-0.67 0 l
-0.66 0 l
-0.67 0 l
-0.67 0 l
-0.66 0 l
-0.67 0 l
-0.67 0 l
-0.66 0 l
-0.67 0 l
-0.67 0 l
-0.66 0 l
-0.67 0 l
-0.67 0 l
-0.66 0 l
-0.67 0 l
-0.66 0 l
-0.67 0 l
-0.67 0 l
-0.66 0 l
-0.67 0 l
-0.67 0 l
-0.66 0 l
-0.67 0 l
-0.67 0 l
-0.66 0 l
-0.67 0 l
-0.67 0 l
-0.66 0 l
-0.67 0 l
-0.66 0 l
-0.67 0 l
209.64 43.71 lineto
-0.66 0 l
-0.67 0 l
-0.67 0 l
-0.66 0 l
-0.67 0 l
-0.67 0 l
-0.66 0 l
-0.67 0 l
-0.67 0 l
-0.66 0 l
-0.67 0 l
-0.66 0 l
-0.67 0 l
-0.67 0 l
-0.66 0 l
-0.67 0 l
-0.67 0 l
-0.66 0 l
-0.67 0 l
-0.67 0 l
-0.66 0 l
-0.67 0 l
-0.67 0 l
-0.66 0 l
-0.67 0 l
-0.66 0 l
-0.67 0 l
-0.67 0 l
-0.66 0 l
-0.67 0 l
-0.67 0 l
-0.66 0 l
-0.67 0 l
-0.67 0 l
-0.66 0 l
-0.67 0 l
-0.67 0 l
-0.66 0 l
-0.67 0 l
-0.66 0 l
-0.67 0 l
-0.67 0 l
-0.66 0 l
-0.67 0 l
-0.67 0 l
-0.66 0 l
-0.67 0 l
-0.67 0 l
-0.66 0 l
-0.67 0 l
-0.67 0 l
-0.66 0 l
-0.67 0 l
-0.66 0 l
-0.67 0 l
-0.67 0 l
-0.66 0 l
-0.67 0 l
-0.67 0 l
-0.66 0 l
-0.67 0 l
-0.67 0 l
-0.66 0 l
-0.67 0 l
-0.67 0 l
-0.66 0 l
-0.67 0 l
-0.66 0 l
-0.67 0 l
-0.67 0 l
-0.66 0 l
-0.67 0 l
-0.67 0 l
-0.66 0 l
-0.67 0 l
-0.67 0 l
-0.66 0 l
-0.67 0 l
-0.67 0 l
-0.66 0 l
-0.67 0 l
-0.66 0 l
-0.67 0 l
-0.67 0 l
-0.66 0 l
-0.67 0 l
-0.67 0 l
-0.66 0 l
-0.67 0 l
-0.67 0 l
-0.66 0 l
-0.67 0 l
-0.67 0 l
-0.66 0 l
-0.67 0 l
-0.66 0 l
-0.67 0 l
-0.67 0 l
-0.66 0 l
143.00 43.71 lineto
-0.67 0 l
-0.66 0 l
-0.67 0 l
-0.67 0 l
-0.66 0 l
-0.67 0 l
-0.66 0 l
-0.67 0 l
-0.67 0 l
-0.66 0 l
-0.67 0 l
-0.67 0 l
-0.66 0 l
-0.67 0 l
-0.67 0 l
-0.66 0 l
-0.67 0 l
-0.67 0 l
-0.66 0 l
-0.67 0 l
-0.66 0 l
-0.67 0 l
-0.67 0 l
-0.66 0 l
-0.67 0 l
-0.67 0 l
-0.66 0 l
-0.67 0 l
-0.67 0 l
-0.66 0 l
-0.67 0 l
-0.67 0 l
-0.66 0 l
-0.67 0 l
-0.66 0 l
-0.67 0 l
-0.67 0 l
-0.66 0 l
-0.67 0 l
-0.67 0 l
-0.66 0 l
-0.67 0 l
-0.67 0 l
-0.66 0 l
-0.67 0 l
-0.67 0 l
-0.66 0 l
-0.67 0 l
-0.66 0 l
-0.67 0 l
-0.67 0 l
-0.66 0 l
-0.67 0 l
-0.67 0 l
-0.66 0 l
-0.67 0 l
-0.67 0 l
-0.66 0 l
-0.67 0 l
-0.67 0 l
-0.66 0 l
-0.67 0 l
-0.66 0 l
-0.67 0 l
-0.67 0 l
-0.66 0 l
-0.67 0 l
-0.67 0 l
-0.66 0 l
-0.67 0 l
-0.67 0 l
-0.66 0 l
-0.67 0 l
-0.67 0 l
-0.66 0 l
-0.67 0 l
-0.66 0 l
-0.67 0 l
-0.67 0 l
-0.66 0 l
-0.67 0 l
-0.67 0 l
-0.66 0 l
-0.67 0 l
-0.67 0 l
-0.66 0 l
-0.67 0 l
-0.67 0 l
-0.66 0 l
-0.67 0 l
-0.66 0 l
-0.67 0 l
-0.67 0 l
-0.66 0 l
-0.67 0 l
-0.67 0 l
-0.66 0 l
-0.67 0 l
-0.67 0 l
currentpoint o m
76.36 43.71 lineto
-0.67 0 l
-0.67 0 l
-0.66 0 l
-0.67 0 l
-0.66 0 l
-0.67 0 l
-0.67 0 l
-0.66 0 l
-0.67 0 l
-0.67 0 l
-0.66 0 l
-0.67 0 l
-0.67 0 l
-0.66 0 l
-0.67 0 l
-0.67 0 l
-0.66 0 l
-0.67 0 l
-0.66 0 l
-0.67 0 l
-0.67 0 l
-0.66 0 l
-0.67 0 l
0 0.03 l
o
0.00 0.00 433.00 193.00 cl
0.00 0.00 433.00 193.00 cl
0.00 0.00 433.00 193.00 cl
/Font1 findfont 10 s
0.4980 0.4980 0.4980 srgb
36.92 40.12 (0.0) 1 0 t
36.92 78.32 (0.1) 1 0 t
36.92 116.53 (0.2) 1 0 t
36.92 154.74 (0.3) 1 0 t
0.00 0.00 433.00 193.00 cl
0.00 0.00 433.00 193.00 cl
0.4980 0.4980 0.4980 srgb
1.06 setlinewidth
[] 0 setdash
0 setlinecap
1 setlinejoin
10.00 setmiterlimit
np
39.75 43.71 m
4.25 0 l
o
np
39.75 81.91 m
4.25 0 l
o
np
39.75 120.12 m
4.25 0 l
o
np
39.75 158.33 m
4.25 0 l
o
0.00 0.00 433.00 193.00 cl
0.00 0.00 433.00 193.00 cl
0.00 0.00 433.00 193.00 cl
0.00 0.00 433.00 193.00 cl
0.00 0.00 433.00 193.00 cl
0.00 0.00 433.00 193.00 cl
0.4980 0.4980 0.4980 srgb
1.06 setlinewidth
[] 0 setdash
0 setlinecap
1 setlinejoin
10.00 setmiterlimit
np
57.56 33.03 m
0 4.25 l
o
np
146.54 33.03 m
0 4.25 l
o
np
235.53 33.03 m
0 4.25 l
o
np
324.51 33.03 m
0 4.25 l
o
np
413.50 33.03 m
0 4.25 l
o
0.00 0.00 433.00 193.00 cl
0.00 0.00 433.00 193.00 cl
/Font1 findfont 10 s
0.4980 0.4980 0.4980 srgb
57.56 23.02 (-20) .5 0 t
146.54 23.02 (-10) .5 0 t
235.53 23.02 (0) .5 0 t
324.51 23.02 (10) .5 0 t
413.50 23.02 (20) .5 0 t
0.00 0.00 433.00 193.00 cl
0.00 0.00 433.00 193.00 cl
0.00 0.00 433.00 193.00 cl
0.00 0.00 433.00 193.00 cl
0.00 0.00 433.00 193.00 cl
0.00 0.00 433.00 193.00 cl
0.00 0.00 433.00 193.00 cl
0.00 0.00 433.00 193.00 cl
0.00 0.00 433.00 193.00 cl
0.00 0.00 433.00 193.00 cl
0.00 0.00 433.00 193.00 cl
ep
%%Trailer
%%Pages: 1
%%EOF
