%!PS-Adobe-3.0 EPSF-3.0
%%DocumentNeededResources: font Helvetica
%%+ font Helvetica-Bold
%%+ font Helvetica-Oblique
%%+ font Helvetica-BoldOblique
%%+ font Symbol
%%Title: R Graphics Output
%%Creator: R Software
%%Pages: (atend)
%%BoundingBox: 0 0 433 193
%%EndComments
%%BeginProlog
/bp  { gs sRGB gs } def
% begin .ps.prolog
/gs  { gsave } bind def
/gr  { grestore } bind def
/ep  { showpage gr gr } bind def
/m   { moveto } bind def
/l  { rlineto } bind def
/np  { newpath } bind def
/cp  { closepath } bind def
/f   { fill } bind def
/o   { stroke } bind def
/c   { newpath 0 360 arc } bind def
/r   { 4 2 roll moveto 1 copy 3 -1 roll exch 0 exch rlineto 0 rlineto -1 mul 0 exch rlineto closepath } bind def
/p1  { stroke } bind def
/p2  { gsave bg fill grestore newpath } bind def
/p3  { gsave bg fill grestore stroke } bind def
/p6  { gsave bg eofill grestore newpath } bind def
/p7  { gsave bg eofill grestore stroke } bind def
/t   { 5 -2 roll moveto gsave rotate
       1 index stringwidth pop
       mul neg 0 rmoveto show grestore } bind def
/ta  { 4 -2 roll moveto gsave rotate show } bind def
/tb  { 2 -1 roll 0 rmoveto show } bind def
/cl  { grestore gsave newpath 3 index 3 index moveto 1 index
       4 -1 roll lineto  exch 1 index lineto lineto
       closepath clip newpath } bind def
/rgb { setrgbcolor } bind def
/s   { scalefont setfont } bind def
% end   .ps.prolog
/sRGB { [ /CIEBasedABC
          << /DecodeLMN
               [ { dup 0.03928 le
                        {12.92321 div}
                        {0.055 add 1.055 div 2.4 exp }
                     ifelse
                 } bind dup dup
               ]
             /MatrixLMN [0.412457 0.212673 0.019334
                         0.357576 0.715152 0.119192
                         0.180437 0.072175 0.950301]
             /WhitePoint [0.9505 1.0 1.0890]
           >>
         ] setcolorspace } bind def
/srgb { setcolor } bind def
%%IncludeResource: font Helvetica
/Helvetica findfont
dup length dict begin
  {1 index /FID ne {def} {pop pop} ifelse} forall
  /Encoding ISOLatin1Encoding def
  currentdict
  end
/Font1 exch definefont pop
%%IncludeResource: font Helvetica-Bold
/Helvetica-Bold findfont
dup length dict begin
  {1 index /FID ne {def} {pop pop} ifelse} forall
  /Encoding ISOLatin1Encoding def
  currentdict
  end
/Font2 exch definefont pop
%%IncludeResource: font Helvetica-Oblique
/Helvetica-Oblique findfont
dup length dict begin
  {1 index /FID ne {def} {pop pop} ifelse} forall
  /Encoding ISOLatin1Encoding def
  currentdict
  end
/Font3 exch definefont pop
%%IncludeResource: font Helvetica-BoldOblique
/Helvetica-BoldOblique findfont
dup length dict begin
  {1 index /FID ne {def} {pop pop} ifelse} forall
  /Encoding ISOLatin1Encoding def
  currentdict
  end
/Font4 exch definefont pop
%%IncludeResource: font Symbol
/Symbol findfont
dup length dict begin
  {1 index /FID ne {def} {pop pop} ifelse} forall
  currentdict
  end
/Font5 exch definefont pop
%%EndProlog
%%Page: 1 1
bp
0.00 0.00 433.00 193.00 cl
0.00 0.00 433.00 193.00 cl
0.00 0.00 433.00 193.00 cl
/bg { 1 1 1 srgb } def
1 1 1 srgb
1.06 setlinewidth
[] 0 setdash
1 setlinecap
1 setlinejoin
10.00 setmiterlimit
0.00 0.00 433.00 193.00 r p3
0.00 0.00 433.00 193.00 cl
0.00 0.00 433.00 193.00 cl
0.00 0.00 433.00 193.00 cl
44.00 37.28 418.60 178.60 cl
/bg { 0.8980 0.8980 0.8980 srgb } def
44.00 37.28 374.60 141.32 r p2
0.9490 0.9490 0.9490 srgb
0.53 setlinewidth
[] 0 setdash
0 setlinecap
1 setlinejoin
10.00 setmiterlimit
np
44.00 60.66 m
374.60 0 l
o
np
44.00 94.56 m
374.60 0 l
o
np
44.00 128.47 m
374.60 0 l
o
np
44.00 162.37 m
374.60 0 l
o
np
103.19 37.28 m
0 141.32 l
o
np
194.63 37.28 m
0 141.32 l
o
np
286.08 37.28 m
0 141.32 l
o
np
377.52 37.28 m
0 141.32 l
o
1 1 1 srgb
1.06 setlinewidth
[] 0 setdash
np
44.00 43.71 m
374.60 0 l
o
np
44.00 77.61 m
374.60 0 l
o
np
44.00 111.51 m
374.60 0 l
o
np
44.00 145.42 m
374.60 0 l
o
np
57.46 37.28 m
0 141.32 l
o
np
148.91 37.28 m
0 141.32 l
o
np
240.35 37.28 m
0 141.32 l
o
np
331.80 37.28 m
0 141.32 l
o
0 0 0 srgb
1 setlinecap
np
61.03 43.88 m
0.67 -0.06 l
0.66 -0.08 l
0.67 -0.03 l
0.67 0 l
0.66 0 l
0.67 0 l
0.66 0 l
0.67 0 l
0.67 0 l
0.66 0 l
0.67 0 l
0.67 0 l
0.66 0 l
0.67 0 l
0.67 0 l
0.66 0 l
0.67 0 l
0.67 0 l
0.66 0 l
0.67 0 l
0.66 0 l
0.67 0 l
0.67 0 l
0.66 0 l
0.67 0 l
0.67 0 l
0.66 0 l
0.67 0 l
0.67 0 l
0.66 0 l
0.67 0 l
0.67 0 l
0.66 0 l
0.67 0 l
0.66 0 l
0.67 0 l
0.67 0 l
0.66 0 l
0.67 0 l
0.67 0 l
0.66 0 l
0.67 0 l
0.67 0 l
0.66 0 l
0.67 0 l
0.67 0 l
0.66 0 l
0.67 0 l
0.66 0 l
0.67 0 l
0.67 0 l
0.66 0 l
0.67 0 l
0.67 0 l
0.66 0 l
0.67 0 l
0.67 0 l
0.66 0 l
0.67 0 l
0.67 0 l
0.66 0 l
0.67 0 l
0.66 0 l
0.67 0 l
0.67 0 l
0.66 0 l
0.67 0 l
0.67 0 l
0.66 0 l
0.67 0 l
0.67 0 l
0.66 0 l
0.67 0 l
0.67 0 l
0.66 0 l
0.67 0 l
0.66 0 l
0.67 0 l
0.67 0 l
0.66 0 l
0.67 0 l
0.67 0 l
0.66 0 l
0.67 0 l
0.67 0 l
0.66 0 l
0.67 0 l
0.67 0 l
0.66 0 l
0.67 0 l
0.66 0 l
0.67 0 l
0.67 0 l
0.66 0 l
0.67 0 l
0.67 0.02 l
0.66 0.03 l
0.67 0.02 l
0.67 0.01 l
127.67 43.78 lineto
0.67 -0.01 l
0.67 -0.01 l
0.66 -0.02 l
0.67 0.01 l
0.66 0.03 l
0.67 0.02 l
0.67 -0.01 l
0.66 -0.01 l
0.67 0.01 l
0.67 -0.01 l
0.66 -0.02 l
0.67 -0.02 l
0.67 0.04 l
0.66 0.12 l
0.67 0.12 l
0.67 -0.03 l
0.66 -0.05 l
0.67 0.07 l
0.66 0.18 l
0.67 0.07 l
0.67 -0.11 l
0.66 -0.09 l
0.67 0.10 l
0.67 0.22 l
0.66 0.14 l
0.67 0.02 l
0.67 0.16 l
0.66 0.53 l
0.67 0.63 l
0.66 0.53 l
0.67 0.75 l
0.67 1.38 l
0.66 1.83 l
0.67 1.52 l
0.67 0.41 l
0.66 -0.63 l
0.67 -0.98 l
0.67 -0.69 l
0.66 -0.60 l
0.67 -0.94 l
0.67 -1.11 l
0.66 -0.92 l
0.67 -0.57 l
0.66 -0.35 l
0.67 -0.25 l
0.67 -0.10 l
0.66 -0.04 l
0.67 -0.14 l
0.67 -0.22 l
0.66 -0.15 l
0.67 -0.04 l
0.67 -0.03 l
0.66 -0.11 l
0.67 -0.07 l
0.67 0.02 l
0.66 0.01 l
0.67 0.01 l
0.66 0.01 l
0.67 -0.04 l
0.67 -0.13 l
0.66 -0.16 l
0.67 -0.08 l
0.67 -0.01 l
0.66 0.01 l
0.67 0.06 l
0.67 0.12 l
0.66 0.07 l
0.67 -0.03 l
0.67 -0.06 l
0.66 -0.04 l
0.67 -0.04 l
0.66 -0.07 l
0.67 0 l
0.67 0.04 l
0.66 -0.01 l
0.67 -0.06 l
0.67 0.02 l
0.66 0.04 l
0.67 0.02 l
0.67 -0.03 l
0.66 -0.06 l
0.67 -0.05 l
0.67 -0.01 l
0.66 -0.01 l
0.67 0 l
0.66 -0.01 l
0.67 -0.06 l
0.67 0 l
0.66 0.10 l
0.67 0.14 l
0.67 0.08 l
0.66 -0.05 l
0.67 -0.17 l
0.67 -0.05 l
0.66 0.12 l
0.67 0.13 l
0.67 0.07 l
0.66 0 l
0.67 -0.05 l
194.31 44.04 lineto
0.67 -0.13 l
0.67 -0.08 l
0.66 0 l
0.67 0.04 l
0.67 0.07 l
0.66 0.05 l
0.67 0.05 l
0.67 0.01 l
0.66 -0.05 l
0.67 -0.05 l
0.67 0.03 l
0.66 0.10 l
0.67 0.12 l
0.66 0 l
0.67 -0.09 l
0.67 -0.03 l
0.66 0.01 l
0.67 0.05 l
0.67 0.11 l
0.66 0.07 l
0.67 -0.07 l
0.67 -0.12 l
0.66 0 l
0.67 0.11 l
0.67 0.09 l
0.66 0.07 l
0.67 0.13 l
0.66 0.12 l
0.67 0.02 l
0.67 -0.09 l
0.66 -0.14 l
0.67 -0.13 l
0.67 -0.01 l
0.66 0.12 l
0.67 0.18 l
0.67 0.22 l
0.66 0.25 l
0.67 0.27 l
0.67 0.10 l
0.66 -0.22 l
0.67 -0.14 l
0.66 0.21 l
0.67 0.11 l
0.67 -0.20 l
0.66 -0.13 l
0.67 0.17 l
0.67 0.27 l
0.66 0.26 l
0.67 0.36 l
0.67 0.68 l
0.66 0.75 l
0.67 0.31 l
0.67 0.01 l
0.66 -0.03 l
0.67 -0.18 l
0.66 -0.15 l
0.67 0.13 l
0.67 0.11 l
0.66 0.20 l
0.67 0.61 l
0.67 0.82 l
0.66 0.50 l
0.67 -0.33 l
0.67 -0.45 l
0.66 0.15 l
0.67 0.56 l
0.67 2.18 l
0.66 12.93 l
0.67 42.53 l
0.66 57.22 l
0.67 7.50 l
0.67 -50.38 l
0.66 -47.93 l
0.67 -18.91 l
0.67 -3.73 l
0.66 -0.70 l
0.67 -0.51 l
0.67 -0.47 l
0.66 -0.49 l
0.67 -0.69 l
0.67 -0.76 l
0.66 -0.41 l
0.67 -0.16 l
0.66 -0.23 l
0.67 -0.20 l
0.67 0.10 l
0.66 0.26 l
0.67 -0.02 l
0.67 -0.31 l
0.66 -0.37 l
0.67 -0.45 l
0.67 -0.50 l
0.66 -0.26 l
0.67 0.10 l
0.67 0.17 l
0.66 0 l
0.67 -0.18 l
0.66 -0.26 l
0.67 -0.21 l
260.96 44.55 lineto
0.66 -0.04 l
0.67 -0.02 l
0.67 -0.13 l
0.66 -0.17 l
0.67 -0.08 l
0.67 0 l
0.66 0.03 l
0.67 0.06 l
0.67 0.03 l
0.66 -0.04 l
0.67 -0.07 l
0.66 0.01 l
0.67 0.06 l
0.67 0.04 l
0.66 0.03 l
0.67 0.01 l
0.67 -0.02 l
0.66 -0.08 l
0.67 -0.11 l
0.67 -0.08 l
0.66 -0.02 l
0.67 0.06 l
0.66 0.02 l
0.67 -0.11 l
0.67 -0.08 l
0.66 0.01 l
0.67 0 l
0.67 -0.03 l
0.66 0.03 l
0.67 0.04 l
0.67 0.09 l
0.66 0.12 l
0.67 0.02 l
0.67 -0.07 l
0.66 -0.04 l
0.67 0.01 l
0.66 0.02 l
0.67 0.02 l
0.67 0.01 l
0.66 0 l
0.67 -0.06 l
0.67 -0.06 l
0.66 0 l
0.67 0.02 l
0.67 0.02 l
0.66 0.02 l
0.67 0 l
0.67 -0.03 l
0.66 0 l
0.67 0.02 l
0.66 0.04 l
0.67 0.05 l
0.67 0.02 l
0.66 -0.01 l
0.67 -0.07 l
0.67 -0.12 l
0.66 -0.05 l
0.67 0.05 l
0.67 0.03 l
0.66 -0.02 l
0.67 0.04 l
0.67 0.06 l
0.66 0.02 l
0.67 0.01 l
0.66 0.04 l
0.67 0.02 l
0.67 -0.02 l
0.66 -0.04 l
0.67 -0.02 l
0.67 0.03 l
0.66 0.10 l
0.67 0.09 l
0.67 -0.05 l
0.66 -0.06 l
0.67 -0.03 l
0.67 -0.07 l
0.66 -0.07 l
0.67 0.05 l
0.66 0.15 l
0.67 0.14 l
0.67 0 l
0.66 -0.12 l
0.67 -0.04 l
0.67 0.17 l
0.66 0.30 l
0.67 0.14 l
0.67 -0.10 l
0.66 -0.09 l
0.67 0.12 l
0.67 0.27 l
0.66 0.14 l
0.67 0.12 l
0.66 0.19 l
0.67 0.20 l
0.67 0.18 l
0.66 0.04 l
0.67 -0.18 l
0.67 -0.03 l
0.66 0.31 l
327.60 46.47 lineto
0.67 0.63 l
0.66 0.67 l
0.67 0.86 l
0.67 1.24 l
0.66 1.66 l
0.67 1.54 l
0.66 0.84 l
0.67 -0.03 l
0.67 -1.14 l
0.66 -1.93 l
0.67 -1.96 l
0.67 -1.57 l
0.66 -1.12 l
0.67 -0.64 l
0.67 -0.38 l
0.66 -0.30 l
0.67 -0.25 l
0.67 -0.20 l
0.66 -0.15 l
0.67 -0.09 l
0.66 -0.02 l
0.67 -0.04 l
0.67 -0.07 l
0.66 -0.02 l
0.67 -0.02 l
0.67 -0.05 l
0.66 0.01 l
0.67 0.05 l
0.67 -0.05 l
0.66 -0.11 l
0.67 -0.02 l
0.67 0.06 l
0.66 0.04 l
0.67 -0.05 l
0.66 -0.05 l
0.67 -0.01 l
0.67 -0.03 l
0.66 -0.04 l
0.67 -0.02 l
0.67 0 l
0.66 0 l
0.67 0 l
0.67 0.02 l
0.66 0.03 l
0.67 0.03 l
0.67 0 l
0.66 -0.04 l
0.67 -0.04 l
0.66 0 l
0.67 0 l
0.67 0 l
0.66 0.03 l
0.67 0.03 l
0.67 -0.02 l
0.66 0 l
0.67 0.01 l
0.67 -0.01 l
0.66 -0.03 l
0.67 -0.01 l
0.67 0.01 l
0.66 0.02 l
0.67 0.02 l
0.66 -0.02 l
0.67 -0.02 l
0.67 -0.01 l
0.66 0 l
0.67 0 l
0.67 0 l
0.66 0 l
0.67 0 l
0.67 0 l
0.66 0 l
0.67 0 l
0.67 0.01 l
0.66 0.02 l
0.67 0.02 l
0.66 -0.01 l
0.67 -0.03 l
0.67 -0.01 l
0.66 0 l
0.67 0 l
0.67 0 l
0.66 0 l
0.67 0 l
0.67 0 l
0.66 0 l
0.67 0 l
0.67 0 l
0.66 0 l
0.67 0 l
0.66 0 l
0.67 0 l
0.67 0 l
0.66 0 l
0.67 0 l
0.67 0 l
0.66 0 l
0.67 0 l
0.67 0 l
394.24 43.71 lineto
0.67 0 l
0.67 0 l
0.66 0 l
0.67 0 l
0.66 0 l
0.67 0 l
0.67 0 l
0.66 0 l
0.67 0.01 l
0.67 0.02 l
0.66 0.02 l
0 -0.05 l
-0.66 0 l
-0.67 0 l
-0.67 0 l
-0.66 0 l
-0.67 0 l
-0.67 0 l
-0.66 0 l
-0.67 0 l
-0.66 0 l
-0.67 0 l
-0.67 0 l
-0.66 0 l
-0.67 0 l
-0.67 0 l
-0.66 0 l
-0.67 0 l
-0.67 0 l
-0.66 0 l
-0.67 0 l
-0.67 0 l
-0.66 0 l
-0.67 0 l
-0.66 0 l
-0.67 0 l
-0.67 0 l
-0.66 0 l
-0.67 0 l
-0.67 0 l
-0.66 0 l
-0.67 0 l
-0.67 0 l
-0.66 0 l
-0.67 0 l
-0.67 0 l
-0.66 0 l
-0.67 0 l
-0.66 0 l
-0.67 0 l
-0.67 0 l
-0.66 0 l
-0.67 0 l
-0.67 0 l
-0.66 0 l
-0.67 0 l
-0.67 0 l
-0.66 0 l
-0.67 0 l
-0.67 0 l
-0.66 0 l
-0.67 0 l
-0.66 0 l
-0.67 0 l
-0.67 0 l
-0.66 0 l
-0.67 0 l
-0.67 0 l
-0.66 0 l
-0.67 0 l
-0.67 0 l
-0.66 0 l
-0.67 0 l
-0.67 0 l
-0.66 0 l
-0.67 0 l
-0.66 0 l
-0.67 0 l
-0.67 0 l
-0.66 0 l
-0.67 0 l
-0.67 0 l
-0.66 0 l
-0.67 0 l
-0.67 0 l
-0.66 0 l
-0.67 0 l
-0.67 0 l
-0.66 0 l
-0.67 0 l
-0.66 0 l
-0.67 0 l
-0.67 0 l
-0.66 0 l
-0.67 0 l
-0.67 0 l
-0.66 0 l
-0.67 0 l
-0.67 0 l
342.93 43.71 lineto
-0.67 0 l
-0.67 0 l
-0.66 0 l
-0.67 0 l
-0.66 0 l
-0.67 0 l
-0.67 0 l
-0.66 0 l
-0.67 0 l
-0.67 0 l
-0.66 0 l
-0.67 0 l
-0.67 0 l
-0.66 0 l
-0.67 0 l
-0.67 0 l
-0.66 0 l
-0.67 0 l
-0.66 0 l
-0.67 0 l
-0.67 0 l
-0.66 0 l
-0.67 0 l
-0.67 0 l
-0.66 0 l
-0.67 0 l
-0.67 0 l
-0.66 0 l
-0.67 0 l
-0.67 0 l
-0.66 0 l
-0.67 0 l
-0.66 0 l
-0.67 0 l
-0.67 0 l
-0.66 0 l
-0.67 0 l
-0.67 0 l
-0.66 0 l
-0.67 0 l
-0.67 0 l
-0.66 0 l
-0.67 0 l
-0.67 0 l
-0.66 0 l
-0.67 0 l
-0.66 0 l
-0.67 0 l
-0.67 0 l
-0.66 0 l
-0.67 0 l
-0.67 0 l
-0.66 0 l
-0.67 0 l
-0.67 0 l
-0.66 0 l
-0.67 0 l
-0.67 0 l
-0.66 0 l
-0.67 0 l
-0.66 0 l
-0.67 0 l
-0.67 0 l
-0.66 0 l
-0.67 0 l
-0.67 0 l
-0.66 0 l
-0.67 0 l
-0.67 0 l
-0.66 0 l
-0.67 0 l
-0.67 0 l
-0.66 0 l
-0.67 0 l
-0.66 0 l
-0.67 0 l
-0.67 0 l
-0.66 0 l
-0.67 0 l
-0.67 0 l
-0.66 0 l
-0.67 0 l
-0.67 0 l
-0.66 0 l
-0.67 0 l
-0.67 0 l
-0.66 0 l
-0.67 0 l
-0.66 0 l
-0.67 0 l
-0.67 0 l
-0.66 0 l
-0.67 0 l
-0.67 0 l
-0.66 0 l
-0.67 0 l
-0.67 0 l
-0.66 0 l
-0.67 0 l
276.28 43.71 lineto
-0.66 0 l
-0.67 0 l
-0.66 0 l
-0.67 0 l
-0.67 0 l
-0.66 0 l
-0.67 0 l
-0.67 0 l
-0.66 0 l
-0.67 0 l
-0.67 0 l
-0.66 0 l
-0.67 0 l
-0.66 0 l
-0.67 0 l
-0.67 0 l
-0.66 0 l
-0.67 0 l
-0.67 0 l
-0.66 0 l
-0.67 0 l
-0.67 0 l
-0.66 0 l
-0.67 0 l
-0.67 0 l
-0.66 0 l
-0.67 0 l
-0.66 0 l
-0.67 0 l
-0.67 0 l
-0.66 0 l
-0.67 0 l
-0.67 0 l
-0.66 0 l
-0.67 0 l
-0.67 0 l
-0.66 0 l
-0.67 0 l
-0.67 0 l
-0.66 0 l
-0.67 0 l
-0.66 0 l
-0.67 0 l
-0.67 0 l
-0.66 0 l
-0.67 0 l
-0.67 0 l
-0.66 0 l
-0.67 0 l
-0.67 0 l
-0.66 0 l
-0.67 0 l
-0.67 0 l
-0.66 0 l
-0.67 0 l
-0.66 0 l
-0.67 0 l
-0.67 0 l
-0.66 0 l
-0.67 0 l
-0.67 0 l
-0.66 0 l
-0.67 0 l
-0.67 0 l
-0.66 0 l
-0.67 0 l
-0.67 0 l
-0.66 0 l
-0.67 0 l
-0.66 0 l
-0.67 0 l
-0.67 0 l
-0.66 0 l
-0.67 0 l
-0.67 0 l
-0.66 0 l
-0.67 0 l
-0.67 0 l
-0.66 0 l
-0.67 0 l
-0.67 0 l
-0.66 0 l
-0.67 0 l
-0.66 0 l
-0.67 0 l
-0.67 0 l
-0.66 0 l
-0.67 0 l
-0.67 0 l
-0.66 0 l
-0.67 0 l
-0.67 0 l
-0.66 0 l
-0.67 0 l
-0.67 0 l
-0.66 0 l
-0.67 0 l
-0.66 0 l
-0.67 0 l
209.64 43.71 lineto
-0.66 0 l
-0.67 0 l
-0.67 0 l
-0.66 0 l
-0.67 0 l
-0.67 0 l
-0.66 0 l
-0.67 0 l
-0.67 0 l
-0.66 0 l
-0.67 0 l
-0.66 0 l
-0.67 0 l
-0.67 0 l
-0.66 0 l
-0.67 0 l
-0.67 0 l
-0.66 0 l
-0.67 0 l
-0.67 0 l
-0.66 0 l
-0.67 0 l
-0.67 0 l
-0.66 0 l
-0.67 0 l
-0.66 0 l
-0.67 0 l
-0.67 0 l
-0.66 0 l
-0.67 0 l
-0.67 0 l
-0.66 0 l
-0.67 0 l
-0.67 0 l
-0.66 0 l
-0.67 0 l
-0.67 0 l
-0.66 0 l
-0.67 0 l
-0.66 0 l
-0.67 0 l
-0.67 0 l
-0.66 0 l
-0.67 0 l
-0.67 0 l
-0.66 0 l
-0.67 0 l
-0.67 0 l
-0.66 0 l
-0.67 0 l
-0.67 0 l
-0.66 0 l
-0.67 0 l
-0.66 0 l
-0.67 0 l
-0.67 0 l
-0.66 0 l
-0.67 0 l
-0.67 0 l
-0.66 0 l
-0.67 0 l
-0.67 0 l
-0.66 0 l
-0.67 0 l
-0.67 0 l
-0.66 0 l
-0.67 0 l
-0.66 0 l
-0.67 0 l
-0.67 0 l
-0.66 0 l
-0.67 0 l
-0.67 0 l
-0.66 0 l
-0.67 0 l
-0.67 0 l
-0.66 0 l
-0.67 0 l
-0.67 0 l
-0.66 0 l
-0.67 0 l
-0.66 0 l
-0.67 0 l
-0.67 0 l
-0.66 0 l
-0.67 0 l
-0.67 0 l
-0.66 0 l
-0.67 0 l
-0.67 0 l
-0.66 0 l
-0.67 0 l
-0.67 0 l
-0.66 0 l
-0.67 0 l
-0.66 0 l
-0.67 0 l
-0.67 0 l
-0.66 0 l
143.00 43.71 lineto
-0.67 0 l
-0.66 0 l
-0.67 0 l
-0.67 0 l
-0.66 0 l
-0.67 0 l
-0.66 0 l
-0.67 0 l
-0.67 0 l
-0.66 0 l
-0.67 0 l
-0.67 0 l
-0.66 0 l
-0.67 0 l
-0.67 0 l
-0.66 0 l
-0.67 0 l
-0.67 0 l
-0.66 0 l
-0.67 0 l
-0.66 0 l
-0.67 0 l
-0.67 0 l
-0.66 0 l
-0.67 0 l
-0.67 0 l
-0.66 0 l
-0.67 0 l
-0.67 0 l
-0.66 0 l
-0.67 0 l
-0.67 0 l
-0.66 0 l
-0.67 0 l
-0.66 0 l
-0.67 0 l
-0.67 0 l
-0.66 0 l
-0.67 0 l
-0.67 0 l
-0.66 0 l
-0.67 0 l
-0.67 0 l
-0.66 0 l
-0.67 0 l
-0.67 0 l
-0.66 0 l
-0.67 0 l
-0.66 0 l
-0.67 0 l
-0.67 0 l
-0.66 0 l
-0.67 0 l
-0.67 0 l
-0.66 0 l
-0.67 0 l
-0.67 0 l
-0.66 0 l
-0.67 0 l
-0.67 0 l
-0.66 0 l
-0.67 0 l
-0.66 0 l
-0.67 0 l
-0.67 0 l
-0.66 0 l
-0.67 0 l
-0.67 0 l
-0.66 0 l
-0.67 0 l
-0.67 0 l
-0.66 0 l
-0.67 0 l
-0.67 0 l
-0.66 0 l
-0.67 0 l
-0.66 0 l
-0.67 0 l
-0.67 0 l
-0.66 0 l
-0.67 0 l
-0.67 0 l
-0.66 0 l
-0.67 0 l
-0.67 0 l
-0.66 0 l
-0.67 0 l
-0.67 0 l
-0.66 0 l
-0.67 0 l
-0.66 0 l
-0.67 0 l
-0.67 0 l
-0.66 0 l
-0.67 0 l
-0.67 0 l
-0.66 0 l
-0.67 0 l
-0.67 0 l
currentpoint o m
76.36 43.71 lineto
-0.67 0 l
-0.67 0 l
-0.66 0 l
-0.67 0 l
-0.66 0 l
-0.67 0 l
-0.67 0 l
-0.66 0 l
-0.67 0 l
-0.67 0 l
-0.66 0 l
-0.67 0 l
-0.67 0 l
-0.66 0 l
-0.67 0 l
-0.67 0 l
-0.66 0 l
-0.67 0 l
-0.66 0 l
-0.67 0 l
-0.67 0 l
-0.66 0 l
-0.67 0 l
0 0.17 l
o
0.00 0.00 433.00 193.00 cl
0.00 0.00 433.00 193.00 cl
0.00 0.00 433.00 193.00 cl
/Font1 findfont 10 s
0.4980 0.4980 0.4980 srgb
36.92 40.12 (0.0) 1 0 t
36.92 74.02 (0.5) 1 0 t
36.92 107.92 (1.0) 1 0 t
36.92 141.83 (1.5) 1 0 t
0.00 0.00 433.00 193.00 cl
0.00 0.00 433.00 193.00 cl
0.4980 0.4980 0.4980 srgb
1.06 setlinewidth
[] 0 setdash
0 setlinecap
1 setlinejoin
10.00 setmiterlimit
np
39.75 43.71 m
4.25 0 l
o
np
39.75 77.61 m
4.25 0 l
o
np
39.75 111.51 m
4.25 0 l
o
np
39.75 145.42 m
4.25 0 l
o
0.00 0.00 433.00 193.00 cl
0.00 0.00 433.00 193.00 cl
0.00 0.00 433.00 193.00 cl
0.00 0.00 433.00 193.00 cl
0.00 0.00 433.00 193.00 cl
0.00 0.00 433.00 193.00 cl
0.4980 0.4980 0.4980 srgb
1.06 setlinewidth
[] 0 setdash
0 setlinecap
1 setlinejoin
10.00 setmiterlimit
np
57.46 33.03 m
0 4.25 l
o
np
148.91 33.03 m
0 4.25 l
o
np
240.35 33.03 m
0 4.25 l
o
np
331.80 33.03 m
0 4.25 l
o
0.00 0.00 433.00 193.00 cl
0.00 0.00 433.00 193.00 cl
/Font1 findfont 10 s
0.4980 0.4980 0.4980 srgb
57.46 23.02 (-20) .5 0 t
148.91 23.02 (-10) .5 0 t
240.35 23.02 (0) .5 0 t
331.80 23.02 (10) .5 0 t
0.00 0.00 433.00 193.00 cl
0.00 0.00 433.00 193.00 cl
0.00 0.00 433.00 193.00 cl
0.00 0.00 433.00 193.00 cl
0.00 0.00 433.00 193.00 cl
0.00 0.00 433.00 193.00 cl
0.00 0.00 433.00 193.00 cl
0.00 0.00 433.00 193.00 cl
0.00 0.00 433.00 193.00 cl
0.00 0.00 433.00 193.00 cl
0.00 0.00 433.00 193.00 cl
ep
%%Trailer
%%Pages: 1
%%EOF
