%!PS-Adobe-3.0 EPSF-3.0
%%DocumentNeededResources: font Helvetica
%%+ font Helvetica-Bold
%%+ font Helvetica-Oblique
%%+ font Helvetica-BoldOblique
%%+ font Symbol
%%Title: R Graphics Output
%%Creator: R Software
%%Pages: (atend)
%%BoundingBox: 0 0 433 193
%%EndComments
%%BeginProlog
/bp  { gs sRGB gs } def
% begin .ps.prolog
/gs  { gsave } bind def
/gr  { grestore } bind def
/ep  { showpage gr gr } bind def
/m   { moveto } bind def
/l  { rlineto } bind def
/np  { newpath } bind def
/cp  { closepath } bind def
/f   { fill } bind def
/o   { stroke } bind def
/c   { newpath 0 360 arc } bind def
/r   { 4 2 roll moveto 1 copy 3 -1 roll exch 0 exch rlineto 0 rlineto -1 mul 0 exch rlineto closepath } bind def
/p1  { stroke } bind def
/p2  { gsave bg fill grestore newpath } bind def
/p3  { gsave bg fill grestore stroke } bind def
/p6  { gsave bg eofill grestore newpath } bind def
/p7  { gsave bg eofill grestore stroke } bind def
/t   { 5 -2 roll moveto gsave rotate
       1 index stringwidth pop
       mul neg 0 rmoveto show grestore } bind def
/ta  { 4 -2 roll moveto gsave rotate show } bind def
/tb  { 2 -1 roll 0 rmoveto show } bind def
/cl  { grestore gsave newpath 3 index 3 index moveto 1 index
       4 -1 roll lineto  exch 1 index lineto lineto
       closepath clip newpath } bind def
/rgb { setrgbcolor } bind def
/s   { scalefont setfont } bind def
% end   .ps.prolog
/sRGB { [ /CIEBasedABC
          << /DecodeLMN
               [ { dup 0.03928 le
                        {12.92321 div}
                        {0.055 add 1.055 div 2.4 exp }
                     ifelse
                 } bind dup dup
               ]
             /MatrixLMN [0.412457 0.212673 0.019334
                         0.357576 0.715152 0.119192
                         0.180437 0.072175 0.950301]
             /WhitePoint [0.9505 1.0 1.0890]
           >>
         ] setcolorspace } bind def
/srgb { setcolor } bind def
%%IncludeResource: font Helvetica
/Helvetica findfont
dup length dict begin
  {1 index /FID ne {def} {pop pop} ifelse} forall
  /Encoding ISOLatin1Encoding def
  currentdict
  end
/Font1 exch definefont pop
%%IncludeResource: font Helvetica-Bold
/Helvetica-Bold findfont
dup length dict begin
  {1 index /FID ne {def} {pop pop} ifelse} forall
  /Encoding ISOLatin1Encoding def
  currentdict
  end
/Font2 exch definefont pop
%%IncludeResource: font Helvetica-Oblique
/Helvetica-Oblique findfont
dup length dict begin
  {1 index /FID ne {def} {pop pop} ifelse} forall
  /Encoding ISOLatin1Encoding def
  currentdict
  end
/Font3 exch definefont pop
%%IncludeResource: font Helvetica-BoldOblique
/Helvetica-BoldOblique findfont
dup length dict begin
  {1 index /FID ne {def} {pop pop} ifelse} forall
  /Encoding ISOLatin1Encoding def
  currentdict
  end
/Font4 exch definefont pop
%%IncludeResource: font Symbol
/Symbol findfont
dup length dict begin
  {1 index /FID ne {def} {pop pop} ifelse} forall
  currentdict
  end
/Font5 exch definefont pop
%%EndProlog
%%Page: 1 1
bp
0.00 0.00 433.00 193.00 cl
0.00 0.00 433.00 193.00 cl
0.00 0.00 433.00 193.00 cl
/bg { 1 1 1 srgb } def
1 1 1 srgb
1.06 setlinewidth
[] 0 setdash
1 setlinecap
1 setlinejoin
10.00 setmiterlimit
0.00 0.00 433.00 193.00 r p3
0.00 0.00 433.00 193.00 cl
0.00 0.00 433.00 193.00 cl
0.00 0.00 433.00 193.00 cl
35.66 37.28 418.60 178.60 cl
/bg { 0.8980 0.8980 0.8980 srgb } def
35.66 37.28 382.94 141.32 r p2
0.9490 0.9490 0.9490 srgb
0.53 setlinewidth
[] 0 setdash
0 setlinecap
1 setlinejoin
10.00 setmiterlimit
np
35.66 59.61 m
382.94 0 l
o
np
35.66 91.40 m
382.94 0 l
o
np
35.66 123.20 m
382.94 0 l
o
np
35.66 155.00 m
382.94 0 l
o
np
105.56 37.28 m
0 141.32 l
o
np
209.29 37.28 m
0 141.32 l
o
np
313.02 37.28 m
0 141.32 l
o
np
416.75 37.28 m
0 141.32 l
o
1 1 1 srgb
1.06 setlinewidth
[] 0 setdash
np
35.66 43.71 m
382.94 0 l
o
np
35.66 75.51 m
382.94 0 l
o
np
35.66 107.30 m
382.94 0 l
o
np
35.66 139.10 m
382.94 0 l
o
np
35.66 170.90 m
382.94 0 l
o
np
53.69 37.28 m
0 141.32 l
o
np
157.42 37.28 m
0 141.32 l
o
np
261.16 37.28 m
0 141.32 l
o
np
364.89 37.28 m
0 141.32 l
o
0 0 0 srgb
1 setlinecap
np
53.07 43.76 m
0.68 -0.02 l
0.68 -0.02 l
0.68 -0.01 l
0.68 0 l
0.69 0 l
0.68 0 l
0.68 0 l
0.68 0 l
0.68 0 l
0.68 0 l
0.68 0 l
0.68 0 l
0.69 0 l
0.68 0 l
0.68 0 l
0.68 0 l
0.68 0 l
0.68 0 l
0.68 0 l
0.68 0 l
0.69 0 l
0.68 0 l
0.68 0 l
0.68 0 l
0.68 0 l
0.68 0 l
0.68 0 l
0.68 0 l
0.69 0 l
0.68 0 l
0.68 0 l
0.68 0 l
0.68 0 l
0.68 0 l
0.68 0 l
0.68 0 l
0.69 0 l
0.68 0 l
0.68 0 l
0.68 0 l
0.68 0 l
0.68 0 l
0.68 0 l
0.68 0 l
0.69 0 l
0.68 0 l
0.68 0 l
0.68 0 l
0.68 0 l
0.68 0 l
0.68 0 l
0.68 0 l
0.69 0 l
0.68 0 l
0.68 0 l
0.68 0 l
0.68 0 l
0.68 0 l
0.68 0 l
0.68 0 l
0.69 0 l
0.68 0 l
0.68 0 l
0.68 0 l
0.68 0 l
0.68 0 l
0.68 0 l
0.68 0 l
0.69 0 l
0.68 0 l
0.68 0 l
0.68 0 l
0.68 0 l
0.68 0 l
0.68 0 l
0.68 0 l
0.69 0 l
0.68 0 l
0.68 0 l
0.68 0 l
0.68 0 l
0.68 0 l
0.68 0 l
0.68 0 l
0.69 0 l
0.68 0 l
0.68 0 l
0.68 0 l
0.68 0 l
0.68 0 l
0.68 0 l
0.68 0 l
0.69 0 l
0.68 0 l
0.68 0 l
0.68 0 l
0.68 0 l
0.68 0 l
0.68 0 l
121.20 43.71 lineto
0.68 0 l
0.68 0 l
0.68 0 l
0.68 0 l
0.68 0 l
0.68 0 l
0.68 0 l
0.69 0 l
0.68 0 l
0.68 0 l
0.68 0 l
0.68 0 l
0.68 0 l
0.68 0 l
0.68 0 l
0.69 0 l
0.68 0 l
0.68 0 l
0.68 0 l
0.68 0 l
0.68 0 l
0.68 0 l
0.68 0 l
0.69 0 l
0.68 0 l
0.68 0 l
0.68 0 l
0.68 0 l
0.68 0 l
0.68 0 l
0.68 0 l
0.69 0 l
0.68 0 l
0.68 0 l
0.68 0 l
0.68 0 l
0.68 0 l
0.68 0 l
0.68 0 l
0.69 0 l
0.68 0 l
0.68 0 l
0.68 0 l
0.68 0 l
0.68 0.01 l
0.68 0.04 l
0.68 0.04 l
0.69 0 l
0.68 -0.04 l
0.68 -0.03 l
0.68 0 l
0.68 0.02 l
0.68 0 l
0.68 -0.02 l
0.68 -0.02 l
0.69 0 l
0.68 0 l
0.68 0.01 l
0.68 0.04 l
0.68 0.04 l
0.68 0.03 l
0.68 -0.01 l
0.68 -0.06 l
0.69 -0.04 l
0.68 0 l
0.68 0.02 l
0.68 0.02 l
0.68 0.02 l
0.68 -0.01 l
0.68 -0.01 l
0.68 -0.02 l
0.69 0.01 l
0.68 0.05 l
0.68 0.01 l
0.68 -0.03 l
0.68 0 l
0.68 0.03 l
0.68 0 l
0.68 -0.02 l
0.69 -0.02 l
0.68 -0.03 l
0.68 -0.02 l
0.68 0 l
0.68 0.03 l
0.68 0.01 l
0.68 -0.02 l
0.68 -0.02 l
0.69 0.01 l
0.68 0.03 l
0.68 0 l
0.68 -0.01 l
0.68 0.30 l
0.68 2.74 l
0.68 10.94 l
0.68 14.66 l
0.69 -0.35 l
0.68 -14.24 l
0.68 -10.48 l
0.68 -3.06 l
189.32 43.80 lineto
0.68 -0.05 l
0.68 0 l
0.69 0.02 l
0.68 0.02 l
0.68 0.04 l
0.68 0.05 l
0.68 0 l
0.68 -0.03 l
0.68 -0.05 l
0.68 -0.05 l
0.69 0 l
0.68 0.02 l
0.68 0.01 l
0.68 0.04 l
0.68 0.09 l
0.68 0.04 l
0.68 -0.04 l
0.68 -0.06 l
0.69 -0.04 l
0.68 0.02 l
0.68 0.04 l
0.68 0.03 l
0.68 -0.02 l
0.68 -0.02 l
0.68 0.04 l
0.68 0.04 l
0.69 -0.05 l
0.68 -0.07 l
0.68 -0.01 l
0.68 0.02 l
0.68 0 l
0.68 -0.01 l
0.68 0.01 l
0.68 0.02 l
0.69 0.01 l
0.68 0.02 l
0.68 0.05 l
0.68 0.02 l
0.68 -0.07 l
0.68 -0.05 l
0.68 0.01 l
0.68 0.01 l
0.69 -0.01 l
0.68 0.03 l
0.68 0.10 l
0.68 0.05 l
0.68 -0.04 l
0.68 -0.07 l
0.68 0.01 l
0.68 0.09 l
0.69 0.06 l
0.68 -0.06 l
0.68 -0.08 l
0.68 0.01 l
0.68 0.14 l
0.68 0.21 l
0.68 0.10 l
0.68 0.04 l
0.69 0.09 l
0.68 -0.05 l
0.68 -0.11 l
0.68 0.94 l
0.68 4.03 l
0.68 4.38 l
0.68 -1.44 l
0.68 -4.45 l
0.69 -2.64 l
0.68 -0.77 l
0.68 -0.14 l
0.68 0.03 l
0.68 0.17 l
0.68 0.21 l
0.68 0.06 l
0.68 -0.10 l
0.69 -0.05 l
0.68 0.17 l
0.68 0.26 l
0.68 0.11 l
0.68 0.08 l
0.68 0.18 l
0.68 0.11 l
0.68 -0.11 l
0.69 -0.12 l
0.68 0.17 l
0.68 0.40 l
0.68 0.31 l
0.68 0.08 l
0.68 -0.03 l
0.68 0.13 l
0.68 0.36 l
0.69 0.84 l
0.68 2.51 l
0.68 5.00 l
0.68 4.25 l
0.68 -0.94 l
0.68 -3.99 l
0.68 -1.83 l
0.68 0.69 l
0.69 1.42 l
257.45 56.58 lineto
0.68 3.38 l
0.68 7.63 l
0.68 20.34 l
0.68 42.39 l
0.68 41.86 l
0.69 -8.19 l
0.68 -49.47 l
0.68 -36.94 l
0.68 -13.72 l
0.68 -5.14 l
0.68 -2.95 l
0.68 -2.19 l
0.68 -1.59 l
0.69 -0.95 l
0.68 -0.58 l
0.68 -0.80 l
0.68 -0.87 l
0.68 -0.64 l
0.68 -0.18 l
0.68 0.10 l
0.68 -0.44 l
0.69 -0.79 l
0.68 -0.61 l
0.68 -0.26 l
0.68 -0.14 l
0.68 -0.34 l
0.68 -0.50 l
0.68 -0.32 l
0.68 -0.09 l
0.69 -0.07 l
0.68 0.02 l
0.68 0.22 l
0.68 0.23 l
0.68 -0.05 l
0.68 -0.34 l
0.68 -0.26 l
0.68 0.03 l
0.69 0.14 l
0.68 0.03 l
0.68 -0.10 l
0.68 -0.17 l
0.68 -0.04 l
0.68 0.10 l
0.68 0.08 l
0.68 -0.07 l
0.69 -0.11 l
0.68 -0.04 l
0.68 0.01 l
0.68 0.05 l
0.68 0.06 l
0.68 -0.04 l
0.68 -0.09 l
0.68 -0.09 l
0.69 -0.05 l
0.68 0.01 l
0.68 0.04 l
0.68 0 l
0.68 0.02 l
0.68 0.02 l
0.68 -0.06 l
0.68 -0.09 l
0.69 -0.01 l
0.68 0.01 l
0.68 -0.01 l
0.68 0.01 l
0.68 0.01 l
0.68 0.02 l
0.68 0.32 l
0.68 1.25 l
0.69 2.09 l
0.68 0.64 l
0.68 -1.97 l
0.68 -1.78 l
0.68 -0.45 l
0.68 -0.09 l
0.68 -0.08 l
0.68 -0.02 l
0.69 -0.02 l
0.68 -0.03 l
0.68 -0.05 l
0.68 -0.01 l
0.68 0.01 l
0.68 -0.03 l
0.68 -0.04 l
0.68 0 l
0.69 0.03 l
0.68 0.04 l
0.68 0.08 l
0.68 0.04 l
0.68 -0.04 l
0.68 -0.04 l
0.68 0 l
0.68 0.01 l
0.69 -0.02 l
0.68 -0.04 l
0.68 0.01 l
0.68 0.05 l
0.68 0.02 l
0.68 -0.03 l
325.57 43.81 lineto
0.68 -0.04 l
0.69 -0.04 l
0.68 -0.02 l
0.68 0.01 l
0.68 0.02 l
0.68 0.04 l
0.68 0.02 l
0.68 -0.03 l
0.69 -0.03 l
0.68 0 l
0.68 0.02 l
0.68 -0.01 l
0.68 -0.02 l
0.68 -0.02 l
0.68 0 l
0.68 0 l
0.69 0 l
0.68 0 l
0.68 0.02 l
0.68 0.04 l
0.68 0.05 l
0.68 0.01 l
0.68 -0.04 l
0.68 -0.04 l
0.69 -0.03 l
0.68 -0.01 l
0.68 0.01 l
0.68 0.03 l
0.68 0.01 l
0.68 -0.02 l
0.68 -0.01 l
0.68 0.02 l
0.69 0.04 l
0.68 0.01 l
0.68 -0.04 l
0.68 -0.03 l
0.68 -0.02 l
0.68 0 l
0.68 0 l
0.68 0 l
0.69 0.02 l
0.68 0.03 l
0.68 0 l
0.68 -0.03 l
0.68 -0.02 l
0.68 0 l
0.68 0.02 l
0.68 0.02 l
0.69 0.01 l
0.68 -0.03 l
0.68 -0.02 l
0.68 0 l
0.68 0 l
0.68 0 l
0.68 0 l
0.68 0 l
0.69 0 l
0.68 0 l
0.68 0 l
0.68 0 l
0.68 0 l
0.68 0 l
0.68 0 l
0.68 0 l
0.69 0 l
0.68 0 l
0.68 0 l
0.68 0 l
0.68 0 l
0.68 0 l
0.68 0 l
0.68 0 l
0.69 0 l
0.68 0 l
0.68 0 l
0.68 0 l
0.68 0 l
0.68 0.01 l
0.68 0.02 l
0.68 0.02 l
0.69 -0.02 l
0.68 -0.02 l
0.68 0 l
0.68 0.01 l
0.68 0.02 l
0.68 0 l
0.68 -0.02 l
0.68 -0.02 l
0.69 0 l
0.68 0 l
0.68 0 l
0.68 0 l
0.68 0 l
0.68 0 l
0.68 0.01 l
0.68 0.02 l
0.69 0.02 l
0.68 -0.01 l
0.68 -0.02 l
393.70 43.71 lineto
0.68 0 l
0.68 0 l
0.68 0 l
0.68 0 l
0.69 0 l
0.68 0 l
0.68 0 l
0.68 0 l
0.68 0.01 l
0.68 0.02 l
0.68 0.02 l
0 -0.05 l
-0.68 0 l
-0.68 0 l
-0.68 0 l
-0.68 0 l
-0.68 0 l
-0.68 0 l
-0.69 0 l
-0.68 0 l
-0.68 0 l
-0.68 0 l
-0.68 0 l
-0.68 0 l
-0.68 0 l
-0.68 0 l
-0.69 0 l
-0.68 0 l
-0.68 0 l
-0.68 0 l
-0.68 0 l
-0.68 0 l
-0.68 0 l
-0.68 0 l
-0.69 0 l
-0.68 0 l
-0.68 0 l
-0.68 0 l
-0.68 0 l
-0.68 0 l
-0.68 0 l
-0.68 0 l
-0.69 0 l
-0.68 0 l
-0.68 0 l
-0.68 0 l
-0.68 0 l
-0.68 0 l
-0.68 0 l
-0.68 0 l
-0.69 0 l
-0.68 0 l
-0.68 0 l
-0.68 0 l
-0.68 0 l
-0.68 0 l
-0.68 0 l
-0.68 0 l
-0.69 0 l
-0.68 0 l
-0.68 0 l
-0.68 0 l
-0.68 0 l
-0.68 0 l
-0.68 0 l
-0.68 0 l
-0.69 0 l
-0.68 0 l
-0.68 0 l
-0.68 0 l
-0.68 0 l
-0.68 0 l
-0.68 0 l
-0.68 0 l
-0.69 0 l
-0.68 0 l
-0.68 0 l
-0.68 0 l
-0.68 0 l
-0.68 0 l
-0.68 0 l
-0.68 0 l
-0.69 0 l
-0.68 0 l
-0.68 0 l
-0.68 0 l
-0.68 0 l
-0.68 0 l
-0.68 0 l
-0.68 0 l
-0.69 0 l
-0.68 0 l
-0.68 0 l
-0.68 0 l
-0.68 0 l
-0.68 0 l
-0.68 0 l
-0.68 0 l
-0.69 0 l
341.24 43.71 lineto
-0.68 0 l
-0.68 0 l
-0.68 0 l
-0.68 0 l
-0.68 0 l
-0.68 0 l
-0.69 0 l
-0.68 0 l
-0.68 0 l
-0.68 0 l
-0.68 0 l
-0.68 0 l
-0.68 0 l
-0.68 0 l
-0.69 0 l
-0.68 0 l
-0.68 0 l
-0.68 0 l
-0.68 0 l
-0.68 0 l
-0.68 0 l
-0.69 0 l
-0.68 0 l
-0.68 0 l
-0.68 0 l
-0.68 0 l
-0.68 0 l
-0.68 0 l
-0.68 0 l
-0.69 0 l
-0.68 0 l
-0.68 0 l
-0.68 0 l
-0.68 0 l
-0.68 0 l
-0.68 0 l
-0.68 0 l
-0.69 0 l
-0.68 0 l
-0.68 0 l
-0.68 0 l
-0.68 0 l
-0.68 0 l
-0.68 0 l
-0.68 0 l
-0.69 0 l
-0.68 0 l
-0.68 0 l
-0.68 0 l
-0.68 0 l
-0.68 0 l
-0.68 0 l
-0.68 0 l
-0.69 0 l
-0.68 0 l
-0.68 0 l
-0.68 0 l
-0.68 0 l
-0.68 0 l
-0.68 0 l
-0.68 0 l
-0.69 0 l
-0.68 0 l
-0.68 0 l
-0.68 0 l
-0.68 0 l
-0.68 0 l
-0.68 0 l
-0.68 0 l
-0.69 0 l
-0.68 0 l
-0.68 0 l
-0.68 0 l
-0.68 0 l
-0.68 0 l
-0.68 0 l
-0.68 0 l
-0.69 0 l
-0.68 0 l
-0.68 0 l
-0.68 0 l
-0.68 0 l
-0.68 0 l
-0.68 0 l
-0.68 0 l
-0.69 0 l
-0.68 0 l
-0.68 0 l
-0.68 0 l
-0.68 0 l
-0.68 0 l
-0.68 0 l
-0.68 0 l
-0.69 0 l
-0.68 0 l
-0.68 0 l
-0.68 0 l
-0.68 0 l
-0.68 0 l
273.12 43.71 lineto
-0.68 0 l
-0.69 0 l
-0.68 0 l
-0.68 0 l
-0.68 0 l
-0.68 0 l
-0.68 0 l
-0.68 0 l
-0.68 0 l
-0.69 0 l
-0.68 0 l
-0.68 0 l
-0.68 0 l
-0.68 0 l
-0.68 0 l
-0.68 0 l
-0.68 0 l
-0.69 0 l
-0.68 0 l
-0.68 0 l
-0.68 0 l
-0.68 0 l
-0.68 0 l
-0.68 0 l
-0.69 0 l
-0.68 0 l
-0.68 0 l
-0.68 0 l
-0.68 0 l
-0.68 0 l
-0.68 0 l
-0.68 0 l
-0.69 0 l
-0.68 0 l
-0.68 0 l
-0.68 0 l
-0.68 0 l
-0.68 0 l
-0.68 0 l
-0.68 0 l
-0.69 0 l
-0.68 0 l
-0.68 0 l
-0.68 0 l
-0.68 0 l
-0.68 0 l
-0.68 0 l
-0.68 0 l
-0.69 0 l
-0.68 0 l
-0.68 0 l
-0.68 0 l
-0.68 0 l
-0.68 0 l
-0.68 0 l
-0.68 0 l
-0.69 0 l
-0.68 0 l
-0.68 0 l
-0.68 0 l
-0.68 0 l
-0.68 0 l
-0.68 0 l
-0.68 0 l
-0.69 0 l
-0.68 0 l
-0.68 0 l
-0.68 0 l
-0.68 0 l
-0.68 0 l
-0.68 0 l
-0.68 0 l
-0.69 0 l
-0.68 0 l
-0.68 0 l
-0.68 0 l
-0.68 0 l
-0.68 0 l
-0.68 0 l
-0.68 0 l
-0.69 0 l
-0.68 0 l
-0.68 0 l
-0.68 0 l
-0.68 0 l
-0.68 0 l
-0.68 0 l
-0.68 0 l
-0.69 0 l
-0.68 0 l
-0.68 0 l
-0.68 0 l
-0.68 0 l
-0.68 0 l
-0.68 0 l
-0.68 0 l
-0.69 0 l
-0.68 0 l
-0.68 0 l
204.99 43.71 lineto
-0.68 0 l
-0.68 0 l
-0.68 0 l
-0.68 0 l
-0.69 0 l
-0.68 0 l
-0.68 0 l
-0.68 0 l
-0.68 0 l
-0.68 0 l
-0.68 0 l
-0.68 0 l
-0.69 0 l
-0.68 0 l
-0.68 0 l
-0.68 0 l
-0.68 0 l
-0.68 0 l
-0.68 0 l
-0.68 0 l
-0.69 0 l
-0.68 0 l
-0.68 0 l
-0.68 0 l
-0.68 0 l
-0.68 0 l
-0.68 0 l
-0.69 0 l
-0.68 0 l
-0.68 0 l
-0.68 0 l
-0.68 0 l
-0.68 0 l
-0.68 0 l
-0.68 0 l
-0.69 0 l
-0.68 0 l
-0.68 0 l
-0.68 0 l
-0.68 0 l
-0.68 0 l
-0.68 0 l
-0.68 0 l
-0.69 0 l
-0.68 0 l
-0.68 0 l
-0.68 0 l
-0.68 0 l
-0.68 0 l
-0.68 0 l
-0.68 0 l
-0.69 0 l
-0.68 0 l
-0.68 0 l
-0.68 0 l
-0.68 0 l
-0.68 0 l
-0.68 0 l
-0.68 0 l
-0.69 0 l
-0.68 0 l
-0.68 0 l
-0.68 0 l
-0.68 0 l
-0.68 0 l
-0.68 0 l
-0.68 0 l
-0.69 0 l
-0.68 0 l
-0.68 0 l
-0.68 0 l
-0.68 0 l
-0.68 0 l
-0.68 0 l
-0.68 0 l
-0.69 0 l
-0.68 0 l
-0.68 0 l
-0.68 0 l
-0.68 0 l
-0.68 0 l
-0.68 0 l
-0.68 0 l
-0.69 0 l
-0.68 0 l
-0.68 0 l
-0.68 0 l
-0.68 0 l
-0.68 0 l
-0.68 0 l
-0.68 0 l
-0.69 0 l
-0.68 0 l
-0.68 0 l
-0.68 0 l
-0.68 0 l
-0.68 0 l
-0.68 0 l
-0.68 0 l
136.86 43.71 lineto
-0.68 0 l
-0.68 0 l
-0.68 0 l
-0.68 0 l
-0.68 0 l
-0.68 0 l
-0.68 0 l
-0.69 0 l
-0.68 0 l
-0.68 0 l
-0.68 0 l
-0.68 0 l
-0.68 0 l
-0.68 0 l
-0.68 0 l
-0.69 0 l
-0.68 0 l
-0.68 0 l
-0.68 0 l
-0.68 0 l
-0.68 0 l
-0.68 0 l
-0.68 0 l
-0.69 0 l
-0.68 0 l
-0.68 0 l
-0.68 0 l
-0.68 0 l
-0.68 0 l
-0.68 0 l
-0.69 0 l
-0.68 0 l
-0.68 0 l
-0.68 0 l
-0.68 0 l
-0.68 0 l
-0.68 0 l
-0.68 0 l
-0.69 0 l
-0.68 0 l
-0.68 0 l
-0.68 0 l
-0.68 0 l
-0.68 0 l
-0.68 0 l
-0.68 0 l
-0.69 0 l
-0.68 0 l
-0.68 0 l
-0.68 0 l
-0.68 0 l
-0.68 0 l
-0.68 0 l
-0.68 0 l
-0.69 0 l
-0.68 0 l
-0.68 0 l
-0.68 0 l
-0.68 0 l
-0.68 0 l
-0.68 0 l
-0.68 0 l
-0.69 0 l
-0.68 0 l
-0.68 0 l
-0.68 0 l
-0.68 0 l
-0.68 0 l
-0.68 0 l
-0.68 0 l
-0.69 0 l
-0.68 0 l
-0.68 0 l
-0.68 0 l
-0.68 0 l
-0.68 0 l
-0.68 0 l
-0.68 0 l
-0.69 0 l
-0.68 0 l
-0.68 0 l
-0.68 0 l
-0.68 0 l
-0.68 0 l
-0.68 0 l
-0.68 0 l
-0.69 0 l
-0.68 0 l
-0.68 0 l
-0.68 0 l
-0.68 0 l
-0.68 0 l
-0.68 0 l
-0.68 0 l
-0.69 0 l
-0.68 0 l
-0.68 0 l
-0.68 0 l
-0.68 0 l
currentpoint o m
68.74 43.71 lineto
-0.68 0 l
-0.68 0 l
-0.69 0 l
-0.68 0 l
-0.68 0 l
-0.68 0 l
-0.68 0 l
-0.68 0 l
-0.68 0 l
-0.68 0 l
-0.69 0 l
-0.68 0 l
-0.68 0 l
-0.68 0 l
-0.68 0 l
-0.68 0 l
-0.68 0 l
-0.68 0 l
-0.69 0 l
-0.68 0 l
-0.68 0 l
-0.68 0 l
-0.68 0 l
0 0.05 l
o
0.00 0.00 433.00 193.00 cl
0.00 0.00 433.00 193.00 cl
0.00 0.00 433.00 193.00 cl
/Font1 findfont 10 s
0.4980 0.4980 0.4980 srgb
28.58 40.12 (0) 1 0 t
28.58 71.92 (1) 1 0 t
28.58 103.71 (2) 1 0 t
28.58 135.51 (3) 1 0 t
28.58 167.31 (4) 1 0 t
0.00 0.00 433.00 193.00 cl
0.00 0.00 433.00 193.00 cl
0.4980 0.4980 0.4980 srgb
1.06 setlinewidth
[] 0 setdash
0 setlinecap
1 setlinejoin
10.00 setmiterlimit
np
31.41 43.71 m
4.25 0 l
o
np
31.41 75.51 m
4.25 0 l
o
np
31.41 107.30 m
4.25 0 l
o
np
31.41 139.10 m
4.25 0 l
o
np
31.41 170.90 m
4.25 0 l
o
0.00 0.00 433.00 193.00 cl
0.00 0.00 433.00 193.00 cl
0.00 0.00 433.00 193.00 cl
0.00 0.00 433.00 193.00 cl
0.00 0.00 433.00 193.00 cl
0.00 0.00 433.00 193.00 cl
0.4980 0.4980 0.4980 srgb
1.06 setlinewidth
[] 0 setdash
0 setlinecap
1 setlinejoin
10.00 setmiterlimit
np
53.69 33.03 m
0 4.25 l
o
np
157.42 33.03 m
0 4.25 l
o
np
261.16 33.03 m
0 4.25 l
o
np
364.89 33.03 m
0 4.25 l
o
0.00 0.00 433.00 193.00 cl
0.00 0.00 433.00 193.00 cl
/Font1 findfont 10 s
0.4980 0.4980 0.4980 srgb
53.69 23.02 (-10) .5 0 t
157.42 23.02 (-5) .5 0 t
261.16 23.02 (0) .5 0 t
364.89 23.02 (5) .5 0 t
0.00 0.00 433.00 193.00 cl
0.00 0.00 433.00 193.00 cl
0.00 0.00 433.00 193.00 cl
0.00 0.00 433.00 193.00 cl
0.00 0.00 433.00 193.00 cl
0.00 0.00 433.00 193.00 cl
0.00 0.00 433.00 193.00 cl
0.00 0.00 433.00 193.00 cl
0.00 0.00 433.00 193.00 cl
0.00 0.00 433.00 193.00 cl
0.00 0.00 433.00 193.00 cl
ep
%%Trailer
%%Pages: 1
%%EOF
