%!PS-Adobe-3.0 EPSF-3.0
%%DocumentNeededResources: font Helvetica
%%+ font Helvetica-Bold
%%+ font Helvetica-Oblique
%%+ font Helvetica-BoldOblique
%%+ font Symbol
%%Title: R Graphics Output
%%Creator: R Software
%%Pages: (atend)
%%BoundingBox: 0 0 433 193
%%EndComments
%%BeginProlog
/bp  { gs sRGB gs } def
% begin .ps.prolog
/gs  { gsave } bind def
/gr  { grestore } bind def
/ep  { showpage gr gr } bind def
/m   { moveto } bind def
/l  { rlineto } bind def
/np  { newpath } bind def
/cp  { closepath } bind def
/f   { fill } bind def
/o   { stroke } bind def
/c   { newpath 0 360 arc } bind def
/r   { 4 2 roll moveto 1 copy 3 -1 roll exch 0 exch rlineto 0 rlineto -1 mul 0 exch rlineto closepath } bind def
/p1  { stroke } bind def
/p2  { gsave bg fill grestore newpath } bind def
/p3  { gsave bg fill grestore stroke } bind def
/p6  { gsave bg eofill grestore newpath } bind def
/p7  { gsave bg eofill grestore stroke } bind def
/t   { 5 -2 roll moveto gsave rotate
       1 index stringwidth pop
       mul neg 0 rmoveto show grestore } bind def
/ta  { 4 -2 roll moveto gsave rotate show } bind def
/tb  { 2 -1 roll 0 rmoveto show } bind def
/cl  { grestore gsave newpath 3 index 3 index moveto 1 index
       4 -1 roll lineto  exch 1 index lineto lineto
       closepath clip newpath } bind def
/rgb { setrgbcolor } bind def
/s   { scalefont setfont } bind def
% end   .ps.prolog
/sRGB { [ /CIEBasedABC
          << /DecodeLMN
               [ { dup 0.03928 le
                        {12.92321 div}
                        {0.055 add 1.055 div 2.4 exp }
                     ifelse
                 } bind dup dup
               ]
             /MatrixLMN [0.412457 0.212673 0.019334
                         0.357576 0.715152 0.119192
                         0.180437 0.072175 0.950301]
             /WhitePoint [0.9505 1.0 1.0890]
           >>
         ] setcolorspace } bind def
/srgb { setcolor } bind def
%%IncludeResource: font Helvetica
/Helvetica findfont
dup length dict begin
  {1 index /FID ne {def} {pop pop} ifelse} forall
  /Encoding ISOLatin1Encoding def
  currentdict
  end
/Font1 exch definefont pop
%%IncludeResource: font Helvetica-Bold
/Helvetica-Bold findfont
dup length dict begin
  {1 index /FID ne {def} {pop pop} ifelse} forall
  /Encoding ISOLatin1Encoding def
  currentdict
  end
/Font2 exch definefont pop
%%IncludeResource: font Helvetica-Oblique
/Helvetica-Oblique findfont
dup length dict begin
  {1 index /FID ne {def} {pop pop} ifelse} forall
  /Encoding ISOLatin1Encoding def
  currentdict
  end
/Font3 exch definefont pop
%%IncludeResource: font Helvetica-BoldOblique
/Helvetica-BoldOblique findfont
dup length dict begin
  {1 index /FID ne {def} {pop pop} ifelse} forall
  /Encoding ISOLatin1Encoding def
  currentdict
  end
/Font4 exch definefont pop
%%IncludeResource: font Symbol
/Symbol findfont
dup length dict begin
  {1 index /FID ne {def} {pop pop} ifelse} forall
  currentdict
  end
/Font5 exch definefont pop
%%EndProlog
%%Page: 1 1
bp
0.00 0.00 433.00 193.00 cl
0.00 0.00 433.00 193.00 cl
0.00 0.00 433.00 193.00 cl
/bg { 1 1 1 srgb } def
1 1 1 srgb
1.06 setlinewidth
[] 0 setdash
1 setlinecap
1 setlinejoin
10.00 setmiterlimit
0.00 0.00 433.00 193.00 r p3
0.00 0.00 433.00 193.00 cl
0.00 0.00 433.00 193.00 cl
0.00 0.00 433.00 193.00 cl
49.56 37.28 418.60 178.60 cl
/bg { 0.8980 0.8980 0.8980 srgb } def
49.56 37.28 369.04 141.32 r p2
0.9490 0.9490 0.9490 srgb
0.53 setlinewidth
[] 0 setdash
0 setlinecap
1 setlinejoin
10.00 setmiterlimit
np
49.56 59.17 m
369.04 0 l
o
np
49.56 90.11 m
369.04 0 l
o
np
49.56 121.04 m
369.04 0 l
o
np
49.56 151.98 m
369.04 0 l
o
np
108.27 37.28 m
0 141.32 l
o
np
192.15 37.28 m
0 141.32 l
o
np
276.02 37.28 m
0 141.32 l
o
np
359.89 37.28 m
0 141.32 l
o
1 1 1 srgb
1.06 setlinewidth
[] 0 setdash
np
49.56 43.71 m
369.04 0 l
o
np
49.56 74.64 m
369.04 0 l
o
np
49.56 105.57 m
369.04 0 l
o
np
49.56 136.51 m
369.04 0 l
o
np
49.56 167.44 m
369.04 0 l
o
np
66.34 37.28 m
0 141.32 l
o
np
150.21 37.28 m
0 141.32 l
o
np
234.08 37.28 m
0 141.32 l
o
np
317.95 37.28 m
0 141.32 l
o
np
401.83 37.28 m
0 141.32 l
o
0 0 0 srgb
1 setlinecap
np
66.34 105.94 m
0.65 2.06 l
0.66 2.06 l
0.66 2.05 l
0.65 2.03 l
0.66 2.02 l
0.66 2.00 l
0.65 1.96 l
0.66 1.94 l
0.66 1.91 l
0.65 1.88 l
0.66 1.83 l
0.66 1.80 l
0.65 1.76 l
0.66 1.71 l
0.66 1.67 l
0.65 1.62 l
0.66 1.57 l
0.65 1.52 l
0.66 1.46 l
0.66 1.42 l
0.65 1.38 l
0.66 1.30 l
0.66 1.26 l
0.65 1.21 l
0.66 1.15 l
0.66 1.09 l
0.65 1.05 l
0.66 1.01 l
0.66 0.94 l
0.65 0.89 l
0.66 0.85 l
0.66 0.81 l
0.65 0.75 l
0.66 0.71 l
0.66 0.67 l
0.65 0.63 l
0.66 0.58 l
0.66 0.55 l
0.65 0.52 l
0.66 0.47 l
0.65 0.44 l
0.66 0.41 l
0.66 0.39 l
0.65 0.35 l
0.66 0.32 l
0.66 0.30 l
0.65 0.28 l
0.66 0.25 l
0.66 0.23 l
0.65 0.22 l
0.66 0.19 l
0.66 0.18 l
0.65 0.17 l
0.66 0.15 l
0.66 0.14 l
0.65 0.13 l
0.66 0.12 l
0.66 0.11 l
0.65 0.10 l
0.66 0.10 l
0.66 0.10 l
0.65 0.09 l
0.66 0.08 l
0.66 0.09 l
0.65 0.09 l
0.66 0.08 l
0.65 0.09 l
0.66 0.09 l
0.66 0.09 l
0.65 0.09 l
0.66 0.10 l
0.66 0.10 l
0.65 0.10 l
0.66 0.11 l
0.66 0.12 l
0.65 0.12 l
0.66 0.12 l
0.66 0.13 l
0.65 0.14 l
0.66 0.14 l
0.66 0.14 l
0.65 0.15 l
0.66 0.15 l
0.66 0.16 l
0.65 0.15 l
0.66 0.16 l
0.66 0.16 l
0.65 0.17 l
0.66 0.16 l
0.66 0.16 l
0.65 0.16 l
0.66 0.16 l
0.65 0.16 l
0.66 0.15 l
0.66 0.15 l
0.65 0.14 l
0.66 0.14 l
0.66 0.13 l
0.65 0.12 l
131.99 169.66 lineto
0.66 0.11 l
0.65 0.09 l
0.66 0.09 l
0.66 0.08 l
0.65 0.06 l
0.66 0.06 l
0.66 0.04 l
0.65 0.03 l
0.66 0.02 l
0.66 0.01 l
0.65 0 l
0.66 -0.01 l
0.66 -0.03 l
0.65 -0.03 l
0.66 -0.05 l
0.65 -0.05 l
0.66 -0.07 l
0.66 -0.07 l
0.65 -0.09 l
0.66 -0.09 l
0.66 -0.09 l
0.65 -0.11 l
0.66 -0.11 l
0.66 -0.11 l
0.65 -0.12 l
0.66 -0.12 l
0.66 -0.13 l
0.65 -0.13 l
0.66 -0.13 l
0.66 -0.13 l
0.65 -0.13 l
0.66 -0.13 l
0.66 -0.13 l
0.65 -0.13 l
0.66 -0.13 l
0.66 -0.13 l
0.65 -0.12 l
0.66 -0.12 l
0.66 -0.12 l
0.65 -0.11 l
0.66 -0.11 l
0.65 -0.11 l
0.66 -0.11 l
0.66 -0.10 l
0.65 -0.10 l
0.66 -0.09 l
0.66 -0.10 l
0.65 -0.09 l
0.66 -0.08 l
0.66 -0.09 l
0.65 -0.08 l
0.66 -0.08 l
0.66 -0.08 l
0.65 -0.08 l
0.66 -0.07 l
0.66 -0.08 l
0.65 -0.07 l
0.66 -0.07 l
0.66 -0.07 l
0.65 -0.08 l
0.66 -0.07 l
0.66 -0.07 l
0.65 -0.07 l
0.66 -0.07 l
0.66 -0.06 l
0.65 -0.07 l
0.66 -0.07 l
0.65 -0.07 l
0.66 -0.06 l
0.66 -0.07 l
0.65 -0.06 l
0.66 -0.06 l
0.66 -0.06 l
0.65 -0.06 l
0.66 -0.05 l
0.66 -0.06 l
0.65 -0.05 l
0.66 -0.04 l
0.66 -0.04 l
0.65 -0.04 l
0.66 -0.04 l
0.66 -0.03 l
0.65 -0.02 l
0.66 -0.03 l
0.66 -0.01 l
0.65 -0.01 l
0.66 -0.01 l
0.66 0 l
0.65 0 l
0.66 0.02 l
0.65 0.01 l
0.66 0.02 l
0.66 0.03 l
0.65 0.03 l
0.66 0.04 l
0.66 0.04 l
0.65 0.05 l
0.66 0.06 l
0.66 0.05 l
197.64 164.66 lineto
0.66 0.07 l
0.66 0.07 l
0.65 0.07 l
0.66 0.09 l
0.66 0.08 l
0.65 0.09 l
0.66 0.09 l
0.66 0.09 l
0.65 0.10 l
0.66 0.09 l
0.66 0.10 l
0.65 0.11 l
0.66 0.10 l
0.66 0.10 l
0.65 0.11 l
0.66 0.10 l
0.65 0.11 l
0.66 0.10 l
0.66 0.11 l
0.65 0.10 l
0.66 0.11 l
0.66 0.10 l
0.65 0.10 l
0.66 0.10 l
0.66 0.09 l
0.65 0.09 l
0.66 0.09 l
0.66 0.09 l
0.65 0.09 l
0.66 0.08 l
0.66 0.07 l
0.65 0.07 l
0.66 0.07 l
0.66 0.07 l
0.65 0.05 l
0.66 0.06 l
0.66 0.05 l
0.65 0.04 l
0.66 0.03 l
0.66 0.03 l
0.65 0.03 l
0.66 0.02 l
0.65 0.01 l
0.66 0 l
0.66 0 l
0.65 -0.01 l
0.66 -0.01 l
0.66 -0.03 l
0.65 -0.03 l
0.66 -0.03 l
0.66 -0.05 l
0.65 -0.05 l
0.66 -0.05 l
0.66 -0.07 l
0.65 -0.07 l
0.66 -0.07 l
0.66 -0.09 l
0.65 -0.09 l
0.66 -0.09 l
0.66 -0.10 l
0.65 -0.11 l
0.66 -0.11 l
0.66 -0.11 l
0.65 -0.12 l
0.66 -0.12 l
0.65 -0.12 l
0.66 -0.13 l
0.66 -0.13 l
0.65 -0.13 l
0.66 -0.13 l
0.66 -0.14 l
0.65 -0.13 l
0.66 -0.14 l
0.66 -0.13 l
0.65 -0.13 l
0.66 -0.13 l
0.66 -0.13 l
0.65 -0.12 l
0.66 -0.13 l
0.66 -0.11 l
0.65 -0.12 l
0.66 -0.11 l
0.66 -0.10 l
0.65 -0.10 l
0.66 -0.10 l
0.66 -0.09 l
0.65 -0.08 l
0.66 -0.07 l
0.66 -0.08 l
0.65 -0.06 l
0.66 -0.05 l
0.65 -0.05 l
0.66 -0.05 l
0.66 -0.03 l
0.65 -0.03 l
0.66 -0.02 l
0.66 -0.01 l
0.65 -0.01 l
0.66 0 l
263.30 163.58 lineto
0.65 0.02 l
0.66 0.01 l
0.66 0.03 l
0.65 0.03 l
0.66 0.03 l
0.66 0.04 l
0.65 0.04 l
0.66 0.04 l
0.66 0.05 l
0.65 0.05 l
0.66 0.06 l
0.66 0.05 l
0.65 0.06 l
0.66 0.05 l
0.66 0.06 l
0.65 0.05 l
0.66 0.06 l
0.65 0.05 l
0.66 0.05 l
0.66 0.05 l
0.65 0.04 l
0.66 0.04 l
0.66 0.04 l
0.65 0.03 l
0.66 0.03 l
0.66 0.02 l
0.65 0.02 l
0.66 0.01 l
0.66 0.01 l
0.65 0 l
0.66 0 l
0.66 -0.01 l
0.65 -0.02 l
0.66 -0.02 l
0.66 -0.03 l
0.65 -0.03 l
0.66 -0.03 l
0.66 -0.04 l
0.65 -0.05 l
0.66 -0.05 l
0.65 -0.05 l
0.66 -0.05 l
0.66 -0.06 l
0.65 -0.06 l
0.66 -0.05 l
0.66 -0.06 l
0.65 -0.06 l
0.66 -0.06 l
0.66 -0.06 l
0.65 -0.05 l
0.66 -0.05 l
0.66 -0.05 l
0.65 -0.04 l
0.66 -0.04 l
0.66 -0.03 l
0.65 -0.03 l
0.66 -0.02 l
0.66 -0.01 l
0.65 -0.01 l
0.66 0 l
0.66 0.02 l
0.65 0.01 l
0.66 0.03 l
0.66 0.04 l
0.65 0.04 l
0.66 0.06 l
0.65 0.06 l
0.66 0.08 l
0.66 0.08 l
0.65 0.09 l
0.66 0.10 l
0.66 0.11 l
0.65 0.12 l
0.66 0.13 l
0.66 0.13 l
0.65 0.15 l
0.66 0.15 l
0.66 0.15 l
0.65 0.17 l
0.66 0.16 l
0.66 0.18 l
0.65 0.18 l
0.66 0.18 l
0.66 0.19 l
0.65 0.19 l
0.66 0.19 l
0.66 0.20 l
0.65 0.19 l
0.66 0.20 l
0.66 0.19 l
0.65 0.20 l
0.66 0.20 l
0.65 0.19 l
0.66 0.19 l
0.66 0.19 l
0.65 0.19 l
0.66 0.18 l
0.66 0.18 l
0.65 0.17 l
328.95 169.21 lineto
0.66 0.17 l
0.65 0.15 l
0.66 0.16 l
0.66 0.15 l
0.65 0.14 l
0.66 0.13 l
0.66 0.13 l
0.65 0.13 l
0.66 0.11 l
0.66 0.12 l
0.65 0.10 l
0.66 0.10 l
0.66 0.09 l
0.65 0.09 l
0.66 0.08 l
0.65 0.08 l
0.66 0.07 l
0.66 0.07 l
0.65 0.06 l
0.66 0.06 l
0.66 0.05 l
0.65 0.05 l
0.66 0.05 l
0.66 0.04 l
0.65 0.04 l
0.66 0.04 l
0.66 0.04 l
0.65 0.03 l
0.66 0.03 l
0.66 0.03 l
0.65 0.03 l
0.66 0.03 l
0.66 0.03 l
0.65 0.03 l
0.66 0.03 l
0.66 0.02 l
0.65 0.03 l
0.66 0.02 l
0.66 0.03 l
0.65 0.02 l
0.66 0.02 l
0.65 0.02 l
0.66 0.02 l
0.66 0.02 l
0.65 0.01 l
0.66 0.01 l
0.66 0.01 l
0.65 0 l
0.66 -0.01 l
0.66 -0.01 l
0.65 -0.02 l
0.66 -0.03 l
0.66 -0.03 l
0.65 -0.06 l
0.66 -0.06 l
0.66 -0.07 l
0.65 -0.09 l
0.66 -0.11 l
0.66 -0.12 l
0.65 -0.14 l
0.66 -0.17 l
0.66 -0.18 l
0.65 -0.21 l
0.66 -0.24 l
0.66 -0.27 l
0.65 -0.29 l
0.66 -0.33 l
0.65 -0.35 l
0.66 -0.40 l
0.66 -0.44 l
0.65 -0.46 l
0.66 -0.52 l
0.66 -0.55 l
0.65 -0.60 l
0.66 -0.64 l
0.66 -0.70 l
0.65 -0.74 l
0.66 -0.79 l
0.66 -0.83 l
0.65 -0.91 l
0.66 -0.95 l
0.66 -1.00 l
0.65 -1.06 l
0.66 -1.12 l
0.66 -1.18 l
0.65 -1.22 l
0.66 -1.30 l
0.66 -1.35 l
0.65 -1.40 l
0.66 -1.46 l
0.65 -1.52 l
0.66 -1.58 l
0.66 -1.63 l
0.65 -1.68 l
0.66 -1.74 l
0.66 -1.79 l
0.65 -1.83 l
0.66 -1.88 l
0.66 -1.93 l
394.60 132.23 lineto
0.66 -2.00 l
0.66 -2.04 l
0.65 -2.08 l
0.66 -2.10 l
0.66 -2.12 l
0.65 -2.15 l
0.66 -2.17 l
0.66 -2.18 l
0.65 -2.20 l
0.66 -2.20 l
0.66 -2.20 l
0 -65.08 l
-0.66 0 l
-0.66 0 l
-0.65 0 l
-0.66 0 l
-0.66 0 l
-0.65 0 l
-0.66 0 l
-0.66 0 l
-0.65 0 l
-0.66 0 l
-0.66 0 l
-0.65 0 l
-0.66 0 l
-0.66 0 l
-0.65 0 l
-0.66 0 l
-0.66 0 l
-0.65 0 l
-0.66 0 l
-0.66 0 l
-0.65 0 l
-0.66 0 l
-0.65 0 l
-0.66 0 l
-0.66 0 l
-0.65 0 l
-0.66 0 l
-0.66 0 l
-0.65 0 l
-0.66 0 l
-0.66 0 l
-0.65 0 l
-0.66 0 l
-0.66 0 l
-0.65 0 l
-0.66 0 l
-0.66 0 l
-0.65 0 l
-0.66 0 l
-0.66 0 l
-0.65 0 l
-0.66 0 l
-0.66 0 l
-0.65 0 l
-0.66 0 l
-0.65 0 l
-0.66 0 l
-0.66 0 l
-0.65 0 l
-0.66 0 l
-0.66 0 l
-0.65 0 l
-0.66 0 l
-0.66 0 l
-0.65 0 l
-0.66 0 l
-0.66 0 l
-0.65 0 l
-0.66 0 l
-0.66 0 l
-0.65 0 l
-0.66 0 l
-0.66 0 l
-0.65 0 l
-0.66 0 l
-0.66 0 l
-0.65 0 l
-0.66 0 l
-0.66 0 l
-0.65 0 l
-0.66 0 l
-0.65 0 l
-0.66 0 l
-0.66 0 l
-0.65 0 l
-0.66 0 l
-0.66 0 l
-0.65 0 l
-0.66 0 l
-0.66 0 l
-0.65 0 l
-0.66 0 l
-0.66 0 l
-0.65 0 l
-0.66 0 l
-0.66 0 l
-0.65 0 l
344.05 43.71 lineto
-0.66 0 l
-0.65 0 l
-0.66 0 l
-0.66 0 l
-0.65 0 l
-0.66 0 l
-0.66 0 l
-0.65 0 l
-0.66 0 l
-0.65 0 l
-0.66 0 l
-0.66 0 l
-0.65 0 l
-0.66 0 l
-0.66 0 l
-0.65 0 l
-0.66 0 l
-0.66 0 l
-0.65 0 l
-0.66 0 l
-0.66 0 l
-0.65 0 l
-0.66 0 l
-0.66 0 l
-0.65 0 l
-0.66 0 l
-0.66 0 l
-0.65 0 l
-0.66 0 l
-0.66 0 l
-0.65 0 l
-0.66 0 l
-0.65 0 l
-0.66 0 l
-0.66 0 l
-0.65 0 l
-0.66 0 l
-0.66 0 l
-0.65 0 l
-0.66 0 l
-0.66 0 l
-0.65 0 l
-0.66 0 l
-0.66 0 l
-0.65 0 l
-0.66 0 l
-0.66 0 l
-0.65 0 l
-0.66 0 l
-0.66 0 l
-0.65 0 l
-0.66 0 l
-0.66 0 l
-0.65 0 l
-0.66 0 l
-0.66 0 l
-0.65 0 l
-0.66 0 l
-0.65 0 l
-0.66 0 l
-0.66 0 l
-0.65 0 l
-0.66 0 l
-0.66 0 l
-0.65 0 l
-0.66 0 l
-0.66 0 l
-0.65 0 l
-0.66 0 l
-0.66 0 l
-0.65 0 l
-0.66 0 l
-0.66 0 l
-0.65 0 l
-0.66 0 l
-0.66 0 l
-0.65 0 l
-0.66 0 l
-0.66 0 l
-0.65 0 l
-0.66 0 l
-0.66 0 l
-0.65 0 l
-0.66 0 l
-0.65 0 l
-0.66 0 l
-0.66 0 l
-0.65 0 l
-0.66 0 l
-0.66 0 l
-0.65 0 l
-0.66 0 l
-0.66 0 l
-0.65 0 l
-0.66 0 l
-0.66 0 l
-0.65 0 l
-0.66 0 l
-0.66 0 l
278.40 43.71 lineto
-0.66 0 l
-0.66 0 l
-0.65 0 l
-0.66 0 l
-0.66 0 l
-0.65 0 l
-0.66 0 l
-0.65 0 l
-0.66 0 l
-0.66 0 l
-0.65 0 l
-0.66 0 l
-0.66 0 l
-0.65 0 l
-0.66 0 l
-0.66 0 l
-0.65 0 l
-0.66 0 l
-0.66 0 l
-0.65 0 l
-0.66 0 l
-0.66 0 l
-0.65 0 l
-0.66 0 l
-0.66 0 l
-0.65 0 l
-0.66 0 l
-0.66 0 l
-0.65 0 l
-0.66 0 l
-0.66 0 l
-0.65 0 l
-0.66 0 l
-0.65 0 l
-0.66 0 l
-0.66 0 l
-0.65 0 l
-0.66 0 l
-0.66 0 l
-0.65 0 l
-0.66 0 l
-0.66 0 l
-0.65 0 l
-0.66 0 l
-0.66 0 l
-0.65 0 l
-0.66 0 l
-0.66 0 l
-0.65 0 l
-0.66 0 l
-0.66 0 l
-0.65 0 l
-0.66 0 l
-0.66 0 l
-0.65 0 l
-0.66 0 l
-0.66 0 l
-0.65 0 l
-0.66 0 l
-0.65 0 l
-0.66 0 l
-0.66 0 l
-0.65 0 l
-0.66 0 l
-0.66 0 l
-0.65 0 l
-0.66 0 l
-0.66 0 l
-0.65 0 l
-0.66 0 l
-0.66 0 l
-0.65 0 l
-0.66 0 l
-0.66 0 l
-0.65 0 l
-0.66 0 l
-0.66 0 l
-0.65 0 l
-0.66 0 l
-0.66 0 l
-0.65 0 l
-0.66 0 l
-0.65 0 l
-0.66 0 l
-0.66 0 l
-0.65 0 l
-0.66 0 l
-0.66 0 l
-0.65 0 l
-0.66 0 l
-0.66 0 l
-0.65 0 l
-0.66 0 l
-0.66 0 l
-0.65 0 l
-0.66 0 l
-0.66 0 l
-0.65 0 l
-0.66 0 l
212.74 43.71 lineto
-0.65 0 l
-0.66 0 l
-0.66 0 l
-0.65 0 l
-0.66 0 l
-0.66 0 l
-0.65 0 l
-0.66 0 l
-0.65 0 l
-0.66 0 l
-0.66 0 l
-0.65 0 l
-0.66 0 l
-0.66 0 l
-0.65 0 l
-0.66 0 l
-0.66 0 l
-0.65 0 l
-0.66 0 l
-0.66 0 l
-0.65 0 l
-0.66 0 l
-0.66 0 l
-0.65 0 l
-0.66 0 l
-0.66 0 l
-0.65 0 l
-0.66 0 l
-0.66 0 l
-0.65 0 l
-0.66 0 l
-0.66 0 l
-0.65 0 l
-0.66 0 l
-0.65 0 l
-0.66 0 l
-0.66 0 l
-0.65 0 l
-0.66 0 l
-0.66 0 l
-0.65 0 l
-0.66 0 l
-0.66 0 l
-0.65 0 l
-0.66 0 l
-0.66 0 l
-0.65 0 l
-0.66 0 l
-0.66 0 l
-0.65 0 l
-0.66 0 l
-0.66 0 l
-0.65 0 l
-0.66 0 l
-0.66 0 l
-0.65 0 l
-0.66 0 l
-0.65 0 l
-0.66 0 l
-0.66 0 l
-0.65 0 l
-0.66 0 l
-0.66 0 l
-0.65 0 l
-0.66 0 l
-0.66 0 l
-0.65 0 l
-0.66 0 l
-0.66 0 l
-0.65 0 l
-0.66 0 l
-0.66 0 l
-0.65 0 l
-0.66 0 l
-0.66 0 l
-0.65 0 l
-0.66 0 l
-0.66 0 l
-0.65 0 l
-0.66 0 l
-0.66 0 l
-0.65 0 l
-0.66 0 l
-0.65 0 l
-0.66 0 l
-0.66 0 l
-0.65 0 l
-0.66 0 l
-0.66 0 l
-0.65 0 l
-0.66 0 l
-0.66 0 l
-0.65 0 l
-0.66 0 l
-0.66 0 l
-0.65 0 l
-0.66 0 l
-0.66 0 l
-0.65 0 l
147.09 43.71 lineto
-0.66 0 l
-0.65 0 l
-0.66 0 l
-0.66 0 l
-0.65 0 l
-0.66 0 l
-0.66 0 l
-0.65 0 l
-0.66 0 l
-0.65 0 l
-0.66 0 l
-0.66 0 l
-0.65 0 l
-0.66 0 l
-0.66 0 l
-0.65 0 l
-0.66 0 l
-0.66 0 l
-0.65 0 l
-0.66 0 l
-0.66 0 l
-0.65 0 l
-0.66 0 l
-0.66 0 l
-0.65 0 l
-0.66 0 l
-0.66 0 l
-0.65 0 l
-0.66 0 l
-0.66 0 l
-0.65 0 l
-0.66 0 l
-0.65 0 l
-0.66 0 l
-0.66 0 l
-0.65 0 l
-0.66 0 l
-0.66 0 l
-0.65 0 l
-0.66 0 l
-0.66 0 l
-0.65 0 l
-0.66 0 l
-0.66 0 l
-0.65 0 l
-0.66 0 l
-0.66 0 l
-0.65 0 l
-0.66 0 l
-0.66 0 l
-0.65 0 l
-0.66 0 l
-0.66 0 l
-0.65 0 l
-0.66 0 l
-0.66 0 l
-0.65 0 l
-0.66 0 l
-0.65 0 l
-0.66 0 l
-0.66 0 l
-0.65 0 l
-0.66 0 l
-0.66 0 l
-0.65 0 l
-0.66 0 l
-0.66 0 l
-0.65 0 l
-0.66 0 l
-0.66 0 l
-0.65 0 l
-0.66 0 l
-0.66 0 l
-0.65 0 l
-0.66 0 l
-0.66 0 l
-0.65 0 l
-0.66 0 l
-0.66 0 l
-0.65 0 l
-0.66 0 l
-0.66 0 l
-0.65 0 l
-0.66 0 l
-0.65 0 l
-0.66 0 l
-0.66 0 l
-0.65 0 l
-0.66 0 l
-0.66 0 l
-0.65 0 l
-0.66 0 l
-0.66 0 l
-0.65 0 l
-0.66 0 l
-0.66 0 l
-0.65 0 l
-0.66 0 l
-0.66 0 l
currentpoint o m
81.44 43.71 lineto
-0.66 0 l
-0.66 0 l
-0.65 0 l
-0.66 0 l
-0.66 0 l
-0.65 0 l
-0.66 0 l
-0.65 0 l
-0.66 0 l
-0.66 0 l
-0.65 0 l
-0.66 0 l
-0.66 0 l
-0.65 0 l
-0.66 0 l
-0.66 0 l
-0.65 0 l
-0.66 0 l
-0.66 0 l
-0.65 0 l
-0.66 0 l
-0.66 0 l
-0.65 0 l
0 62.23 l
o
0.00 0.00 433.00 193.00 cl
0.00 0.00 433.00 193.00 cl
0.00 0.00 433.00 193.00 cl
/Font1 findfont 10 s
0.4980 0.4980 0.4980 srgb
42.48 40.12 (0.00) 1 0 t
42.48 71.05 (0.25) 1 0 t
42.48 101.98 (0.50) 1 0 t
42.48 132.92 (0.75) 1 0 t
42.48 163.85 (1.00) 1 0 t
0.00 0.00 433.00 193.00 cl
0.00 0.00 433.00 193.00 cl
0.4980 0.4980 0.4980 srgb
1.06 setlinewidth
[] 0 setdash
0 setlinecap
1 setlinejoin
10.00 setmiterlimit
np
45.31 43.71 m
4.25 0 l
o
np
45.31 74.64 m
4.25 0 l
o
np
45.31 105.57 m
4.25 0 l
o
np
45.31 136.51 m
4.25 0 l
o
np
45.31 167.44 m
4.25 0 l
o
0.00 0.00 433.00 193.00 cl
0.00 0.00 433.00 193.00 cl
0.00 0.00 433.00 193.00 cl
0.00 0.00 433.00 193.00 cl
0.00 0.00 433.00 193.00 cl
0.00 0.00 433.00 193.00 cl
0.4980 0.4980 0.4980 srgb
1.06 setlinewidth
[] 0 setdash
0 setlinecap
1 setlinejoin
10.00 setmiterlimit
np
66.34 33.03 m
0 4.25 l
o
np
150.21 33.03 m
0 4.25 l
o
np
234.08 33.03 m
0 4.25 l
o
np
317.95 33.03 m
0 4.25 l
o
np
401.83 33.03 m
0 4.25 l
o
0.00 0.00 433.00 193.00 cl
0.00 0.00 433.00 193.00 cl
/Font1 findfont 10 s
0.4980 0.4980 0.4980 srgb
66.34 23.02 (-0.50) .5 0 t
150.21 23.02 (-0.25) .5 0 t
234.08 23.02 (0.00) .5 0 t
317.95 23.02 (0.25) .5 0 t
401.83 23.02 (0.50) .5 0 t
0.00 0.00 433.00 193.00 cl
0.00 0.00 433.00 193.00 cl
0.00 0.00 433.00 193.00 cl
0.00 0.00 433.00 193.00 cl
0.00 0.00 433.00 193.00 cl
0.00 0.00 433.00 193.00 cl
0.00 0.00 433.00 193.00 cl
0.00 0.00 433.00 193.00 cl
0.00 0.00 433.00 193.00 cl
0.00 0.00 433.00 193.00 cl
0.00 0.00 433.00 193.00 cl
ep
%%Trailer
%%Pages: 1
%%EOF
